# Blender MTL File: 'Asteroide feio.blend'
# Material Count: 2
newmtl Material
Ns 96.078431
Ka 0.000000 0.000000 0.000000
Kd 0.640000 0.640000 0.640000
Ks 0.500000 0.500000 0.500000
Ni 1.000000
d 1.000000
illum 2


newmtl asteroid_Map__15_Noise.tga
Ns 0.000000
Ka 0.000000 0.000000 0.000000
Kd 0.185098 0.185098 0.185098
Ks 0.000000 0.000000 0.000000
Ni 1.000000
d 0.000000
illum 2
#map_Kd Map__15_Noise.tga