# Blender v2.63 (sub 0) OBJ File: ''
# www.blender.org
mtllib meteoro4.mtl
o Icosphere
v -0.000301 -1.050346 0.001138
v 0.744995 -0.462037 0.542593
v -0.296191 -0.481677 0.921518
v -0.972301 -0.482806 0.024862
v -0.258564 -0.416904 -0.789509
v 0.644231 -0.420007 -0.469922
v 0.311316 0.499662 0.944455
v -0.758016 0.468506 0.549817
v -0.776303 0.478111 -0.561882
v 0.277162 0.436818 -0.839912
v 0.919827 0.460762 -0.000155
v 0.002855 1.041538 -0.006781
v 0.106399 -1.085267 0.078661
v 0.224336 -1.072058 0.162082
v 0.324760 -0.951442 0.232979
v 0.425322 -0.850654 0.309011
v 0.525604 -0.760686 0.382030
v 0.610761 -0.658938 0.444633
v 0.694893 -0.565835 0.507410
v 0.668493 -0.501970 0.634697
v 0.577101 -0.547105 0.741912
v 0.436438 -0.557307 0.798909
v 0.254166 -0.517595 0.785375
v 0.112446 -0.516730 0.839086
v -0.029869 -0.501748 0.862658
v -0.171648 -0.497476 0.903802
v -0.278424 -0.591367 0.847986
v -0.260549 -0.736648 0.796802
v -0.222953 -0.854249 0.698797
v -0.176579 -0.920576 0.545700
v -0.132084 -0.968436 0.394252
v -0.085423 -1.031933 0.253193
v -0.039280 -1.071586 0.122272
v 0.102953 -1.047095 -0.073179
v 0.219048 -1.041792 -0.155041
v 0.321971 -0.942220 -0.232251
v 0.425070 -0.850473 -0.308818
v 0.531507 -0.778202 -0.388331
v 0.585409 -0.655321 -0.428001
v 0.635799 -0.534333 -0.465789
v 0.684381 -0.453568 -0.371558
v 0.726666 -0.483177 -0.246859
v 0.799218 -0.514464 -0.128448
v 0.925150 -0.574263 0.001832
v 0.885000 -0.550243 0.161983
v 0.841325 -0.523299 0.308120
v 0.785370 -0.485554 0.429984
v -0.414681 -0.520097 0.860335
v -0.542942 -0.561406 0.790508
v -0.639877 -0.548562 0.650177
v -0.722728 -0.528228 0.510877
v -0.821657 -0.526820 0.380341
v -0.921843 -0.534465 0.265601
v -0.946150 -0.504348 0.145292
v -0.886444 -0.566014 0.019890
v -0.754707 -0.647720 0.004098
v -0.655661 -0.769058 -0.002167
v -0.535017 -0.864220 0.000153
v -0.390734 -0.925856 -0.000716
v -0.258828 -1.005275 -0.001614
v -0.125552 -1.044369 -0.001185
v -0.950999 -0.517897 -0.102198
v -0.894381 -0.538974 -0.245423
v -0.785008 -0.528541 -0.373257
v -0.696153 -0.533098 -0.506260
v -0.557094 -0.493809 -0.587165
v -0.452728 -0.470182 -0.675350
v -0.353399 -0.447880 -0.735242
v -0.247174 -0.512720 -0.733525
v -0.225111 -0.630627 -0.681498
v -0.201765 -0.764167 -0.621023
v -0.162834 -0.851810 -0.500613
v -0.120871 -0.922772 -0.371273
v -0.078258 -0.977116 -0.240367
v -0.038429 -1.036868 -0.118589
v -0.154536 -0.440935 -0.804315
v -0.028221 -0.469390 -0.808422
v 0.118356 -0.535578 -0.874264
v 0.265989 -0.536780 -0.825201
v 0.426276 -0.545033 -0.789857
v 0.546850 -0.514017 -0.699466
v 0.614725 -0.463948 -0.582564
v 0.660191 -0.322366 -0.402613
v 0.666799 -0.210759 -0.336105
v 0.662903 -0.096543 -0.291997
v 0.701542 0.018303 -0.254886
v 0.851507 0.134674 -0.210810
v 0.875446 0.242098 -0.134522
v 0.922946 0.356660 -0.069150
v 0.920733 0.358246 0.070969
v 0.844888 0.226306 0.154093
v 0.878569 0.121722 0.241647
v 0.929655 -0.003366 0.319111
v 0.998553 -0.142707 0.417751
v 0.874102 -0.254497 0.448984
v 0.803802 -0.363171 0.497360
v 0.713414 -0.358518 0.605475
v 0.672501 -0.247058 0.665813
v 0.630187 -0.125863 0.731760
v 0.577578 0.001202 0.793151
v 0.514806 0.132502 0.842825
v 0.448528 0.263805 0.886085
v 0.387890 0.391449 0.926105
v 0.233569 0.390754 0.959072
v 0.157537 0.255994 0.967926
v 0.080190 0.129866 0.987843
v -0.000181 -0.001336 1.017041
v -0.083713 -0.135325 1.029788
v -0.164445 -0.265204 1.009318
v -0.239256 -0.387731 0.983727
v -0.380883 -0.385324 0.932705
v -0.455175 -0.261018 0.893898
v -0.553485 -0.138151 0.894202
v -0.643058 -0.000225 0.882650
v -0.692720 0.139821 0.811683
v -0.721638 0.270408 0.713345
v -0.714274 0.362398 0.612197
v -0.811076 0.371944 0.506253
v -0.763590 0.236101 0.411474
v -0.759720 0.114246 0.339097
v -0.797884 -0.006081 0.274823
v -0.899762 -0.133239 0.217787
v -0.965732 -0.270108 0.163105
v -0.985629 -0.387252 0.097348
v -1.013991 -0.397514 -0.058124
v -1.024722 -0.267936 -0.148855
v -1.056956 -0.141530 -0.238979
v -1.062294 -0.002019 -0.334658
v -1.034045 0.142029 -0.421332
v -0.987676 0.285701 -0.500463
v -0.864402 0.384120 -0.526081
v -0.756952 0.383077 -0.641912
v -0.690292 0.252988 -0.685205
v -0.647232 0.129922 -0.754053
v -0.597758 -0.000746 -0.821497
v -0.521317 -0.131668 -0.853945
v -0.437564 -0.251338 -0.864961
v -0.333729 -0.336374 -0.808407
v -0.214847 -0.339489 -0.863551
v -0.152663 -0.241960 -0.923283
v -0.081241 -0.133344 -1.009953
v -0.000067 -0.000170 -1.001441
v 0.083880 0.133500 -1.015037
v 0.161559 0.259095 -0.988860
v 0.224699 0.358545 -0.917086
v 0.368074 0.371179 -0.898521
v 0.451162 0.261454 -0.895997
v 0.537107 0.135142 -0.881637
v 0.596755 -0.001720 -0.820641
v 0.683331 -0.140063 -0.798097
v 0.615544 -0.234353 -0.629370
v 0.637712 -0.338094 -0.550922
v 0.885870 0.485108 0.114543
v 0.831225 0.502417 0.238876
v 0.775537 0.524090 0.373286
v 0.741832 0.568540 0.533955
v 0.632885 0.557051 0.662990
v 0.515313 0.528499 0.763253
v 0.449527 0.532194 0.911654
v 0.184479 0.523226 0.954522
v 0.032071 0.533522 0.927286
v -0.132311 0.571706 0.930678
v -0.304413 0.608897 0.920986
v -0.467271 0.613984 0.857611
v -0.582674 0.560215 0.742348
v -0.672331 0.505557 0.635532
v -0.801774 0.498036 0.440261
v -0.788560 0.501157 0.298552
v -0.826481 0.517067 0.151263
v -0.867221 0.536780 -0.000508
v -0.868585 0.537248 -0.158898
v -0.871984 0.534887 -0.316912
v -0.825677 0.506053 -0.446502
v -0.681989 0.507108 -0.642437
v -0.518325 0.485483 -0.653714
v -0.391103 0.492084 -0.711876
v -0.242304 0.476609 -0.746392
v -0.108458 0.467220 -0.777891
v 0.025731 0.447664 -0.773103
v 0.152610 0.437914 -0.794332
v 0.394439 0.495618 -0.829824
v 0.515433 0.533326 -0.766573
v 0.605360 0.534408 -0.634016
v 0.738874 0.562301 -0.536661
v 0.811309 0.547899 -0.392899
v 0.852956 0.516615 -0.244507
v 0.898342 0.491798 -0.116248
v 0.851935 0.560480 0.000493
v 0.754840 0.658656 0.000170
v 0.654898 0.765712 0.000198
v 0.536910 0.871852 -0.000566
v 0.362380 0.876232 0.005715
v 0.227888 0.934760 0.009548
v 0.113985 0.986923 0.001829
v 0.044070 0.997379 0.100259
v 0.074744 0.863369 0.180887
v 0.105021 0.711584 0.281920
v 0.144517 0.695843 0.440975
v 0.198740 0.740734 0.609142
v 0.243272 0.672694 0.751604
v 0.289501 0.600252 0.884071
v -0.087651 1.000847 0.060861
v -0.203366 0.977169 0.144941
v -0.318645 0.928073 0.230803
v -0.449095 0.897161 0.327103
v -0.577395 0.830686 0.418371
v -0.635630 0.689101 0.461198
v -0.706823 0.579383 0.512809
v -0.101743 1.078674 -0.081683
v -0.216294 1.042984 -0.161388
v -0.335070 0.984142 -0.246056
v -0.449426 0.885301 -0.323205
v -0.555832 0.802723 -0.403724
v -0.644260 0.691829 -0.467672
v -0.719850 0.585310 -0.521035
v 0.035959 1.052938 -0.121552
v 0.084279 1.045323 -0.258263
v 0.124832 0.975128 -0.389661
v 0.170285 0.890065 -0.523749
v 0.209063 0.792455 -0.643222
v 0.230831 0.644039 -0.699184
v 0.257182 0.541332 -0.778088
v -0.144115 -0.624583 0.842804
v -0.107931 -0.777573 0.788949
v 0.009090 -0.636762 0.811310
v -0.062817 -0.907915 0.690338
v 0.060217 -0.827146 0.782878
v 0.168516 -0.653471 0.782059
v -0.015642 -0.892242 0.477257
v 0.106318 -0.873147 0.611640
v 0.228224 -0.790498 0.698400
v 0.335375 -0.667335 0.748976
v 0.025401 -0.944967 0.331585
v 0.139194 -0.897778 0.428268
v 0.264318 -0.848452 0.537947
v 0.381779 -0.759749 0.622256
v 0.487037 -0.651479 0.689658
v 0.070291 -1.071609 0.210664
v 0.175511 -0.952275 0.284356
v 0.289197 -0.883524 0.370812
v 0.403943 -0.807617 0.458499
v 0.510269 -0.715001 0.537969
v 0.610230 -0.618183 0.608179
v 0.663038 -0.577546 -0.338674
v 0.702940 -0.605455 -0.201287
v 0.629743 -0.705673 -0.300823
v 0.818764 -0.672767 -0.080726
v 0.694671 -0.756326 -0.162401
v 0.550535 -0.799745 -0.238725
v 0.795804 -0.650414 0.085586
v 0.722965 -0.784464 -0.002810
v 0.627230 -0.911174 -0.090178
v 0.475753 -0.951599 -0.167889
v 0.792905 -0.648979 0.248433
v 0.720603 -0.778999 0.175258
v 0.604176 -0.875277 0.090753
v 0.488070 -0.978086 -0.003053
v 0.357934 -1.046073 -0.086473
v 0.720723 -0.587664 0.373843
v 0.646393 -0.697217 0.312958
v 0.561697 -0.812683 0.242895
v 0.473494 -0.947832 0.169313
v 0.354955 -1.040185 0.087893
v 0.227539 -1.079538 -0.001576
v -0.851254 -0.597408 0.141591
v -0.676358 -0.660327 0.121024
v -0.769429 -0.611058 0.259267
v -0.586289 -0.799658 0.128539
v -0.618262 -0.702874 0.253498
v -0.628393 -0.582814 0.363335
v -0.415120 -0.824045 0.115022
v -0.432176 -0.724327 0.229193
v -0.469311 -0.646596 0.357430
v -0.586326 -0.634742 0.526085
v -0.293600 -0.918852 0.120859
v -0.299297 -0.789718 0.230969
v -0.338741 -0.721878 0.358267
v -0.449748 -0.729596 0.534134
v -0.516726 -0.668427 0.689503
v -0.174140 -1.023650 0.128520
v -0.206648 -0.948095 0.258034
v -0.231059 -0.845474 0.381260
v -0.317137 -0.830601 0.542000
v -0.371397 -0.752222 0.685611
v -0.414695 -0.655874 0.803665
v -0.340158 -0.548664 -0.674542
v -0.331685 -0.690847 -0.622943
v -0.442619 -0.580264 -0.597926
v -0.320953 -0.839013 -0.545529
v -0.443127 -0.716702 -0.519921
v -0.581603 -0.635987 -0.521249
v -0.272922 -0.914888 -0.403858
v -0.413109 -0.831509 -0.405324
v -0.551826 -0.737501 -0.402882
v -0.670513 -0.628751 -0.388336
v -0.226541 -0.982296 -0.265795
v -0.373886 -0.923512 -0.272960
v -0.511756 -0.829282 -0.269153
v -0.639871 -0.725093 -0.263132
v -0.787122 -0.642171 -0.260249
v -0.173089 -1.019558 -0.125142
v -0.313178 -0.964416 -0.128576
v -0.460271 -0.897999 -0.132495
v -0.594891 -0.807183 -0.130618
v -0.735298 -0.722303 -0.130234
v -0.855220 -0.615716 -0.115640
v 0.575454 -0.589026 -0.569711
v 0.511931 -0.723347 -0.535079
v 0.478450 -0.642894 -0.673814
v 0.398954 -0.798532 -0.450255
v 0.373517 -0.750166 -0.610313
v 0.329135 -0.658386 -0.741065
v 0.288916 -0.882855 -0.370263
v 0.259605 -0.843366 -0.529610
v 0.218761 -0.768306 -0.674864
v 0.166453 -0.648178 -0.782599
v 0.174942 -0.947654 -0.283606
v 0.138198 -0.894436 -0.425326
v 0.099152 -0.847375 -0.583464
v 0.052631 -0.728435 -0.691947
v 0.010411 -0.594249 -0.762090
v 0.066213 -1.017446 -0.201695
v 0.025408 -0.943216 -0.331231
v -0.016099 -0.882873 -0.469385
v -0.059260 -0.818353 -0.615230
v -0.101192 -0.702048 -0.711649
v -0.128156 -0.542225 -0.737145
v 0.799858 0.220187 0.018037
v 0.764283 0.105104 0.099094
v 0.709440 0.117453 -0.032760
v 0.784129 -0.006520 0.171250
v 0.678927 -0.003646 0.039426
v 0.636956 0.007894 -0.099761
v 0.951397 -0.146067 0.253647
v 0.832466 -0.146108 0.098150
v 0.732371 -0.143467 -0.039236
v 0.646714 -0.119150 -0.171443
v 0.971466 -0.282562 0.332631
v 1.005985 -0.298820 0.175887
v 0.924943 -0.283485 0.005081
v 0.858555 -0.279266 -0.138543
v 0.714083 -0.242588 -0.240743
v 0.865189 -0.393045 0.384111
v 0.931781 -0.419504 0.244626
v 1.011519 -0.459659 0.091468
v 0.904702 -0.412131 -0.073914
v 0.837388 -0.395378 -0.206282
v 0.727175 -0.356719 -0.310021
v 0.281282 0.257391 0.865634
v 0.223827 0.131221 0.940025
v 0.347677 0.128421 0.833806
v 0.145675 -0.000684 0.963740
v 0.285655 -0.001356 0.885006
v 0.415076 0.001805 0.803314
v 0.059771 -0.130579 0.974017
v 0.208581 -0.127354 0.903122
v 0.357003 -0.131553 0.850458
v 0.478316 -0.125761 0.762203
v -0.021507 -0.259179 0.938708
v 0.114832 -0.254791 0.862246
v 0.266061 -0.254479 0.816401
v 0.425540 -0.263252 0.802838
v 0.533491 -0.251863 0.709996
v -0.095470 -0.381863 0.921779
v 0.044708 -0.390555 0.887029
v 0.183806 -0.387987 0.821063
v 0.345226 -0.401564 0.802938
v 0.504605 -0.407593 0.775983
v 0.627300 -0.391084 0.702602
v -0.763704 0.256602 0.570116
v -0.743041 0.124026 0.486238
v -0.704260 0.130661 0.628190
v -0.743712 -0.003088 0.405137
v -0.718174 -0.000885 0.555949
v -0.690570 -0.001314 0.724367
v -0.841944 -0.139681 0.351541
v -0.795938 -0.144444 0.498469
v -0.730493 -0.144661 0.650622
v -0.706058 -0.152424 0.837647
v -0.965688 -0.293733 0.301605
v -0.886642 -0.291744 0.430639
v -0.827477 -0.297981 0.589711
v -0.753123 -0.304327 0.758553
v -0.609773 -0.288347 0.850631
v -0.988163 -0.417974 0.228349
v -0.936319 -0.427122 0.353314
v -0.838564 -0.421813 0.483903
v -0.741018 -0.423008 0.620480
v -0.644326 -0.433607 0.764604
v -0.506195 -0.409906 0.854965
v -0.827287 0.267910 -0.594231
v -0.770539 0.135172 -0.655850
v -0.953570 0.148595 -0.572720
v -0.724905 -0.000999 -0.734361
v -0.855748 0.002458 -0.616531
v -0.990890 -0.000163 -0.483029
v -0.673767 -0.145077 -0.807192
v -0.750651 -0.140168 -0.647205
v -0.884643 -0.143785 -0.526118
v -1.013882 -0.147188 -0.394892
v -0.569227 -0.271426 -0.810066
v -0.666329 -0.273401 -0.687029
v -0.781190 -0.281806 -0.566671
v -0.912044 -0.290633 -0.442777
v -0.988784 -0.281344 -0.293214
v -0.441958 -0.360687 -0.749741
v -0.553040 -0.378784 -0.682548
v -0.668934 -0.398277 -0.583208
v -0.809089 -0.422972 -0.486128
v -0.912263 -0.424740 -0.345770
v -0.970940 -0.411667 -0.193535
v 0.312169 0.264457 -0.959247
v 0.385839 0.134497 -0.930056
v 0.236388 0.136749 -0.991084
v 0.471592 0.001323 -0.918665
v 0.322284 0.000368 -0.991479
v 0.157278 0.001246 -1.014809
v 0.535311 -0.139465 -0.853074
v 0.407111 -0.151511 -0.966521
v 0.227007 -0.140246 -0.964814
v 0.067776 -0.138893 -1.001508
v 0.585936 -0.269432 -0.782028
v 0.472357 -0.292843 -0.898943
v 0.301710 -0.283588 -0.924156
v 0.138893 -0.281281 -0.965548
v -0.015438 -0.274864 -0.998139
v 0.575271 -0.364723 -0.647859
v 0.497963 -0.401344 -0.775337
v 0.371796 -0.423690 -0.869372
v 0.206208 -0.416807 -0.903855
v 0.053323 -0.411501 -0.946132
v -0.088627 -0.351101 -0.854069
v 0.541433 0.429021 0.927225
v 0.616860 0.296004 0.890216
v 0.641361 0.436071 0.799774
v 0.672927 0.147329 0.809095
v 0.761170 0.313512 0.795116
v 0.763150 0.457766 0.666925
v 0.718387 0.001357 0.722929
v 0.819100 0.154706 0.705755
v 0.832419 0.301494 0.604648
v 0.819548 0.428122 0.491441
v 0.767254 -0.138115 0.657207
v 0.875026 -0.000608 0.634421
v 0.911309 0.149896 0.554291
v 0.927236 0.296060 0.457979
v 0.871439 0.405648 0.338811
v 0.782586 -0.253968 0.568596
v 0.898169 -0.140468 0.550006
v 0.975308 -0.001863 0.494407
v 0.981369 0.148811 0.396243
v 0.959497 0.277162 0.297599
v 0.901065 0.380765 0.195488
v -0.660334 0.411574 0.729782
v -0.632466 0.291990 0.841281
v -0.535799 0.435185 0.825657
v -0.571562 0.147812 0.908047
v -0.482864 0.295231 0.909873
v -0.395392 0.459524 0.922551
v -0.474679 0.001078 0.916569
v -0.396993 0.145100 0.939594
v -0.314659 0.293220 0.950699
v -0.228861 0.465144 0.989547
v -0.392442 -0.139790 0.951012
v -0.323918 -0.001873 1.010766
v -0.235952 0.142849 1.018221
v -0.147095 0.291245 1.025782
v -0.058716 0.432588 0.993819
v -0.324615 -0.278543 1.006846
v -0.251959 -0.145811 1.049938
v -0.163641 0.000495 1.047559
v -0.075704 0.139783 1.039544
v 0.015089 0.280716 1.013193
v 0.103651 0.410370 0.993118
v -0.947506 0.421689 -0.414938
v -1.021064 0.292513 -0.350555
v -0.948761 0.427571 -0.255303
v -1.045381 0.141847 -0.254527
v -0.970048 0.277900 -0.165794
v -0.904232 0.407805 -0.080340
v -1.058779 -0.004222 -0.159256
v -0.993140 0.136681 -0.077609
v -0.896436 0.262204 -0.001530
v -0.851301 0.388848 0.075560
v -1.042475 -0.138586 -0.076119
v -0.928342 -0.006924 0.000965
v -0.889059 0.124833 0.070772
v -0.843877 0.253724 0.146573
v -0.814422 0.379422 0.227848
v -0.996001 -0.270910 0.009771
v -0.941828 -0.138886 0.077374
v -0.855753 -0.006507 0.141177
v -0.816938 0.120965 0.211241
v -0.814912 0.250681 0.290341
v -0.835420 0.385679 0.373239
v 0.088248 0.352094 -0.868027
v 0.013220 0.270753 -0.985782
v -0.056989 0.371268 -0.870655
v -0.068550 0.136991 -0.991906
v -0.138556 0.277859 -0.958006
v -0.197396 0.388648 -0.854021
v -0.154329 -0.000081 -0.995170
v -0.236502 0.144370 -0.997170
v -0.298236 0.279815 -0.918886
v -0.340764 0.389496 -0.798233
v -0.239898 -0.137996 -0.997477
v -0.321212 -0.000014 -0.989913
v -0.385064 0.140507 -0.918265
v -0.462237 0.285938 -0.875337
v -0.498421 0.395260 -0.767165
v -0.295639 -0.249943 -0.912229
v -0.392039 -0.137141 -0.950345
v -0.464273 -0.000338 -0.905758
v -0.525792 0.136444 -0.839735
v -0.600655 0.277865 -0.799582
v -0.644463 0.397847 -0.720094
v 0.903999 0.381113 -0.195416
v 0.917473 0.266742 -0.282576
v 0.870312 0.405631 -0.339404
v 0.875401 0.141097 -0.362619
v 0.923431 0.295540 -0.457005
v 0.831701 0.432996 -0.498563
v 0.769847 0.016348 -0.402804
v 0.907241 0.149440 -0.548828
v 0.804759 0.289716 -0.586937
v 0.736293 0.434642 -0.640644
v 0.691207 -0.101029 -0.430040
v 0.841292 0.004019 -0.613142
v 0.796522 0.148499 -0.686691
v 0.706871 0.291954 -0.725307
v 0.593310 0.408548 -0.729892
v 0.649262 -0.221805 -0.479656
v 0.683030 -0.117685 -0.597284
v 0.712267 -0.000041 -0.717683
v 0.645898 0.139837 -0.772835
v 0.572902 0.274166 -0.814993
v 0.493045 0.403360 -0.849286
v 0.156652 0.945108 0.099909
v 0.193013 0.796266 0.166500
v 0.266683 0.854706 0.098836
v 0.245152 0.729647 0.322183
v 0.328244 0.773582 0.215805
v 0.445267 0.875970 0.127202
v 0.294734 0.750765 0.498982
v 0.399120 0.767489 0.379361
v 0.522562 0.846594 0.274081
v 0.600587 0.814966 0.132932
v 0.347333 0.693450 0.635884
v 0.462400 0.740095 0.538947
v 0.565492 0.756334 0.410477
v 0.662007 0.747002 0.269905
v 0.747040 0.735263 0.134217
v 0.371509 0.591056 0.744324
v 0.506269 0.652249 0.670796
v 0.590566 0.642332 0.531336
v 0.698832 0.653488 0.400030
v 0.765406 0.630336 0.258995
v 0.822227 0.601810 0.123893
v -0.050399 0.915572 0.168605
v -0.170668 0.872078 0.258331
v -0.032986 0.760400 0.260602
v -0.303261 0.917037 0.384323
v -0.147410 0.746395 0.374162
v 0.003100 0.672488 0.392713
v -0.428857 0.846085 0.478701
v -0.258246 0.814037 0.513589
v -0.102008 0.763712 0.545881
v 0.053391 0.789423 0.597982
v -0.543703 0.763835 0.555383
v -0.408517 0.808522 0.652065
v -0.223201 0.762393 0.671194
v -0.058781 0.779460 0.733351
v 0.100858 0.718320 0.741301
v -0.630628 0.649592 0.621010
v -0.513998 0.700489 0.719073
v -0.364515 0.718683 0.798912
v -0.181960 0.684866 0.830179
v -0.013385 0.635665 0.818210
v 0.143664 0.607089 0.841179
v -0.212872 1.012201 -0.001444
v -0.336951 0.993775 -0.086009
v -0.337530 0.985067 0.081183
v -0.458679 0.907309 -0.165642
v -0.471700 0.939082 -0.000009
v -0.449624 0.898861 0.162517
v -0.574081 0.827221 -0.250440
v -0.582088 0.840707 -0.085455
v -0.568831 0.823369 0.082330
v -0.562231 0.812737 0.247452
v -0.666399 0.719099 -0.323889
v -0.673249 0.726215 -0.163231
v -0.680059 0.733520 -0.000003
v -0.655031 0.704881 0.161113
v -0.660614 0.715445 0.328548
v -0.760083 0.616349 -0.393181
v -0.784895 0.638442 -0.244710
v -0.794334 0.646959 -0.082960
v -0.787761 0.641636 0.080745
v -0.754760 0.620141 0.236548
v -0.763318 0.623803 0.399124
v -0.069675 1.068437 -0.213210
v -0.026295 1.005062 -0.352311
v -0.188458 1.025928 -0.307947
v 0.015570 0.932053 -0.496123
v -0.152332 0.984278 -0.467920
v -0.300801 0.930059 -0.389255
v 0.062639 0.850589 -0.635933
v -0.099699 0.864642 -0.592123
v -0.260989 0.850436 -0.532279
v -0.412454 0.817768 -0.461421
v 0.094818 0.655866 -0.657266
v -0.046678 0.695015 -0.650265
v -0.203081 0.727749 -0.635109
v -0.357201 0.713662 -0.577227
v -0.533785 0.746297 -0.554154
v 0.125860 0.537014 -0.727468
v -0.004327 0.555071 -0.703027
v -0.139056 0.559056 -0.669101
v -0.289760 0.574509 -0.642428
v -0.457973 0.613989 -0.635580
v -0.599616 0.607439 -0.583718
v 0.163277 0.997569 -0.120793
v 0.288514 0.908667 -0.115151
v 0.216306 0.963651 -0.257144
v 0.456396 0.889900 -0.130102
v 0.372636 0.922587 -0.270706
v 0.274788 0.917928 -0.405658
v 0.595450 0.811300 -0.131989
v 0.529137 0.854828 -0.277677
v 0.423207 0.844714 -0.412017
v 0.316060 0.826678 -0.538478
v 0.706258 0.696558 -0.126519
v 0.638686 0.724360 -0.263129
v 0.561934 0.751898 -0.408643
v 0.461045 0.749699 -0.542511
v 0.344777 0.711884 -0.644522
v 0.812754 0.593401 -0.122830
v 0.766380 0.628027 -0.260272
v 0.716766 0.665232 -0.415439
v 0.597363 0.648273 -0.535855
v 0.488369 0.633948 -0.654902
v 0.376363 0.608871 -0.753373
vn -0.156034 -0.963147 -0.219092
vn 0.774472 -0.503603 0.382853
vn -0.043395 -0.981576 -0.186077
vn -0.045643 -0.994200 -0.097387
vn -0.040069 -0.994264 -0.099169
vn 0.861048 -0.338570 0.379429
vn 0.044370 -0.570117 0.820364
vn -0.953293 -0.255354 0.161326
vn -0.311000 -0.482437 -0.818861
vn 0.970612 -0.125689 -0.205220
vn 0.754341 -0.157067 0.637417
vn -0.319068 -0.381196 0.867689
vn -0.942279 -0.275637 0.190089
vn -0.369467 -0.524806 -0.766859
vn 0.987720 -0.062840 -0.143040
vn 0.077416 0.525428 0.847309
vn -0.712105 0.494976 0.497901
vn -0.715798 0.543857 -0.438009
vn -0.305016 0.441004 -0.844086
vn 0.826592 0.562796 -0.002521
vn 0.048668 -0.550715 0.833274
vn -0.047080 -0.337073 0.940301
vn -0.138940 -0.659823 0.738464
vn -0.287953 -0.907466 0.305921
vn 0.310866 -0.876223 0.368232
vn 0.311296 -0.823781 0.473793
vn -0.182222 -0.957017 0.225641
vn -0.075535 -0.444675 0.892501
vn 0.247928 -0.374976 0.893266
vn -0.043061 -0.340779 0.939157
vn 0.170383 -0.291087 0.941402
vn 0.168061 -0.307686 0.936528
vn 0.121618 -0.321989 0.938899
vn -0.171683 -0.631488 0.756140
vn -0.158281 -0.629995 0.760298
vn -0.008503 -0.149930 0.988660
vn 0.169295 -0.100946 0.980382
vn 0.136250 -0.333213 0.932955
vn 0.342909 -0.238329 0.908632
vn 0.157710 -0.986767 -0.037663
vn 0.187536 -0.981778 -0.030693
vn 0.334018 -0.883890 0.327369
vn 0.356889 -0.873626 0.330769
vn 0.479834 -0.295317 0.826164
vn 0.133285 -0.473486 0.870658
vn 0.181557 -0.138207 0.973620
vn -0.136063 -0.303068 0.943206
vn 0.287721 -0.871742 0.396587
vn 0.080400 -0.929796 0.359186
vn 0.007086 -0.990905 0.134373
vn 0.229012 -0.958498 0.169808
vn 0.314883 -0.867853 0.384291
vn 0.361977 -0.847770 0.387631
vn 0.440137 -0.641093 0.628713
vn 0.320924 -0.705422 0.631971
vn 0.339310 -0.629062 0.699392
vn 0.329388 -0.634353 0.699357
vn 0.023850 -0.685952 0.727256
vn 0.202764 -0.637689 0.743128
vn 0.070932 -0.926776 0.368856
vn 0.235888 -0.887593 0.395645
vn 0.178080 -0.957378 0.227410
vn 0.397862 -0.884192 0.244767
vn 0.423686 -0.852376 0.306505
vn 0.485508 -0.819234 0.305184
vn 0.522758 -0.754839 0.396158
vn 0.476514 -0.782553 0.400681
vn 0.517463 -0.695847 0.498026
vn 0.756908 -0.480542 0.442910
vn -0.068143 -0.994115 0.084218
vn 0.032303 -0.993228 0.111603
vn 0.227156 -0.648788 0.726274
vn 0.253720 -0.638390 0.726695
vn 0.166661 -0.866740 0.470092
vn 0.407377 -0.773153 0.486085
vn 0.352170 -0.884812 0.305095
vn 0.503436 -0.808501 0.304760
vn 0.497073 -0.818300 0.288622
vn 0.648997 -0.710512 0.271984
vn 0.608977 -0.769185 0.193653
vn 0.665070 -0.724111 0.182603
vn 0.777900 -0.481999 0.403173
vn 0.758660 -0.505503 0.410976
vn 0.912668 -0.081786 -0.400436
vn 0.897060 -0.250914 -0.363767
vn 0.753356 -0.352965 -0.554861
vn 0.681477 -0.132815 -0.719687
vn 0.610855 -0.746065 0.265037
vn 0.816992 -0.472048 0.331202
vn 0.601618 -0.642121 0.475118
vn 0.931190 -0.234362 -0.279212
vn 0.830158 -0.448988 -0.330526
vn 0.900096 -0.294360 -0.321216
vn 0.887865 -0.326490 -0.324191
vn 0.836168 -0.343582 -0.427522
vn 0.754216 -0.476640 -0.451633
vn 0.675795 -0.135004 -0.724621
vn 0.636848 -0.224973 -0.737436
vn 0.867342 -0.168266 -0.468406
vn 0.479158 -0.727556 -0.490989
vn 0.686423 -0.702361 -0.188445
vn 0.454797 -0.871518 -0.183345
vn 0.585442 -0.788887 0.186856
vn 0.806292 -0.561264 0.186752
vn 0.646522 -0.723438 -0.242171
vn 0.846524 -0.477992 -0.234354
vn 0.515464 -0.536243 -0.668386
vn 0.492147 -0.555145 -0.670526
vn 0.564914 -0.560624 -0.605453
vn 0.212979 -0.755934 -0.619034
vn 0.739423 -0.672971 0.019091
vn 0.869010 -0.494398 0.019824
vn 0.870887 -0.490763 0.026611
vn 0.622935 -0.781609 0.032249
vn 0.697095 -0.681104 0.223955
vn 0.534721 -0.813270 0.229488
vn 0.336209 -0.925602 -0.173854
vn 0.540783 -0.823244 -0.172693
vn 0.204372 -0.772741 -0.600919
vn 0.274059 -0.750041 -0.601939
vn 0.605704 -0.519558 0.602646
vn 0.475048 -0.651218 0.591815
vn 0.478315 -0.617442 0.624484
vn 0.405863 -0.672945 0.618402
vn 0.361317 -0.822491 0.439271
vn 0.623372 -0.646388 0.439988
vn 0.561027 -0.805954 0.188910
vn 0.518762 -0.833499 0.190171
vn 0.443565 -0.895444 0.037810
vn 0.271015 -0.961860 0.037106
vn 0.089981 -0.965954 -0.242561
vn -0.118739 -0.965693 -0.230949
vn 0.752399 -0.611286 0.245406
vn 0.632785 -0.735359 0.242552
vn 0.661008 -0.653470 0.368844
vn 0.588746 -0.719450 0.368470
vn 0.597224 -0.688121 0.412084
vn 0.424115 -0.806718 0.411500
vn 0.472296 -0.638869 0.607275
vn 0.279675 -0.740262 0.611387
vn 0.251705 -0.801409 0.542576
vn 0.472581 -0.704607 0.529335
vn 0.263048 -0.963528 0.049186
vn 0.078257 -0.995823 0.047045
vn -0.113248 -0.964189 -0.239822
vn -0.141293 -0.960847 -0.238345
vn -0.695099 -0.718564 0.022406
vn -0.531534 -0.844602 -0.064180
vn -0.698247 -0.590839 0.404179
vn -0.614514 -0.775543 0.144588
vn -0.314543 -0.744617 0.588735
vn -0.466573 -0.779644 0.417690
vn -0.281289 -0.958436 0.047724
vn -0.699694 -0.714214 0.018078
vn -0.700424 -0.712771 -0.036921
vn -0.324124 -0.938880 0.115963
vn -0.324056 -0.938846 0.116431
vn -0.433373 -0.878879 0.199399
vn -0.397698 -0.824662 0.402206
vn -0.806040 -0.504348 0.309731
vn -0.828492 -0.525067 0.194694
vn -0.519861 -0.853012 -0.045985
vn -0.366019 -0.644780 0.671035
vn -0.200140 -0.842626 0.499925
vn -0.258349 -0.948061 0.185571
vn -0.095937 -0.904129 0.416350
vn -0.056240 -0.756123 0.652009
vn -0.011570 -0.791974 0.610445
vn -0.032233 -0.858829 0.511247
vn -0.240866 -0.666108 0.705892
vn -0.371274 -0.908080 -0.193770
vn -0.606037 -0.789704 -0.095320
vn -0.612603 -0.748073 0.255156
vn -0.553427 -0.679737 0.481328
vn -0.483998 -0.580038 0.655211
vn -0.365711 -0.727377 0.580670
vn -0.421587 -0.847968 0.321271
vn -0.468727 -0.809020 0.354657
vn -0.469513 -0.818024 -0.332258
vn -0.529499 -0.788880 -0.311927
vn -0.571801 -0.816944 0.075133
vn -0.714435 -0.680194 0.164070
vn -0.696724 -0.575201 0.428624
vn -0.637167 -0.703256 0.315354
vn -0.646616 -0.718311 0.256743
vn -0.810058 -0.400725 0.428048
vn -0.858275 -0.464965 0.217190
vn -0.759424 -0.641785 0.106711
vn -0.688279 -0.656912 -0.307797
vn -0.546708 -0.747208 -0.377876
vn -0.601548 -0.774557 0.195451
vn -0.492957 -0.860824 0.126397
vn -0.431363 -0.769967 0.470188
vn -0.532224 -0.646383 0.546741
vn -0.353889 -0.360213 0.863139
vn -0.333767 -0.942311 0.025490
vn -0.323231 -0.931262 0.168142
vn -0.529226 -0.783972 0.324513
vn -0.554359 -0.812094 0.182183
vn -0.752799 -0.571429 0.326745
vn -0.777116 -0.628658 -0.029650
vn -0.523966 -0.826930 -0.204074
vn -0.532365 -0.823616 0.195561
vn -0.565744 -0.794699 0.219972
vn -0.494622 -0.644257 0.583337
vn -0.386172 -0.778941 0.494087
vn -0.139040 -0.344240 0.928529
vn -0.117013 -0.382513 0.916511
vn -0.225012 -0.567430 0.792081
vn -0.296896 -0.507807 -0.808693
vn -0.357953 -0.432201 -0.827691
vn -0.232441 -0.434662 -0.870081
vn 0.108986 -0.786594 -0.607776
vn 0.061210 -0.866563 -0.495300
vn 0.101896 -0.906589 -0.409527
vn -0.096334 -0.905678 -0.412876
vn -0.304786 -0.520442 -0.797650
vn -0.354274 -0.516178 -0.779775
vn -0.297088 -0.341331 -0.891758
vn -0.501516 -0.321390 -0.803238
vn -0.381597 -0.554950 -0.739198
vn -0.470734 -0.536082 -0.700732
vn -0.248511 -0.462637 -0.851005
vn -0.564238 -0.414065 -0.714273
vn -0.567288 -0.407143 -0.715835
vn -0.270090 -0.477125 -0.836303
vn -0.343195 -0.345725 -0.873322
vn -0.404811 -0.326247 -0.854219
vn 0.068519 -0.869606 -0.488968
vn -0.489015 -0.827070 -0.277163
vn -0.684928 -0.596592 -0.418271
vn -0.471784 -0.681624 -0.559293
vn -0.424694 -0.737254 -0.525444
vn -0.646093 -0.652072 -0.396695
vn -0.642217 -0.657632 -0.393799
vn -0.632864 -0.662881 -0.400090
vn 0.050653 -0.890647 -0.451866
vn -0.337789 -0.885556 -0.318888
vn -0.463280 -0.786120 -0.409130
vn -0.530744 -0.761513 -0.372034
vn -0.525967 -0.766532 -0.368492
vn -0.607164 -0.728224 -0.317870
vn -0.655137 -0.667725 -0.353466
vn -0.437964 -0.761093 -0.478461
vn -0.576540 -0.570750 -0.584677
vn -0.610334 -0.552854 -0.567314
vn 0.082114 -0.955224 -0.284261
vn -0.361843 -0.925985 -0.107800
vn -0.363757 -0.925079 -0.109127
vn -0.408101 -0.908887 -0.085895
vn -0.557009 -0.807055 -0.195969
vn -0.549804 -0.810850 -0.200591
vn -0.617701 -0.744997 -0.251842
vn -0.488349 -0.806312 -0.333731
vn -0.469636 -0.822846 -0.319947
vn -0.665574 -0.724061 -0.180962
vn -0.693539 -0.692108 -0.199976
vn -0.714881 -0.674794 -0.183298
vn -0.118816 -0.981388 -0.150868
vn -0.280227 -0.956257 -0.083938
vn -0.359473 -0.922151 -0.142885
vn -0.515316 -0.855256 -0.054645
vn -0.411946 -0.910870 0.024828
vn -0.392744 -0.919558 0.012859
vn -0.557204 -0.823812 -0.104194
vn -0.617513 -0.784318 -0.059355
vn -0.517302 -0.855753 0.009257
vn -0.746517 -0.621623 0.237270
vn -0.608455 -0.727870 0.316208
vn -0.500114 -0.843891 0.194252
vn -0.704657 -0.703093 0.095494
vn -0.691108 -0.718034 0.082442
vn 0.971467 -0.079722 -0.223375
vn 0.857489 -0.440282 -0.266204
vn 0.840820 -0.460621 -0.284342
vn 0.310239 -0.872420 -0.377670
vn 0.391177 -0.807707 -0.441123
vn 0.246050 -0.739862 -0.626149
vn -0.094996 -0.975604 -0.197919
vn 0.883547 -0.313184 -0.348225
vn 0.873476 -0.312595 -0.373261
vn 0.838691 -0.468310 -0.277996
vn 0.753046 -0.473834 -0.456512
vn 0.750243 -0.487157 -0.447006
vn 0.606563 -0.452097 -0.653980
vn 0.306893 -0.877346 -0.368890
vn 0.345492 -0.881692 -0.321332
vn 0.429139 -0.732564 -0.528383
vn 0.350244 -0.706586 -0.614870
vn 0.375116 -0.618626 -0.690355
vn 0.161237 -0.503536 -0.848796
vn 0.372748 -0.846667 -0.379755
vn 0.439338 -0.849746 -0.291398
vn 0.451570 -0.831687 -0.323080
vn 0.304772 -0.808472 -0.503475
vn 0.339889 -0.711613 -0.614884
vn 0.157203 -0.620543 -0.768254
vn 0.186301 -0.491751 -0.850572
vn 0.261537 -0.539710 -0.800195
vn 0.181192 -0.886920 -0.424903
vn 0.211746 -0.895609 -0.391215
vn 0.170234 -0.948705 -0.266421
vn 0.128183 -0.941453 -0.311825
vn 0.186344 -0.850486 -0.491884
vn -0.091913 -0.690418 -0.717548
vn -0.090564 -0.686483 -0.721484
vn -0.283723 -0.512817 -0.810259
vn -0.320938 -0.676604 -0.662726
vn -0.524900 -0.434088 -0.732153
vn 0.057101 -0.796080 -0.602491
vn 0.142478 -0.838760 -0.525529
vn 0.090595 -0.924363 -0.370602
vn 0.049537 -0.909731 -0.412232
vn 0.010343 -0.957705 -0.287566
vn -0.092462 -0.920425 -0.379826
vn 0.026782 -0.667905 -0.743765
vn -0.011563 -0.640650 -0.767746
vn 0.036150 -0.453997 -0.890270
vn -0.243477 -0.192717 -0.950568
vn -0.309399 -0.413489 -0.856329
vn -0.155393 -0.573742 -0.804160
vn 0.001892 -0.974285 -0.225313
vn -0.146794 -0.906172 -0.396615
vn -0.120478 -0.877217 -0.464732
vn -0.026560 -0.926284 -0.375888
vn -0.020209 -0.918426 -0.395076
vn -0.090268 -0.885196 -0.456377
vn -0.115486 -0.920583 -0.373082
vn -0.289923 -0.815950 -0.500170
vn -0.225456 -0.668684 -0.708542
vn -0.440901 -0.433098 -0.786151
vn -0.340826 -0.203905 -0.917748
vn -0.131599 -0.420697 -0.897606
vn -0.166852 -0.574732 -0.801151
vn -0.235697 -0.511012 -0.826628
vn 0.999686 0.019630 0.015564
vn 0.774208 -0.589774 -0.229714
vn 0.770180 -0.244974 -0.588906
vn 0.707150 -0.140352 -0.692994
vn 0.925182 0.265411 -0.271285
vn 0.602887 -0.496744 0.624317
vn 0.806207 -0.292625 0.514200
vn 0.748553 -0.662793 0.019321
vn 0.796127 -0.513122 0.320762
vn 0.854141 -0.448926 -0.262503
vn 0.780300 -0.502987 -0.371666
vn 0.670809 -0.704686 0.231158
vn 0.694464 -0.513029 0.504501
vn 0.770335 -0.243882 -0.589157
vn 0.752399 -0.258008 -0.606076
vn 0.817302 -0.432731 -0.380476
vn 0.869954 -0.395098 -0.295088
vn 0.613349 -0.665708 0.425012
vn 0.568595 -0.802023 0.182920
vn 0.650070 0.396434 -0.648267
vn 0.683076 0.510208 -0.522584
vn 0.677013 0.511538 -0.529133
vn 0.686289 0.537803 -0.489669
vn 0.862422 0.454738 -0.222355
vn 0.819147 0.328298 -0.470339
vn 0.917413 -0.139759 0.372586
vn 0.939571 -0.336493 0.063071
vn 0.961046 -0.018280 -0.275783
vn 0.951547 0.246378 0.184001
vn 0.683104 0.510150 -0.522605
vn 0.701624 0.657827 -0.273838
vn 0.594905 0.685181 -0.420256
vn 0.606304 0.752164 -0.258159
vn 0.607895 0.751759 -0.255582
vn 0.553000 0.616480 -0.560485
vn 0.902788 0.384208 0.193281
vn 0.903842 0.180627 -0.387871
vn 0.676104 -0.347666 0.649625
vn 0.739382 -0.502355 0.448279
vn 0.882000 -0.407597 0.236518
vn 0.836638 -0.231724 0.496327
vn 0.885295 0.239636 -0.398530
vn 0.849278 0.172724 -0.498892
vn 0.903235 0.112234 -0.414210
vn 0.892134 0.095024 -0.441665
vn 0.599993 0.318700 -0.733784
vn 0.694174 0.430014 -0.577244
vn 0.889379 0.307414 -0.338381
vn 0.826082 0.251586 -0.504274
vn 0.758269 -0.398333 0.516100
vn 0.767045 -0.422320 0.482998
vn 0.790267 -0.410305 0.455112
vn 0.802304 -0.496519 0.331325
vn 0.671099 -0.552567 0.494262
vn 0.655485 -0.705254 0.270105
vn 0.806601 -0.163639 -0.567993
vn 0.631216 -0.261532 -0.730184
vn 0.732256 -0.521201 -0.438350
vn 0.636267 -0.554500 -0.536371
vn 0.564297 -0.370712 -0.737660
vn 0.917645 -0.180522 -0.354033
vn 0.812214 0.011700 -0.583242
vn 0.932426 0.089019 -0.350224
vn 0.208955 -0.017938 0.977761
vn 0.610526 -0.296202 0.734522
vn 0.315932 -0.044084 0.947757
vn 0.343240 -0.001237 0.939247
vn 0.362769 -0.138489 0.921531
vn 0.420890 -0.390651 0.818684
vn 0.375845 -0.403696 0.834128
vn 0.180661 -0.520196 0.834720
vn -0.101202 -0.341088 0.934568
vn 0.627503 0.163136 0.761333
vn 0.645797 0.147596 0.749107
vn -0.105272 -0.289015 0.951519
vn -0.042742 -0.332035 0.942298
vn 0.315962 -0.016652 0.948626
vn 0.485447 -0.132247 0.864206
vn 0.650814 -0.011529 0.759150
vn 0.530707 0.079283 0.843839
vn -0.045821 -0.256873 0.965358
vn 0.057725 -0.328994 0.942566
vn 0.339880 -0.151331 0.928214
vn 0.424152 -0.210822 0.880709
vn 0.482343 -0.171545 0.859021
vn 0.331928 -0.067768 0.940867
vn 0.531396 0.067124 0.844460
vn 0.587072 0.030331 0.808966
vn 0.058892 -0.279633 0.958299
vn 0.182722 -0.365345 0.912763
vn 0.337690 -0.441651 0.831210
vn 0.439514 -0.485313 0.755844
vn 0.376009 -0.522147 0.765494
vn 0.258159 -0.462057 0.848444
vn 0.287780 -0.447489 0.846721
vn 0.063629 -0.309896 0.948639
vn 0.587817 0.013429 0.808882
vn 0.653464 -0.027261 0.756466
vn 0.186995 -0.304810 0.933876
vn 0.292440 -0.376278 0.879144
vn 0.424001 -0.369700 0.826768
vn 0.217044 -0.260655 0.940718
vn 0.489274 -0.094451 0.867001
vn 0.428664 -0.056816 0.901676
vn 0.287363 -0.143981 0.946938
vn 0.108834 -0.032360 0.993533
vn 0.082080 -0.046942 0.995520
vn 0.162575 -0.093693 0.982238
vn 0.626104 0.202881 0.752883
vn 0.467183 0.270079 0.841901
vn 0.294883 0.148563 0.943914
vn 0.758220 -0.072448 0.647961
vn 0.378923 -0.380823 0.843440
vn 0.256212 -0.311123 0.915182
vn 0.206430 -0.339578 0.917646
vn 0.126225 -0.292421 0.947923
vn 0.427512 -0.111371 0.897123
vn 0.353292 -0.065176 0.933240
vn 0.090740 -0.218287 0.971657
vn -0.090906 -0.078924 0.992727
vn 0.169008 0.073552 0.982866
vn 0.377243 -0.030025 0.925628
vn 0.507234 0.053516 0.860145
vn 0.776712 -0.092944 0.622961
vn 0.761601 -0.108335 0.638926
vn 0.789143 -0.124596 0.601440
vn -0.730468 0.096352 0.676116
vn -0.932675 -0.357827 0.045569
vn -0.987685 -0.101891 0.118733
vn -0.920477 0.088640 0.380612
vn -0.799154 0.475061 0.368334
vn -0.909284 0.410202 0.070260
vn -0.987331 0.157664 0.017878
vn -0.732944 0.073441 0.676313
vn -0.913011 0.332677 0.236087
vn -0.985764 -0.166835 0.020849
vn -0.913529 -0.309435 0.264035
vn -0.909349 -0.293034 0.295323
vn -0.983789 -0.165058 0.070114
vn -0.990717 -0.069362 0.116915
vn -0.980605 -0.101712 0.167535
vn -0.963204 -0.043749 0.265187
vn -0.986707 0.015534 0.161763
vn -0.996303 -0.055657 0.065440
vn -0.940032 -0.189690 0.283475
vn -0.822802 0.461674 0.331441
vn -0.828442 0.487792 0.275214
vn -0.893150 0.425737 0.145019
vn -0.869793 0.321171 0.374579
vn -0.969170 0.187949 0.159327
vn -0.970287 0.200724 0.135100
vn -0.914805 0.298076 0.272548
vn -0.332859 -0.138045 0.932818
vn -0.780540 0.509654 0.361953
vn -0.759577 0.461616 0.458206
vn -0.869202 0.403877 0.285257
vn -0.863224 0.376902 0.335842
vn -0.845612 0.390182 0.364277
vn -0.841426 0.379380 0.384803
vn -0.964146 0.228208 0.135439
vn -0.497919 -0.274124 0.822759
vn -0.331802 -0.146017 0.931980
vn -0.233490 -0.189185 0.953778
vn -0.986401 0.161964 0.027941
vn -0.923648 -0.056421 0.379065
vn -0.852723 0.014665 0.522157
vn -0.798599 -0.049555 0.599820
vn -0.920282 -0.203259 0.334316
vn -0.751469 -0.388411 0.533320
vn -0.810740 -0.477197 0.339092
vn -0.701108 -0.569978 0.428453
vn -0.474860 -0.362084 0.802124
vn -0.464350 -0.366921 0.806070
vn -0.237902 -0.168604 0.956543
vn -0.520294 -0.044711 0.852816
vn -0.929451 -0.354798 -0.101186
vn -0.875318 -0.480221 0.056629
vn -0.861960 -0.385390 0.329392
vn -0.611380 -0.548520 0.570386
vn -0.632900 -0.592927 0.497871
vn -0.649878 -0.584167 0.486217
vn -0.655682 -0.596348 0.463088
vn -0.762822 -0.525317 0.377019
vn -0.741073 -0.487861 0.461305
vn -0.737255 -0.490747 0.464352
vn -0.504426 -0.231556 0.831827
vn -0.388089 -0.279510 0.878215
vn -0.449175 -0.332629 0.829216
vn -0.322362 -0.383816 0.865314
vn -0.672833 0.391566 -0.627672
vn -0.553685 -0.006601 -0.832700
vn -0.602161 0.218842 -0.767796
vn -0.553352 0.206937 -0.806833
vn -0.297633 0.062324 -0.952644
vn -0.357836 -0.165844 -0.918939
vn -0.208726 -0.705382 -0.677399
vn -0.722575 0.163175 -0.671758
vn -0.445514 0.342742 -0.827070
vn -0.534403 0.157065 -0.830508
vn -0.385511 0.247784 -0.888811
vn -0.449862 0.326247 -0.831377
vn -0.883158 0.027109 -0.468292
vn -0.598480 0.240107 -0.764310
vn -0.652368 0.202471 -0.730357
vn -0.413772 -0.004051 -0.910371
vn -0.678601 -0.246856 -0.691782
vn -0.880112 -0.062931 -0.470578
vn -0.897444 -0.084515 -0.432957
vn -0.552836 0.211249 -0.806068
vn -0.897831 -0.102148 -0.428329
vn -0.638636 -0.320094 -0.699774
vn -0.632050 -0.313307 -0.708768
vn -0.669657 -0.290305 -0.683581
vn -0.676209 -0.298117 -0.673697
vn -0.894094 -0.119019 -0.431776
vn -0.944359 -0.209843 -0.253284
vn -0.270780 -0.202637 -0.941072
vn -0.659634 -0.533739 -0.529155
vn -0.827484 -0.408596 -0.385122
vn -0.694603 -0.236534 -0.679396
vn -0.641569 -0.269922 -0.718006
vn -0.650079 -0.279674 -0.706527
vn -0.684845 -0.258803 -0.681182
vn -0.807940 -0.444414 -0.386947
vn -0.906225 -0.349666 -0.237674
vn -0.909402 -0.368881 -0.192134
vn -0.175582 -0.710725 -0.681206
vn -0.243480 -0.756972 -0.606391
vn -0.589062 -0.653468 -0.475380
vn -0.487024 -0.552330 -0.676564
vn -0.609028 -0.499512 -0.616095
vn -0.488342 -0.357649 -0.795996
vn -0.651199 -0.274897 -0.707369
vn -0.737914 -0.394760 -0.547401
vn -0.855525 -0.302538 -0.420175
vn -0.881452 -0.357093 -0.309076
vn -0.935743 -0.285986 -0.206391
vn -0.926860 -0.263787 -0.267110
vn -0.334467 -0.475052 -0.813915
vn -0.362519 -0.499081 -0.787082
vn -0.391109 -0.490574 -0.778699
vn -0.458455 -0.557658 -0.691980
vn -0.490405 -0.545988 -0.679264
vn -0.372956 -0.401988 -0.836247
vn -0.488959 -0.355841 -0.796427
vn -0.669333 -0.608478 -0.426318
vn -0.618267 -0.635496 -0.462482
vn -0.594230 -0.581302 -0.555858
vn -0.866588 -0.398967 -0.299751
vn -0.868459 -0.406733 -0.283457
vn -0.893038 -0.377800 -0.244440
vn -0.889216 -0.456915 -0.022884
vn 0.032716 0.690508 -0.722584
vn 0.402158 0.284509 -0.870243
vn 0.302994 0.098398 -0.947899
vn 0.613214 -0.082849 -0.785560
vn 0.347665 0.065148 -0.935353
vn 0.797830 -0.602663 -0.016253
vn 0.848213 -0.192021 -0.493623
vn 0.073438 0.463878 -0.882850
vn 0.147617 0.515474 -0.844094
vn 0.414543 0.030705 -0.909512
vn 0.378118 0.006413 -0.925735
vn 0.186722 0.131898 -0.973518
vn 0.151896 0.110755 -0.982171
vn 0.302434 0.113794 -0.946353
vn 0.428392 0.200485 -0.881071
vn 0.370418 0.235895 -0.898412
vn 0.139895 0.090960 -0.985980
vn 0.152888 0.083157 -0.984739
vn -0.084128 -0.048400 -0.995279
vn 0.612831 -0.088479 -0.785245
vn 0.664441 -0.046779 -0.745875
vn 0.435791 0.096346 -0.894877
vn -0.020161 -0.173071 -0.984703
vn 0.133341 -0.271119 -0.953265
vn 0.216776 -0.228528 -0.949096
vn -0.084226 -0.040705 -0.995615
vn 0.057623 0.028668 -0.997927
vn 0.324470 -0.353267 -0.877452
vn 0.723381 -0.092274 -0.684255
vn 0.664502 -0.049752 -0.745629
vn 0.114422 -0.385055 -0.915773
vn -0.026956 -0.285753 -0.957924
vn 0.241796 -0.146074 -0.959269
vn 0.221481 -0.133347 -0.966005
vn 0.198623 -0.145572 -0.969205
vn 0.054335 -0.057952 -0.996840
vn -0.511387 -0.304853 -0.803460
vn 0.953128 -0.277253 -0.121150
vn 0.780857 -0.536951 -0.319289
vn 0.675629 -0.479005 -0.560428
vn 0.555166 -0.564680 -0.610678
vn 0.122732 -0.307571 -0.943577
vn 0.184916 -0.276284 -0.943119
vn 0.230489 -0.305997 -0.923710
vn 0.244751 -0.298377 -0.922534
vn 0.188677 -0.264972 -0.945617
vn -0.608468 -0.530759 -0.589968
vn -0.477340 -0.652973 -0.588024
vn 0.015051 -0.529181 -0.848375
vn 0.842874 -0.018745 -0.537784
vn 0.862803 0.010467 -0.505432
vn 0.852581 0.018236 -0.522277
vn 0.621001 -0.234236 -0.747992
vn 0.607548 -0.226169 -0.761402
vn 0.163889 -0.488156 -0.857230
vn 0.158970 -0.484683 -0.860123
vn 0.282593 -0.423466 -0.860707
vn 0.232318 -0.393454 -0.889507
vn -0.537047 -0.615560 -0.576772
vn -0.607920 -0.536363 -0.585447
vn -0.121943 -0.410920 -0.903479
vn 0.019666 -0.495407 -0.868439
vn -0.246184 -0.593701 -0.766102
vn 0.231216 -0.001362 0.972901
vn 0.059724 -0.272690 0.960246
vn 0.033487 -0.297461 0.954146
vn 0.224334 -0.249172 0.942119
vn 0.433433 -0.240199 0.868585
vn 0.432835 -0.309579 0.846649
vn 0.646956 -0.165473 0.744356
vn -0.036033 0.117678 0.992398
vn 0.692318 0.660553 0.290459
vn 0.025013 -0.254772 0.966678
vn 0.753143 0.258788 0.604817
vn 0.461293 0.789247 0.405337
vn 0.346436 0.713219 0.609345
vn 0.226929 -0.399137 0.888365
vn 0.554930 -0.227353 0.800227
vn 0.462456 0.422451 0.779532
vn 0.575233 0.538935 0.615350
vn 0.491609 0.667183 0.559632
vn 0.516155 0.696941 0.497853
vn 0.416238 -0.362577 0.833836
vn 0.563170 -0.282915 0.776401
vn 0.568903 -0.235811 0.787872
vn 0.929249 0.148655 0.338227
vn 0.906431 0.273535 0.321811
vn 0.918999 0.310556 0.242892
vn 0.880861 0.423469 0.211561
vn 0.880530 0.470853 0.054451
vn 0.445465 -0.249141 0.859936
vn 0.476223 -0.232725 0.847969
vn 0.477963 -0.218630 0.850736
vn 0.853070 0.069667 0.517124
vn 0.827126 0.265974 0.495096
vn 0.816768 0.252758 0.518655
vn 0.741305 0.487637 0.461169
vn 0.784205 0.594080 0.179138
vn 0.789436 0.586208 0.182076
vn 0.787761 0.569580 0.234543
vn 0.576169 -0.447076 0.684216
vn 0.558993 -0.455803 0.692654
vn 0.591504 -0.342647 0.729874
vn 0.793450 -0.212857 0.570201
vn 0.808274 0.112822 0.577897
vn 0.892204 0.220788 0.393986
vn 0.902173 0.164469 0.398791
vn 0.946441 0.282057 0.157143
vn 0.835669 0.539188 0.104562
vn 0.833802 0.546603 0.077455
vn 0.877892 0.468265 0.100170
vn 0.865157 0.379929 0.327349
vn 0.734088 -0.265174 0.625138
vn 0.771310 -0.235786 0.591173
vn 0.647146 -0.577506 0.497685
vn 0.644971 -0.578511 0.499338
vn 0.779624 -0.195193 0.595051
vn 0.926798 0.285656 -0.243816
vn 0.948960 -0.198077 -0.245441
vn 0.832910 -0.002546 -0.553403
vn 0.826163 -0.248028 -0.505902
vn 0.798866 -0.213499 -0.562344
vn 0.796820 -0.131771 -0.589673
vn 0.898980 -0.383608 0.211374
vn 0.967358 0.227487 0.111658
vn 0.953193 0.177995 0.244418
vn -0.725164 0.101447 0.681062
vn -0.896172 0.358784 0.261056
vn -0.817300 0.220039 0.532544
vn -0.620384 0.168201 0.766050
vn -0.196926 -0.045869 0.979345
vn -0.323494 -0.261091 0.909496
vn -0.657909 -0.163710 0.735088
vn -0.918626 0.215114 0.331441
vn -0.795514 0.375422 0.475622
vn -0.807255 0.290762 0.513612
vn -0.592412 0.471217 0.653454
vn -0.619463 0.261062 0.740346
vn -0.734281 0.163691 0.658815
vn -0.623477 0.095950 0.775931
vn -0.409281 0.235334 0.881536
vn -0.395389 0.359154 0.845385
vn -0.578977 0.248329 0.776607
vn -0.575140 0.074851 0.814623
vn -0.347652 0.221291 0.911136
vn -0.196408 -0.072891 0.977809
vn -0.178418 -0.060766 0.982077
vn -0.175645 0.093543 0.979999
vn -0.234822 0.057779 0.970320
vn -0.235004 0.050216 0.970696
vn -0.372437 -0.023770 0.927753
vn -0.369622 0.234546 0.899092
vn 0.047032 0.450035 0.891772
vn -0.332119 0.036566 0.942529
vn -0.528535 -0.102509 0.842699
vn -0.522030 0.147275 0.840116
vn -0.426186 0.213766 0.879016
vn -0.430200 0.172700 0.886060
vn -0.399288 0.193428 0.896189
vn -0.408930 -0.002126 0.912563
vn 0.015849 0.211099 0.977336
vn 0.061556 0.439329 0.896215
vn 0.125983 0.464495 0.876569
vn -0.655440 -0.016559 0.755066
vn -0.573684 0.048583 0.817635
vn -0.576386 -0.066503 0.814467
vn -0.223301 0.150457 0.963068
vn -0.224113 0.086215 0.970742
vn -0.128066 0.137367 0.982206
vn -0.131317 0.028144 0.990941
vn 0.085107 0.129877 0.987871
vn 0.087100 0.167601 0.982000
vn 0.023097 0.137546 0.990226
vn 0.072499 0.502637 0.861452
vn -0.134212 0.405367 0.904248
vn -0.313224 -0.424719 0.849414
vn 0.002020 -0.205632 0.978627
vn 0.011539 -0.314474 0.949196
vn 0.129935 -0.232672 0.963836
vn 0.122261 -0.057691 0.990820
vn 0.183265 -0.020748 0.982845
vn 0.182575 -0.058795 0.981432
vn 0.315751 0.017701 0.948677
vn 0.313298 -0.024334 0.949343
vn 0.297675 -0.031881 0.954135
vn 0.294051 -0.053093 0.954314
vn 0.242458 -0.073236 0.967394
vn 0.269969 0.132795 0.953668
vn 0.091493 0.068025 0.993480
vn -0.732826 0.519512 -0.439400
vn -0.567584 0.551895 -0.610950
vn -0.957066 0.186808 -0.221647
vn -0.985942 0.153137 -0.066836
vn -0.999500 -0.024722 0.019721
vn -0.978556 -0.185110 0.090352
vn -0.982911 0.043791 0.178794
vn -0.552831 0.571415 -0.606517
vn -0.591740 0.715825 -0.370727
vn -0.890856 0.399348 -0.216558
vn -0.873978 0.485335 -0.024753
vn -0.820390 0.571143 -0.027493
vn -0.810893 0.585129 0.008705
vn -0.990845 0.117084 -0.067209
vn -0.905810 0.321827 0.275563
vn -0.914756 0.295111 0.275920
vn -0.919053 0.290202 0.266690
vn -0.874707 0.403665 0.268222
vn -0.962644 0.270619 0.009092
vn -0.994240 0.105053 0.021245
vn -0.922034 0.267240 0.280064
vn -0.905733 0.320965 0.276819
vn -0.826043 0.389471 0.407389
vn -0.891584 0.177720 0.416527
vn -0.933926 0.130195 0.332915
vn -0.942245 0.067310 0.328092
vn -0.964304 0.031428 0.262928
vn -0.993847 -0.065187 0.089544
vn -0.740691 0.286219 0.607828
vn -0.775533 -0.004528 0.631290
vn -0.819472 -0.057780 0.570200
vn -0.781331 0.257312 0.568606
vn -0.932338 0.127933 0.338199
vn -0.932539 0.126492 0.338188
vn -0.968323 0.072387 0.238979
vn -0.970142 0.047353 0.237870
vn -0.965328 0.057144 0.254709
vn -0.959075 -0.226888 0.169402
vn -0.834579 0.062171 0.547369
vn -0.775234 0.373985 0.509066
vn -0.836884 0.335816 0.432265
vn -0.887873 0.021212 0.459599
vn -0.889210 0.019524 0.457083
vn -0.888319 0.042483 0.457257
vn -0.975483 -0.103274 0.194340
vn -0.974968 0.100091 0.198541
vn -0.988078 -0.064166 -0.139947
vn -0.946103 0.287547 -0.149019
vn -0.940657 0.329683 -0.080452
vn -0.983284 0.045130 0.176397
vn -0.979474 0.058002 0.193046
vn -0.938863 0.291121 0.183809
vn -0.906590 0.333827 0.258175
vn -0.862639 0.444968 0.240538
vn -0.801854 0.487399 0.345648
vn -0.916029 0.061021 0.396443
vn -0.909226 0.069091 0.410529
vn -0.894117 -0.222895 0.388423
vn -0.904058 -0.239126 0.354257
vn -0.880536 -0.337882 0.332404
vn -0.906482 -0.403555 0.124233
vn -0.965499 0.173064 0.194575
vn -0.861714 0.283726 0.420652
vn -0.219252 0.755571 -0.617285
vn -0.278474 0.672022 -0.686177
vn -0.004079 0.206449 -0.978449
vn -0.150169 -0.006250 -0.988641
vn -0.040403 0.088248 -0.995279
vn -0.044777 -0.604940 -0.795012
vn -0.038579 -0.503887 -0.862908
vn -0.260261 0.733934 -0.627379
vn -0.069965 0.679570 -0.730267
vn 0.051127 0.806180 -0.589458
vn 0.114309 0.781845 -0.612905
vn 0.109205 0.735543 -0.668619
vn 0.129722 0.724278 -0.677195
vn -0.145681 0.133928 -0.980225
vn -0.171235 0.149258 -0.973859
vn -0.091766 0.721715 -0.686080
vn -0.001790 0.683857 -0.729614
vn 0.000921 0.695317 -0.718702
vn -0.101504 0.749137 -0.654592
vn -0.040535 0.049137 -0.997969
vn 0.031510 0.004088 -0.999495
vn 0.041421 0.253177 -0.966533
vn -0.211701 0.414947 -0.884874
vn -0.179335 0.620953 -0.763058
vn -0.267706 0.664101 -0.698071
vn -0.258036 0.692540 -0.673651
vn -0.119878 0.604264 -0.787714
vn -0.080154 0.066368 -0.994571
vn -0.031452 0.036223 -0.998849
vn -0.031483 -0.031741 -0.999000
vn -0.461375 0.227584 -0.857519
vn -0.455934 0.280403 -0.844688
vn -0.248468 0.150593 -0.956862
vn -0.158102 0.702269 -0.694134
vn -0.118094 0.678414 -0.725127
vn -0.133685 0.599001 -0.789510
vn -0.321909 0.712690 -0.623256
vn -0.028706 -0.596508 -0.802093
vn -0.258783 -0.500342 -0.826250
vn -0.294353 -0.121498 -0.947942
vn -0.507007 0.013186 -0.861841
vn -0.496666 0.204414 -0.843527
vn -0.482194 0.195345 -0.854008
vn -0.487270 -0.000809 -0.873251
vn -0.479867 -0.004927 -0.877327
vn -0.421687 0.563412 -0.710456
vn -0.264344 0.463716 -0.845630
vn -0.190158 0.751867 -0.631297
vn 0.021256 0.584031 -0.811453
vn -0.329334 -0.662737 -0.672547
vn -0.216267 -0.709873 -0.670305
vn -0.268052 -0.506076 -0.819778
vn -0.572876 -0.331948 -0.749416
vn -0.598369 -0.055437 -0.799300
vn -0.530810 -0.101392 -0.841404
vn -0.526784 0.165503 -0.833731
vn -0.572454 0.194401 -0.796558
vn -0.572489 -0.071136 -0.816821
vn -0.792105 0.062522 -0.607175
vn -0.793733 0.106898 -0.598799
vn -0.569025 -0.017982 -0.822123
vn -0.566499 0.339205 -0.751012
vn -0.663450 0.398299 -0.633398
vn 0.980849 0.127158 -0.147532
vn 0.940391 -0.278597 -0.195062
vn 0.915636 -0.347537 0.202062
vn 0.600704 -0.797155 0.060817
vn 0.828421 -0.404057 0.387888
vn 0.978356 -0.044652 0.202054
vn 0.992390 0.014130 -0.122323
vn 0.983174 0.136817 -0.121033
vn 0.927394 0.247826 -0.280220
vn 0.962175 -0.084121 0.259120
vn 0.951502 0.249381 -0.180149
vn 0.940906 0.292744 -0.170286
vn 0.929754 0.312230 -0.195116
vn 0.913265 -0.386942 0.127367
vn 0.951526 -0.307029 -0.018185
vn 0.931244 0.353080 0.090105
vn 0.841920 0.527521 -0.113543
vn 0.931225 0.322086 -0.170528
vn 0.805200 0.472462 -0.358375
vn 0.670571 -0.669989 0.318511
vn 0.744026 -0.660982 0.097610
vn 0.966218 -0.205130 0.156028
vn 0.689924 0.328844 -0.644878
vn 0.704457 0.271903 -0.655599
vn 0.817082 0.183464 -0.546551
vn 0.763571 0.398455 -0.508127
vn 0.400960 0.573670 -0.714237
vn 0.796826 -0.576113 0.182103
vn 0.761642 -0.578178 0.292595
vn 0.809638 -0.501810 0.304421
vn 0.777644 -0.076689 -0.624010
vn 0.723163 0.369857 -0.583302
vn 0.771290 0.336600 -0.540196
vn 0.805723 0.170430 -0.567242
vn 0.434751 0.391542 -0.810978
vn 0.372814 0.539440 -0.754993
vn 0.779813 0.330395 -0.531725
vn 0.951801 -0.292019 -0.093806
vn 0.946342 -0.322860 -0.014117
vn 0.611934 -0.789408 0.048696
vn 0.471364 -0.685292 -0.555149
vn 0.621251 -0.193981 -0.759222
vn 0.498274 -0.103017 -0.860878
vn 0.491896 0.073886 -0.867513
vn 0.552320 0.038798 -0.832729
vn 0.464912 0.422207 -0.778202
vn 0.728031 0.284438 -0.623752
vn 0.730989 0.272295 -0.625708
vn 0.284612 0.479331 -0.830203
vn 0.988792 -0.006810 -0.149145
vn 0.974074 0.039736 -0.222710
vn 0.872957 -0.461526 -0.157925
vn 0.857105 -0.511829 0.058323
vn 0.975975 -0.216376 0.025576
vn 0.636268 0.281107 -0.718430
vn 0.665058 0.021219 -0.746491
vn 0.707272 -0.006804 -0.706909
vn 0.694919 0.157427 -0.701644
vn 0.516287 0.258469 -0.816481
vn 0.542065 0.114064 -0.832559
vn 0.310033 0.213455 -0.926454
vn 0.232125 0.431947 -0.871516
vn -0.180243 0.504379 -0.844461
vn 0.419067 0.884817 0.203671
vn 0.253510 0.540639 0.802148
vn 0.406099 0.561112 0.721275
vn -0.165454 0.976553 0.137727
vn -0.283492 0.945371 -0.160951
vn 0.222712 0.904947 0.362590
vn 0.529290 0.808454 0.257399
vn 0.413197 0.888610 0.199098
vn 0.395393 0.894350 0.209290
vn 0.356293 0.452725 0.817371
vn 0.380475 0.453523 0.805950
vn 0.588744 0.712040 0.382596
vn 0.349504 0.767983 0.536702
vn -0.239898 0.860872 0.448718
vn 0.012299 0.920779 0.389891
vn -0.084015 0.797557 0.597364
vn -0.189444 0.757329 0.624950
vn -0.132178 0.986918 0.092309
vn 0.024561 0.999592 -0.014601
vn -0.337243 0.941248 -0.017852
vn -0.219028 0.974171 -0.054937
vn -0.291698 0.942774 0.161525
vn -0.397650 0.894198 0.205630
vn -0.423745 0.819037 0.386805
vn 0.365775 0.930682 -0.006351
vn 0.349432 0.910455 0.221291
vn 0.668800 0.743439 -0.002211
vn 0.241266 0.924713 0.294443
vn -0.036482 0.916739 0.397818
vn 0.024767 0.986873 0.159586
vn 0.037264 0.987259 0.154697
vn -0.049752 0.825625 0.562021
vn 0.555081 0.763346 0.330437
vn 0.578272 0.803823 0.139539
vn 0.465130 0.858173 0.217241
vn 0.474910 0.870570 -0.128720
vn 0.690437 0.644639 -0.328234
vn 0.471212 0.691335 0.547737
vn 0.039827 0.730926 0.681294
vn 0.102690 0.843232 0.527649
vn 0.589294 0.748972 0.302941
vn 0.538558 0.665845 0.516339
vn 0.550109 0.661437 0.509785
vn 0.588135 0.726400 0.355584
vn 0.736917 0.630260 0.244388
vn 0.706450 0.589479 0.391718
vn 0.849635 0.458528 0.260524
vn 0.839744 0.491035 -0.231763
vn 0.709650 0.701628 -0.064147
vn 0.364253 0.918596 0.153302
vn 0.378566 0.914136 0.145059
vn 0.156918 0.598451 0.785642
vn 0.458734 0.553112 0.695435
vn 0.585013 0.753486 0.300033
vn 0.394840 0.823820 0.406722
vn 0.396757 0.827419 0.397443
vn 0.863243 0.503046 0.041918
vn 0.841191 0.431201 0.326286
vn 0.867708 0.400073 0.294998
vn 0.870649 0.403801 0.280917
vn 0.844752 0.435798 0.310603
vn 0.878487 0.474879 0.052446
vn 0.820546 0.557853 0.124521
vn -0.099367 0.905779 0.411936
vn 0.236865 0.799998 0.551269
vn 0.162514 0.746610 0.645107
vn -0.168124 0.981881 0.087434
vn -0.231932 0.912030 0.338244
vn -0.790782 0.450574 0.414304
vn -0.787880 0.591633 0.170924
vn -0.174117 0.741965 0.647434
vn 0.140880 0.533871 0.833748
vn 0.202654 0.746663 0.633581
vn 0.393726 0.501077 0.770650
vn 0.132404 0.516439 0.846026
vn 0.071758 0.562558 0.823638
vn 0.348446 0.936768 0.032424
vn 0.658477 0.572301 0.488754
vn 0.504413 0.633792 0.586409
vn 0.347762 0.821587 0.451726
vn 0.219749 0.838790 0.498139
vn -0.210053 0.966454 0.147802
vn -0.256433 0.905097 0.339178
vn 0.021060 0.785476 0.618534
vn 0.720471 0.642480 0.261039
vn 0.335338 0.924375 -0.181879
vn 0.451664 0.867858 -0.206935
vn 0.024099 0.866098 -0.499293
vn 0.027640 0.865642 -0.499900
vn 0.322091 0.883650 -0.339736
vn -0.279661 0.833975 0.475684
vn -0.454686 0.857920 0.239235
vn 0.142746 0.970647 0.193565
vn 0.207453 0.942325 0.262655
vn 0.249384 0.935303 0.251030
vn -0.078513 0.994762 -0.065459
vn -0.146997 0.987918 -0.049093
vn 0.322784 0.886074 0.332692
vn 0.272583 0.894783 0.353640
vn 0.263186 0.899965 0.347559
vn -0.727498 0.660407 0.186036
vn -0.618750 0.688311 0.378650
vn -0.527427 0.755740 0.388172
vn -0.389323 0.729191 0.562769
vn 0.165355 0.862567 0.478160
vn 0.096262 0.904263 0.415982
vn -0.267390 0.836960 0.477494
vn 0.216814 0.546014 0.809235
vn 0.165491 0.539461 0.825587
vn 0.013660 0.670955 0.741372
vn 0.171741 0.693955 0.699236
vn -0.108674 0.855724 0.505891
vn -0.860865 0.291312 0.417192
vn -0.800991 0.284995 0.526490
vn -0.683355 0.432189 0.588421
vn -0.728371 0.443285 0.522469
vn -0.395876 0.712990 0.578730
vn -0.257139 0.652175 0.713125
vn 0.025547 0.749518 0.661491
vn 0.107772 0.686192 0.719393
vn 0.252192 0.702084 0.665941
vn 0.188296 0.754797 0.628352
vn 0.035309 0.736767 0.675224
vn -0.054820 0.793134 0.606576
vn -0.146872 0.769142 0.621972
vn 0.164985 0.533687 0.829432
vn -0.033877 0.875781 0.481519
vn -0.405225 0.896094 0.181132
vn -0.408678 0.910729 -0.059617
vn -0.588887 0.794987 -0.145627
vn -0.505278 0.840746 -0.194525
vn -0.688831 0.685411 -0.236059
vn -0.661944 0.653579 -0.366967
vn -0.163511 0.858996 0.485170
vn -0.028515 0.971722 0.234399
vn -0.268180 0.944927 0.187598
vn -0.180320 0.982309 0.050539
vn -0.054923 0.970257 0.235764
vn -0.119897 0.922626 0.366587
vn -0.553330 0.831042 -0.056521
vn -0.476105 0.855962 -0.201627
vn -0.349471 0.935741 0.047528
vn -0.455045 0.848013 0.271675
vn -0.382062 0.846532 0.370690
vn -0.223021 0.974754 0.010782
vn -0.487674 0.860252 -0.148798
vn -0.519725 0.849077 -0.094626
vn -0.562137 0.802939 -0.198219
vn -0.713097 0.689359 0.127576
vn -0.636969 0.723684 0.265617
vn -0.569234 0.818705 0.075465
vn -0.602617 0.797966 0.010177
vn -0.529815 0.837311 -0.134933
vn -0.677033 0.709906 -0.194061
vn -0.738148 0.671854 -0.061231
vn -0.748426 0.657079 -0.090032
vn -0.760378 0.646642 -0.060659
vn -0.678944 0.722885 0.128342
vn -0.708556 0.667557 0.228725
vn -0.783534 0.617272 0.071061
vn -0.729053 0.681142 -0.067284
vn -0.750617 0.646898 -0.134527
vn -0.866868 0.431878 0.249040
vn -0.632878 0.737013 -0.237230
vn -0.644159 0.733523 -0.216803
vn -0.589099 0.805770 -0.060807
vn -0.581095 0.810225 -0.076575
vn -0.574424 0.816319 -0.060495
vn -0.626047 0.778152 0.050441
vn -0.527692 0.818419 0.227446
vn -0.526684 0.819835 0.224666
vn -0.675709 0.733947 -0.068837
vn -0.684678 0.726958 -0.052419
vn -0.536959 0.802385 0.260486
vn -0.575928 0.622801 0.529553
vn -0.709514 0.600349 -0.369014
vn -0.700038 0.602007 -0.384101
vn -0.667001 0.712601 -0.217507
vn -0.767689 0.640785 0.006944
vn -0.799743 0.595252 -0.078012
vn -0.830948 0.556281 0.008802
vn -0.814754 0.577516 0.051494
vn -0.857300 0.428238 0.285743
vn -0.878874 0.410639 0.242808
vn -0.880573 0.390256 0.268871
vn -0.967755 0.245481 -0.056473
vn -0.960266 0.266248 -0.083678
vn -0.747897 0.401574 0.528571
vn -0.754015 0.493014 0.434049
vn 0.226076 0.960773 0.160641
vn 0.147639 0.989037 -0.002914
vn 0.063507 0.888263 -0.454924
vn 0.144233 0.856976 -0.494762
vn 0.284543 0.785576 -0.549459
vn -0.255632 0.308039 -0.916386
vn -0.321342 0.523683 -0.788984
vn 0.174040 0.984146 -0.034168
vn -0.213179 0.968675 -0.127371
vn 0.016867 0.911846 -0.410185
vn 0.004012 0.910466 -0.413565
vn -0.221638 0.962867 -0.154154
vn -0.336362 0.925957 -0.171648
vn 0.070219 0.897577 -0.435229
vn 0.212430 0.894897 -0.392469
vn 0.059346 0.969219 -0.238940
vn -0.470059 0.822473 -0.320286
vn -0.404957 0.819115 -0.406277
vn -0.424458 0.808794 -0.407047
vn 0.155868 0.875392 -0.457596
vn -0.066256 0.852263 -0.518900
vn 0.118878 0.739810 -0.662230
vn -0.322347 0.609837 -0.724011
vn -0.522549 0.674810 -0.521127
vn -0.407732 0.744850 -0.528159
vn -0.442971 0.753087 -0.486453
vn -0.280691 0.830616 -0.480926
vn -0.006683 0.107810 -0.994149
vn -0.019970 0.105620 -0.994206
vn -0.232089 0.249686 -0.940102
vn -0.025531 0.316987 -0.948086
vn -0.338968 0.505200 -0.793646
vn -0.343846 0.502550 -0.793230
vn -0.448547 0.547641 -0.706325
vn 0.054253 0.755310 -0.653118
vn -0.243588 0.895818 -0.371719
vn -0.621393 0.699284 -0.353373
vn -0.226887 0.450698 -0.863362
vn -0.095272 0.487695 -0.867800
vn 0.055573 0.366919 -0.928591
vn -0.226335 0.282913 -0.932058
vn -0.058425 0.175840 -0.982683
vn -0.159044 0.136661 -0.977767
vn -0.360402 0.246822 -0.899550
vn 0.069550 0.450706 -0.889959
vn -0.016196 0.517308 -0.855646
vn -0.336648 0.346056 -0.875736
vn -0.677636 0.445788 -0.584878
vn -0.446193 0.633376 -0.632255
vn -0.331775 0.464452 -0.821103
vn -0.098702 0.538132 -0.837062
vn -0.085511 0.527520 -0.845228
vn 0.111480 0.564706 -0.817728
vn -0.144872 0.735621 -0.661720
vn -0.102628 0.745691 -0.658340
vn -0.049924 0.715638 -0.696685
vn -0.090127 0.704196 -0.704262
vn 0.099682 0.566602 -0.817940
vn -0.408292 0.312776 -0.857595
vn -0.341062 0.286524 -0.895310
vn 0.006579 0.501069 -0.865382
vn -0.429706 0.692170 -0.579873
vn -0.635473 0.543597 -0.548340
vn 0.418320 0.884053 0.208469
vn 0.391560 0.889731 0.234646
vn 0.399081 0.916913 0.002165
vn 0.029226 0.992332 0.120095
vn 0.668292 0.742570 -0.044457
vn 0.728858 0.680441 -0.075930
vn 0.710553 0.702606 -0.038196
vn 0.386673 0.892322 0.232907
vn 0.396766 0.913562 0.089343
vn 0.572216 0.812948 0.108093
vn 0.578055 0.815704 0.021902
vn 0.526108 0.850389 -0.006929
vn 0.506862 0.815545 -0.279244
vn 0.125427 0.974717 0.184916
vn 0.123333 0.980278 0.154413
vn 0.265811 0.936779 0.227572
vn 0.232471 0.951523 -0.201400
vn 0.337934 0.928677 -0.152837
vn 0.277060 0.851074 -0.445993
vn 0.482166 0.857338 -0.180242
vn 0.492133 0.869781 0.035866
vn 0.396360 0.917813 -0.022756
vn 0.359293 0.865714 -0.348494
vn 0.407201 0.853668 -0.324711
vn 0.382122 0.812813 -0.439679
vn 0.311470 0.825634 -0.470441
vn 0.286071 0.785444 -0.548855
vn 0.718740 0.690031 -0.085264
vn 0.707868 0.673437 -0.213085
vn 0.764570 0.623957 -0.161587
vn 0.749948 0.598213 -0.282347
vn 0.503477 0.736085 -0.452426
vn 0.516041 0.756721 -0.401342
vn 0.407005 0.790545 -0.457586
vn 0.344210 0.682105 -0.645176
vn 0.394645 0.674804 -0.623615
vn 0.212115 0.371870 -0.903726
vn 0.695737 0.716377 -0.052478
vn 0.695702 0.716277 -0.054282
vn 0.598628 0.789495 -0.135432
vn 0.602263 0.798297 -0.001156
vn 0.483424 0.870727 -0.090196
vn 0.403768 0.761146 -0.507571
vn 0.552773 0.714821 -0.428337
vn 0.515357 0.656494 -0.550839
vn 0.331912 0.696283 -0.636415
vn 0.352993 0.728547 -0.587039
vn -0.088214 0.710580 -0.698065
vn -0.159676 0.575312 -0.802197
vn 0.765107 0.639833 -0.072286
vn 0.761158 0.631658 -0.147129
vn 0.792166 0.599113 -0.116346
vn 0.792513 0.602341 -0.095436
vn 0.784119 0.611832 -0.104013
vn 0.765011 0.553011 -0.330056
vn 0.436521 0.723527 -0.534751
vn 0.373156 0.620679 -0.689574
vn 0.579034 0.555299 -0.596962
vn 0.628058 0.647664 -0.431363
vn 0.345394 0.737282 -0.580619
vn 0.234481 0.569331 -0.787960
vn -0.133522 0.539760 -0.831163
vn -0.165699 0.478438 -0.862346
usemtl material4
s off
f 1//1 13//1 33//1
f 2//2 19//2 47//2
f 1//3 33//3 61//3
f 1//4 61//4 75//4
f 1//5 75//5 34//5
f 2//6 47//6 96//6
f 3//7 26//7 110//7
f 4//8 54//8 124//8
f 5//9 68//9 138//9
f 6//10 82//10 152//10
f 2//11 96//11 97//11
f 3//12 110//12 111//12
f 4//13 124//13 125//13
f 5//14 138//14 139//14
f 6//15 152//15 83//15
f 7//16 159//16 201//16
f 8//17 166//17 208//17
f 9//18 173//18 215//18
f 10//19 180//19 222//19
f 11//20 187//20 188//20
f 27//21 26//21 3//21
f 28//22 223//22 27//22
f 29//23 224//23 28//23
f 30//24 226//24 29//24
f 31//25 229//25 30//25
f 32//26 233//26 31//26
f 33//27 238//27 32//27
f 27//28 223//28 26//28
f 223//29 25//29 26//29
f 28//30 224//30 223//30
f 224//31 225//31 223//31
f 223//32 225//32 25//32
f 225//33 24//33 25//33
f 29//34 226//34 224//34
f 226//35 227//35 224//35
f 224//36 227//36 225//36
f 227//37 228//37 225//37
f 225//38 228//38 24//38
f 228//39 23//39 24//39
f 30//40 229//40 226//40
f 229//41 230//41 226//41
f 226//42 230//42 227//42
f 230//43 231//43 227//43
f 227//44 231//44 228//44
f 231//45 232//45 228//45
f 228//46 232//46 23//46
f 232//47 22//47 23//47
f 31//48 233//48 229//48
f 233//49 234//49 229//49
f 229//50 234//50 230//50
f 234//51 235//51 230//51
f 230//52 235//52 231//52
f 235//53 236//53 231//53
f 231//54 236//54 232//54
f 236//55 237//55 232//55
f 232//56 237//56 22//56
f 237//57 21//57 22//57
f 32//58 238//58 233//58
f 238//59 239//59 233//59
f 233//60 239//60 234//60
f 239//61 240//61 234//61
f 234//62 240//62 235//62
f 240//63 241//63 235//63
f 235//64 241//64 236//64
f 241//65 242//65 236//65
f 236//66 242//66 237//66
f 242//67 243//67 237//67
f 237//68 243//68 21//68
f 243//69 20//69 21//69
f 33//70 13//70 238//70
f 13//71 14//71 238//71
f 238//72 14//72 239//72
f 14//73 15//73 239//73
f 239//74 15//74 240//74
f 15//75 16//75 240//75
f 240//76 16//76 241//76
f 16//77 17//77 241//77
f 241//78 17//78 242//78
f 17//79 18//79 242//79
f 242//80 18//80 243//80
f 18//81 19//81 243//81
f 243//82 19//82 20//82
f 19//83 2//83 20//83
f 41//84 40//84 6//84
f 42//85 244//85 41//85
f 43//86 245//86 42//86
f 44//87 247//87 43//87
f 45//88 250//88 44//88
f 46//89 254//89 45//89
f 47//90 259//90 46//90
f 41//91 244//91 40//91
f 244//92 39//92 40//92
f 42//93 245//93 244//93
f 245//94 246//94 244//94
f 244//95 246//95 39//95
f 246//96 38//96 39//96
f 43//97 247//97 245//97
f 247//98 248//98 245//98
f 245//99 248//99 246//99
f 248//100 249//100 246//100
f 246//101 249//101 38//101
f 249//102 37//102 38//102
f 44//103 250//103 247//103
f 250//104 251//104 247//104
f 247//105 251//105 248//105
f 251//106 252//106 248//106
f 248//107 252//107 249//107
f 252//108 253//108 249//108
f 249//109 253//109 37//109
f 253//110 36//110 37//110
f 45//111 254//111 250//111
f 254//112 255//112 250//112
f 250//113 255//113 251//113
f 255//114 256//114 251//114
f 251//115 256//115 252//115
f 256//116 257//116 252//116
f 252//117 257//117 253//117
f 257//118 258//118 253//118
f 253//119 258//119 36//119
f 258//120 35//120 36//120
f 46//121 259//121 254//121
f 259//122 260//122 254//122
f 254//123 260//123 255//123
f 260//124 261//124 255//124
f 255//125 261//125 256//125
f 261//126 262//126 256//126
f 256//127 262//127 257//127
f 262//128 263//128 257//128
f 257//129 263//129 258//129
f 263//130 264//130 258//130
f 258//131 264//131 35//131
f 264//132 34//132 35//132
f 47//133 19//133 259//133
f 19//134 18//134 259//134
f 259//135 18//135 260//135
f 18//136 17//136 260//136
f 260//137 17//137 261//137
f 17//138 16//138 261//138
f 261//139 16//139 262//139
f 16//140 15//140 262//140
f 262//141 15//141 263//141
f 15//142 14//142 263//142
f 263//143 14//143 264//143
f 14//144 13//144 264//144
f 264//145 13//145 34//145
f 13//146 1//146 34//146
f 55//147 54//147 4//147
f 56//148 265//148 55//148
f 57//149 266//149 56//149
f 58//150 268//150 57//150
f 59//151 271//151 58//151
f 60//152 275//152 59//152
f 61//153 280//153 60//153
f 55//154 265//154 54//154
f 265//155 53//155 54//155
f 56//156 266//156 265//156
f 266//157 267//157 265//157
f 265//158 267//158 53//158
f 267//159 52//159 53//159
f 57//160 268//160 266//160
f 268//161 269//161 266//161
f 266//162 269//162 267//162
f 269//163 270//163 267//163
f 267//164 270//164 52//164
f 270//165 51//165 52//165
f 58//166 271//166 268//166
f 271//167 272//167 268//167
f 268//168 272//168 269//168
f 272//169 273//169 269//169
f 269//170 273//170 270//170
f 273//171 274//171 270//171
f 270//172 274//172 51//172
f 274//173 50//173 51//173
f 59//174 275//174 271//174
f 275//175 276//175 271//175
f 271//176 276//176 272//176
f 276//177 277//177 272//177
f 272//178 277//178 273//178
f 277//179 278//179 273//179
f 273//180 278//180 274//180
f 278//181 279//181 274//181
f 274//182 279//182 50//182
f 279//183 49//183 50//183
f 60//184 280//184 275//184
f 280//185 281//185 275//185
f 275//186 281//186 276//186
f 281//187 282//187 276//187
f 276//188 282//188 277//188
f 282//189 283//189 277//189
f 277//190 283//190 278//190
f 283//191 284//191 278//191
f 278//192 284//192 279//192
f 284//193 285//193 279//193
f 279//194 285//194 49//194
f 285//195 48//195 49//195
f 61//196 33//196 280//196
f 33//197 32//197 280//197
f 280//198 32//198 281//198
f 32//199 31//199 281//199
f 281//200 31//200 282//200
f 31//201 30//201 282//201
f 282//202 30//202 283//202
f 30//203 29//203 283//203
f 283//204 29//204 284//204
f 29//205 28//205 284//205
f 284//206 28//206 285//206
f 28//207 27//207 285//207
f 285//208 27//208 48//208
f 27//209 3//209 48//209
f 69//210 68//210 5//210
f 70//211 286//211 69//211
f 71//212 287//212 70//212
f 72//213 289//213 71//213
f 73//214 292//214 72//214
f 74//215 296//215 73//215
f 75//216 301//216 74//216
f 69//217 286//217 68//217
f 286//218 67//218 68//218
f 70//219 287//219 286//219
f 287//220 288//220 286//220
f 286//221 288//221 67//221
f 288//222 66//222 67//222
f 71//223 289//223 287//223
f 289//224 290//224 287//224
f 287//225 290//225 288//225
f 290//226 291//226 288//226
f 288//227 291//227 66//227
f 291//228 65//228 66//228
f 72//229 292//229 289//229
f 292//230 293//230 289//230
f 289//231 293//231 290//231
f 293//232 294//232 290//232
f 290//233 294//233 291//233
f 294//234 295//234 291//234
f 291//235 295//235 65//235
f 295//236 64//236 65//236
f 73//237 296//237 292//237
f 296//238 297//238 292//238
f 292//239 297//239 293//239
f 297//240 298//240 293//240
f 293//241 298//241 294//241
f 298//242 299//242 294//242
f 294//243 299//243 295//243
f 299//244 300//244 295//244
f 295//245 300//245 64//245
f 300//246 63//246 64//246
f 74//247 301//247 296//247
f 301//248 302//248 296//248
f 296//249 302//249 297//249
f 302//250 303//250 297//250
f 297//251 303//251 298//251
f 303//252 304//252 298//252
f 298//253 304//253 299//253
f 304//254 305//254 299//254
f 299//255 305//255 300//255
f 305//256 306//256 300//256
f 300//257 306//257 63//257
f 306//258 62//258 63//258
f 75//259 61//259 301//259
f 61//260 60//260 301//260
f 301//261 60//261 302//261
f 60//262 59//262 302//262
f 302//263 59//263 303//263
f 59//264 58//264 303//264
f 303//265 58//265 304//265
f 58//266 57//266 304//266
f 304//267 57//267 305//267
f 57//268 56//268 305//268
f 305//269 56//269 306//269
f 56//270 55//270 306//270
f 306//271 55//271 62//271
f 55//272 4//272 62//272
f 40//273 82//273 6//273
f 39//274 307//274 40//274
f 38//275 308//275 39//275
f 37//276 310//276 38//276
f 36//277 313//277 37//277
f 35//278 317//278 36//278
f 34//279 322//279 35//279
f 40//280 307//280 82//280
f 307//281 81//281 82//281
f 39//282 308//282 307//282
f 308//283 309//283 307//283
f 307//284 309//284 81//284
f 309//285 80//285 81//285
f 38//286 310//286 308//286
f 310//287 311//287 308//287
f 308//288 311//288 309//288
f 311//289 312//289 309//289
f 309//290 312//290 80//290
f 312//291 79//291 80//291
f 37//292 313//292 310//292
f 313//293 314//293 310//293
f 310//294 314//294 311//294
f 314//295 315//295 311//295
f 311//296 315//296 312//296
f 315//297 316//297 312//297
f 312//298 316//298 79//298
f 316//299 78//299 79//299
f 36//300 317//300 313//300
f 317//301 318//301 313//301
f 313//302 318//302 314//302
f 318//303 319//303 314//303
f 314//304 319//304 315//304
f 319//305 320//305 315//305
f 315//306 320//306 316//306
f 320//307 321//307 316//307
f 316//308 321//308 78//308
f 321//309 77//309 78//309
f 35//310 322//310 317//310
f 322//311 323//311 317//311
f 317//312 323//312 318//312
f 323//313 324//313 318//313
f 318//314 324//314 319//314
f 324//315 325//315 319//315
f 319//316 325//316 320//316
f 325//317 326//317 320//317
f 320//318 326//318 321//318
f 326//319 327//319 321//319
f 321//320 327//320 77//320
f 327//321 76//321 77//321
f 34//322 75//322 322//322
f 75//323 74//323 322//323
f 322//324 74//324 323//324
f 74//325 73//325 323//325
f 323//326 73//326 324//326
f 73//327 72//327 324//327
f 324//328 72//328 325//328
f 72//329 71//329 325//329
f 325//330 71//330 326//330
f 71//331 70//331 326//331
f 326//332 70//332 327//332
f 70//333 69//333 327//333
f 327//334 69//334 76//334
f 69//335 5//335 76//335
f 90//336 89//336 11//336
f 91//337 328//337 90//337
f 92//338 329//338 91//338
f 93//339 331//339 92//339
f 94//340 334//340 93//340
f 95//341 338//341 94//341
f 96//342 343//342 95//342
f 90//343 328//343 89//343
f 328//344 88//344 89//344
f 91//345 329//345 328//345
f 329//346 330//346 328//346
f 328//347 330//347 88//347
f 330//348 87//348 88//348
f 92//349 331//349 329//349
f 331//350 332//350 329//350
f 329//351 332//351 330//351
f 332//352 333//352 330//352
f 330//353 333//353 87//353
f 333//354 86//354 87//354
f 93//355 334//355 331//355
f 334//356 335//356 331//356
f 331//357 335//357 332//357
f 335//358 336//358 332//358
f 332//359 336//359 333//359
f 336//360 337//360 333//360
f 333//361 337//361 86//361
f 337//362 85//362 86//362
f 94//363 338//363 334//363
f 338//364 339//364 334//364
f 334//365 339//365 335//365
f 339//366 340//366 335//366
f 335//367 340//367 336//367
f 340//368 341//368 336//368
f 336//369 341//369 337//369
f 341//370 342//370 337//370
f 337//371 342//371 85//371
f 342//372 84//372 85//372
f 95//373 343//373 338//373
f 343//374 344//374 338//374
f 338//375 344//375 339//375
f 344//376 345//376 339//376
f 339//377 345//377 340//377
f 345//378 346//378 340//378
f 340//379 346//379 341//379
f 346//380 347//380 341//380
f 341//381 347//381 342//381
f 347//382 348//382 342//382
f 342//383 348//383 84//383
f 348//384 83//384 84//384
f 96//385 47//385 343//385
f 47//386 46//386 343//386
f 343//387 46//387 344//387
f 46//388 45//388 344//388
f 344//389 45//389 345//389
f 45//390 44//390 345//390
f 345//391 44//391 346//391
f 44//392 43//392 346//392
f 346//393 43//393 347//393
f 43//394 42//394 347//394
f 347//395 42//395 348//395
f 42//396 41//396 348//396
f 348//397 41//397 83//397
f 41//398 6//398 83//398
f 104//399 103//399 7//399
f 105//400 349//400 104//400
f 106//401 350//401 105//401
f 107//402 352//402 106//402
f 108//403 355//403 107//403
f 109//404 359//404 108//404
f 110//405 364//405 109//405
f 104//406 349//406 103//406
f 349//407 102//407 103//407
f 105//408 350//408 349//408
f 350//409 351//409 349//409
f 349//410 351//410 102//410
f 351//411 101//411 102//411
f 106//412 352//412 350//412
f 352//413 353//413 350//413
f 350//414 353//414 351//414
f 353//415 354//415 351//415
f 351//416 354//416 101//416
f 354//417 100//417 101//417
f 107//418 355//418 352//418
f 355//419 356//419 352//419
f 352//420 356//420 353//420
f 356//421 357//421 353//421
f 353//422 357//422 354//422
f 357//423 358//423 354//423
f 354//424 358//424 100//424
f 358//425 99//425 100//425
f 108//426 359//426 355//426
f 359//427 360//427 355//427
f 355//428 360//428 356//428
f 360//429 361//429 356//429
f 356//430 361//430 357//430
f 361//431 362//431 357//431
f 357//432 362//432 358//432
f 362//433 363//433 358//433
f 358//434 363//434 99//434
f 363//435 98//435 99//435
f 109//436 364//436 359//436
f 364//437 365//437 359//437
f 359//438 365//438 360//438
f 365//439 366//439 360//439
f 360//440 366//440 361//440
f 366//441 367//441 361//441
f 361//442 367//442 362//442
f 367//443 368//443 362//443
f 362//444 368//444 363//444
f 368//445 369//445 363//445
f 363//446 369//446 98//446
f 369//447 97//447 98//447
f 110//448 26//448 364//448
f 26//449 25//449 364//449
f 364//450 25//450 365//450
f 25//451 24//451 365//451
f 365//452 24//452 366//452
f 24//453 23//453 366//453
f 366//454 23//454 367//454
f 23//455 22//455 367//455
f 367//456 22//456 368//456
f 22//457 21//457 368//457
f 368//458 21//458 369//458
f 21//459 20//459 369//459
f 369//460 20//460 97//460
f 20//461 2//461 97//461
f 118//462 117//462 8//462
f 119//463 370//463 118//463
f 120//464 371//464 119//464
f 121//465 373//465 120//465
f 122//466 376//466 121//466
f 123//467 380//467 122//467
f 124//468 385//468 123//468
f 118//469 370//469 117//469
f 370//470 116//470 117//470
f 119//471 371//471 370//471
f 371//472 372//472 370//472
f 370//473 372//473 116//473
f 372//474 115//474 116//474
f 120//475 373//475 371//475
f 373//476 374//476 371//476
f 371//477 374//477 372//477
f 374//478 375//478 372//478
f 372//479 375//479 115//479
f 375//480 114//480 115//480
f 121//481 376//481 373//481
f 376//482 377//482 373//482
f 373//483 377//483 374//483
f 377//484 378//484 374//484
f 374//485 378//485 375//485
f 378//486 379//486 375//486
f 375//487 379//487 114//487
f 379//488 113//488 114//488
f 122//489 380//489 376//489
f 380//490 381//490 376//490
f 376//491 381//491 377//491
f 381//492 382//492 377//492
f 377//493 382//493 378//493
f 382//494 383//494 378//494
f 378//495 383//495 379//495
f 383//496 384//496 379//496
f 379//497 384//497 113//497
f 384//498 112//498 113//498
f 123//499 385//499 380//499
f 385//500 386//500 380//500
f 380//501 386//501 381//501
f 386//502 387//502 381//502
f 381//503 387//503 382//503
f 387//504 388//504 382//504
f 382//505 388//505 383//505
f 388//506 389//506 383//506
f 383//507 389//507 384//507
f 389//508 390//508 384//508
f 384//509 390//509 112//509
f 390//510 111//510 112//510
f 124//511 54//511 385//511
f 54//512 53//512 385//512
f 385//513 53//513 386//513
f 53//514 52//514 386//514
f 386//515 52//515 387//515
f 52//516 51//516 387//516
f 387//517 51//517 388//517
f 51//518 50//518 388//518
f 388//519 50//519 389//519
f 50//520 49//520 389//520
f 389//521 49//521 390//521
f 49//522 48//522 390//522
f 390//523 48//523 111//523
f 48//524 3//524 111//524
f 132//525 131//525 9//525
f 133//526 391//526 132//526
f 134//527 392//527 133//527
f 135//528 394//528 134//528
f 136//529 397//529 135//529
f 137//530 401//530 136//530
f 138//531 406//531 137//531
f 132//532 391//532 131//532
f 391//533 130//533 131//533
f 133//534 392//534 391//534
f 392//535 393//535 391//535
f 391//536 393//536 130//536
f 393//537 129//537 130//537
f 134//538 394//538 392//538
f 394//539 395//539 392//539
f 392//540 395//540 393//540
f 395//541 396//541 393//541
f 393//542 396//542 129//542
f 396//543 128//543 129//543
f 135//544 397//544 394//544
f 397//545 398//545 394//545
f 394//546 398//546 395//546
f 398//547 399//547 395//547
f 395//548 399//548 396//548
f 399//549 400//549 396//549
f 396//550 400//550 128//550
f 400//551 127//551 128//551
f 136//552 401//552 397//552
f 401//553 402//553 397//553
f 397//554 402//554 398//554
f 402//555 403//555 398//555
f 398//556 403//556 399//556
f 403//557 404//557 399//557
f 399//558 404//558 400//558
f 404//559 405//559 400//559
f 400//560 405//560 127//560
f 405//561 126//561 127//561
f 137//562 406//562 401//562
f 406//563 407//563 401//563
f 401//564 407//564 402//564
f 407//565 408//565 402//565
f 402//566 408//566 403//566
f 408//567 409//567 403//567
f 403//568 409//568 404//568
f 409//569 410//569 404//569
f 404//570 410//570 405//570
f 410//571 411//571 405//571
f 405//572 411//572 126//572
f 411//573 125//573 126//573
f 138//574 68//574 406//574
f 68//575 67//575 406//575
f 406//576 67//576 407//576
f 67//577 66//577 407//577
f 407//578 66//578 408//578
f 66//579 65//579 408//579
f 408//580 65//580 409//580
f 65//581 64//581 409//581
f 409//582 64//582 410//582
f 64//583 63//583 410//583
f 410//584 63//584 411//584
f 63//585 62//585 411//585
f 411//586 62//586 125//586
f 62//587 4//587 125//587
f 146//588 145//588 10//588
f 147//589 412//589 146//589
f 148//590 413//590 147//590
f 149//591 415//591 148//591
f 150//592 418//592 149//592
f 151//593 422//593 150//593
f 152//594 427//594 151//594
f 146//595 412//595 145//595
f 412//596 144//596 145//596
f 147//597 413//597 412//597
f 413//598 414//598 412//598
f 412//599 414//599 144//599
f 414//600 143//600 144//600
f 148//601 415//601 413//601
f 415//602 416//602 413//602
f 413//603 416//603 414//603
f 416//604 417//604 414//604
f 414//605 417//605 143//605
f 417//606 142//606 143//606
f 149//607 418//607 415//607
f 418//608 419//608 415//608
f 415//609 419//609 416//609
f 419//610 420//610 416//610
f 416//611 420//611 417//611
f 420//612 421//612 417//612
f 417//613 421//613 142//613
f 421//614 141//614 142//614
f 150//615 422//615 418//615
f 422//616 423//616 418//616
f 418//617 423//617 419//617
f 423//618 424//618 419//618
f 419//619 424//619 420//619
f 424//620 425//620 420//620
f 420//621 425//621 421//621
f 425//622 426//622 421//622
f 421//623 426//623 141//623
f 426//624 140//624 141//624
f 151//625 427//625 422//625
f 427//626 428//626 422//626
f 422//627 428//627 423//627
f 428//628 429//628 423//628
f 423//629 429//629 424//629
f 429//630 430//630 424//630
f 424//631 430//631 425//631
f 430//632 431//632 425//632
f 425//633 431//633 426//633
f 431//634 432//634 426//634
f 426//635 432//635 140//635
f 432//636 139//636 140//636
f 152//637 82//637 427//637
f 82//638 81//638 427//638
f 427//639 81//639 428//639
f 81//640 80//640 428//640
f 428//641 80//641 429//641
f 80//642 79//642 429//642
f 429//643 79//643 430//643
f 79//644 78//644 430//644
f 430//645 78//645 431//645
f 78//646 77//646 431//646
f 431//647 77//647 432//647
f 77//648 76//648 432//648
f 432//649 76//649 139//649
f 76//650 5//650 139//650
f 103//651 159//651 7//651
f 102//652 433//652 103//652
f 101//653 434//653 102//653
f 100//654 436//654 101//654
f 99//655 439//655 100//655
f 98//656 443//656 99//656
f 97//657 448//657 98//657
f 103//658 433//658 159//658
f 433//659 158//659 159//659
f 102//660 434//660 433//660
f 434//661 435//661 433//661
f 433//662 435//662 158//662
f 435//663 157//663 158//663
f 101//664 436//664 434//664
f 436//665 437//665 434//665
f 434//666 437//666 435//666
f 437//667 438//667 435//667
f 435//668 438//668 157//668
f 438//669 156//669 157//669
f 100//670 439//670 436//670
f 439//671 440//671 436//671
f 436//672 440//672 437//672
f 440//673 441//673 437//673
f 437//674 441//674 438//674
f 441//675 442//675 438//675
f 438//676 442//676 156//676
f 442//677 155//677 156//677
f 99//678 443//678 439//678
f 443//679 444//679 439//679
f 439//680 444//680 440//680
f 444//681 445//681 440//681
f 440//682 445//682 441//682
f 445//683 446//683 441//683
f 441//684 446//684 442//684
f 446//685 447//685 442//685
f 442//686 447//686 155//686
f 447//687 154//687 155//687
f 98//688 448//688 443//688
f 448//689 449//689 443//689
f 443//690 449//690 444//690
f 449//691 450//691 444//691
f 444//692 450//692 445//692
f 450//693 451//693 445//693
f 445//694 451//694 446//694
f 451//695 452//695 446//695
f 446//696 452//696 447//696
f 452//697 453//697 447//697
f 447//698 453//698 154//698
f 453//699 153//699 154//699
f 97//700 96//700 448//700
f 96//701 95//701 448//701
f 448//702 95//702 449//702
f 95//703 94//703 449//703
f 449//704 94//704 450//704
f 94//705 93//705 450//705
f 450//706 93//706 451//706
f 93//707 92//707 451//707
f 451//708 92//708 452//708
f 92//709 91//709 452//709
f 452//710 91//710 453//710
f 91//711 90//711 453//711
f 453//712 90//712 153//712
f 90//713 11//713 153//713
f 117//714 166//714 8//714
f 116//715 454//715 117//715
f 115//716 455//716 116//716
f 114//717 457//717 115//717
f 113//718 460//718 114//718
f 112//719 464//719 113//719
f 111//720 469//720 112//720
f 117//721 454//721 166//721
f 454//722 165//722 166//722
f 116//723 455//723 454//723
f 455//724 456//724 454//724
f 454//725 456//725 165//725
f 456//726 164//726 165//726
f 115//727 457//727 455//727
f 457//728 458//728 455//728
f 455//729 458//729 456//729
f 458//730 459//730 456//730
f 456//731 459//731 164//731
f 459//732 163//732 164//732
f 114//733 460//733 457//733
f 460//734 461//734 457//734
f 457//735 461//735 458//735
f 461//736 462//736 458//736
f 458//737 462//737 459//737
f 462//738 463//738 459//738
f 459//739 463//739 163//739
f 463//740 162//740 163//740
f 113//741 464//741 460//741
f 464//742 465//742 460//742
f 460//743 465//743 461//743
f 465//744 466//744 461//744
f 461//745 466//745 462//745
f 466//746 467//746 462//746
f 462//747 467//747 463//747
f 467//748 468//748 463//748
f 463//749 468//749 162//749
f 468//750 161//750 162//750
f 112//751 469//751 464//751
f 469//752 470//752 464//752
f 464//753 470//753 465//753
f 470//754 471//754 465//754
f 465//755 471//755 466//755
f 471//756 472//756 466//756
f 466//757 472//757 467//757
f 472//758 473//758 467//758
f 467//759 473//759 468//759
f 473//760 474//760 468//760
f 468//761 474//761 161//761
f 474//762 160//762 161//762
f 111//763 110//763 469//763
f 110//764 109//764 469//764
f 469//765 109//765 470//765
f 109//766 108//766 470//766
f 470//767 108//767 471//767
f 108//768 107//768 471//768
f 471//769 107//769 472//769
f 107//770 106//770 472//770
f 472//771 106//771 473//771
f 106//772 105//772 473//772
f 473//773 105//773 474//773
f 105//774 104//774 474//774
f 474//775 104//775 160//775
f 104//776 7//776 160//776
f 131//777 173//777 9//777
f 130//778 475//778 131//778
f 129//779 476//779 130//779
f 128//780 478//780 129//780
f 127//781 481//781 128//781
f 126//782 485//782 127//782
f 125//783 490//783 126//783
f 131//784 475//784 173//784
f 475//785 172//785 173//785
f 130//786 476//786 475//786
f 476//787 477//787 475//787
f 475//788 477//788 172//788
f 477//789 171//789 172//789
f 129//790 478//790 476//790
f 478//791 479//791 476//791
f 476//792 479//792 477//792
f 479//793 480//793 477//793
f 477//794 480//794 171//794
f 480//795 170//795 171//795
f 128//796 481//796 478//796
f 481//797 482//797 478//797
f 478//798 482//798 479//798
f 482//799 483//799 479//799
f 479//800 483//800 480//800
f 483//801 484//801 480//801
f 480//802 484//802 170//802
f 484//803 169//803 170//803
f 127//804 485//804 481//804
f 485//805 486//805 481//805
f 481//806 486//806 482//806
f 486//807 487//807 482//807
f 482//808 487//808 483//808
f 487//809 488//809 483//809
f 483//810 488//810 484//810
f 488//811 489//811 484//811
f 484//812 489//812 169//812
f 489//813 168//813 169//813
f 126//814 490//814 485//814
f 490//815 491//815 485//815
f 485//816 491//816 486//816
f 491//817 492//817 486//817
f 486//818 492//818 487//818
f 492//819 493//819 487//819
f 487//820 493//820 488//820
f 493//821 494//821 488//821
f 488//822 494//822 489//822
f 494//823 495//823 489//823
f 489//824 495//824 168//824
f 495//825 167//825 168//825
f 125//826 124//826 490//826
f 124//827 123//827 490//827
f 490//828 123//828 491//828
f 123//829 122//829 491//829
f 491//830 122//830 492//830
f 122//831 121//831 492//831
f 492//832 121//832 493//832
f 121//833 120//833 493//833
f 493//834 120//834 494//834
f 120//835 119//835 494//835
f 494//836 119//836 495//836
f 119//837 118//837 495//837
f 495//838 118//838 167//838
f 118//839 8//839 167//839
f 145//840 180//840 10//840
f 144//841 496//841 145//841
f 143//842 497//842 144//842
f 142//843 499//843 143//843
f 141//844 502//844 142//844
f 140//845 506//845 141//845
f 139//846 511//846 140//846
f 145//847 496//847 180//847
f 496//848 179//848 180//848
f 144//849 497//849 496//849
f 497//850 498//850 496//850
f 496//851 498//851 179//851
f 498//852 178//852 179//852
f 143//853 499//853 497//853
f 499//854 500//854 497//854
f 497//855 500//855 498//855
f 500//856 501//856 498//856
f 498//857 501//857 178//857
f 501//858 177//858 178//858
f 142//859 502//859 499//859
f 502//860 503//860 499//860
f 499//861 503//861 500//861
f 503//862 504//862 500//862
f 500//863 504//863 501//863
f 504//864 505//864 501//864
f 501//865 505//865 177//865
f 505//866 176//866 177//866
f 141//867 506//867 502//867
f 506//868 507//868 502//868
f 502//869 507//869 503//869
f 507//870 508//870 503//870
f 503//871 508//871 504//871
f 508//872 509//872 504//872
f 504//873 509//873 505//873
f 509//874 510//874 505//874
f 505//875 510//875 176//875
f 510//876 175//876 176//876
f 140//877 511//877 506//877
f 511//878 512//878 506//878
f 506//879 512//879 507//879
f 512//880 513//880 507//880
f 507//881 513//881 508//881
f 513//882 514//882 508//882
f 508//883 514//883 509//883
f 514//884 515//884 509//884
f 509//885 515//885 510//885
f 515//886 516//886 510//886
f 510//887 516//887 175//887
f 516//888 174//888 175//888
f 139//889 138//889 511//889
f 138//890 137//890 511//890
f 511//891 137//891 512//891
f 137//892 136//892 512//892
f 512//893 136//893 513//893
f 136//894 135//894 513//894
f 513//895 135//895 514//895
f 135//896 134//896 514//896
f 514//897 134//897 515//897
f 134//898 133//898 515//898
f 515//899 133//899 516//899
f 133//900 132//900 516//900
f 516//901 132//901 174//901
f 132//902 9//902 174//902
f 89//903 187//903 11//903
f 88//904 517//904 89//904
f 87//905 518//905 88//905
f 86//906 520//906 87//906
f 85//907 523//907 86//907
f 84//908 527//908 85//908
f 83//909 532//909 84//909
f 89//910 517//910 187//910
f 517//911 186//911 187//911
f 88//912 518//912 517//912
f 518//913 519//913 517//913
f 517//914 519//914 186//914
f 519//915 185//915 186//915
f 87//916 520//916 518//916
f 520//917 521//917 518//917
f 518//918 521//918 519//918
f 521//919 522//919 519//919
f 519//920 522//920 185//920
f 522//921 184//921 185//921
f 86//922 523//922 520//922
f 523//923 524//923 520//923
f 520//924 524//924 521//924
f 524//925 525//925 521//925
f 521//926 525//926 522//926
f 525//927 526//927 522//927
f 522//928 526//928 184//928
f 526//929 183//929 184//929
f 85//930 527//930 523//930
f 527//931 528//931 523//931
f 523//932 528//932 524//932
f 528//933 529//933 524//933
f 524//934 529//934 525//934
f 529//935 530//935 525//935
f 525//936 530//936 526//936
f 530//937 531//937 526//937
f 526//938 531//938 183//938
f 531//939 182//939 183//939
f 84//940 532//940 527//940
f 532//941 533//941 527//941
f 527//942 533//942 528//942
f 533//943 534//943 528//943
f 528//944 534//944 529//944
f 534//945 535//945 529//945
f 529//946 535//946 530//946
f 535//947 536//947 530//947
f 530//948 536//948 531//948
f 536//949 537//949 531//949
f 531//950 537//950 182//950
f 537//951 181//951 182//951
f 83//952 152//952 532//952
f 152//953 151//953 532//953
f 532//954 151//954 533//954
f 151//955 150//955 533//955
f 533//956 150//956 534//956
f 150//957 149//957 534//957
f 534//958 149//958 535//958
f 149//959 148//959 535//959
f 535//960 148//960 536//960
f 148//961 147//961 536//961
f 536//962 147//962 537//962
f 147//963 146//963 537//963
f 537//964 146//964 181//964
f 146//965 10//965 181//965
f 195//966 194//966 12//966
f 196//967 538//967 195//967
f 197//968 539//968 196//968
f 198//969 541//969 197//969
f 199//970 544//970 198//970
f 200//971 548//971 199//971
f 201//972 553//972 200//972
f 195//973 538//973 194//973
f 538//974 193//974 194//974
f 196//975 539//975 538//975
f 539//976 540//976 538//976
f 538//977 540//977 193//977
f 540//978 192//978 193//978
f 197//979 541//979 539//979
f 541//980 542//980 539//980
f 539//981 542//981 540//981
f 542//982 543//982 540//982
f 540//983 543//983 192//983
f 543//984 191//984 192//984
f 198//985 544//985 541//985
f 544//986 545//986 541//986
f 541//987 545//987 542//987
f 545//988 546//988 542//988
f 542//989 546//989 543//989
f 546//990 547//990 543//990
f 543//991 547//991 191//991
f 547//992 190//992 191//992
f 199//993 548//993 544//993
f 548//994 549//994 544//994
f 544//995 549//995 545//995
f 549//996 550//996 545//996
f 545//997 550//997 546//997
f 550//998 551//998 546//998
f 546//999 551//999 547//999
f 551//1000 552//1000 547//1000
f 547//1001 552//1001 190//1001
f 552//1002 189//1002 190//1002
f 200//1003 553//1003 548//1003
f 553//1004 554//1004 548//1004
f 548//1005 554//1005 549//1005
f 554//1006 555//1006 549//1006
f 549//1007 555//1007 550//1007
f 555//1008 556//1008 550//1008
f 550//1009 556//1009 551//1009
f 556//1010 557//1010 551//1010
f 551//1011 557//1011 552//1011
f 557//1012 558//1012 552//1012
f 552//1013 558//1013 189//1013
f 558//1014 188//1014 189//1014
f 201//1015 159//1015 553//1015
f 159//1016 158//1016 553//1016
f 553//1017 158//1017 554//1017
f 158//1018 157//1018 554//1018
f 554//1019 157//1019 555//1019
f 157//1020 156//1020 555//1020
f 555//1021 156//1021 556//1021
f 156//1022 155//1022 556//1022
f 556//1023 155//1023 557//1023
f 155//1024 154//1024 557//1024
f 557//1025 154//1025 558//1025
f 154//1026 153//1026 558//1026
f 558//1027 153//1027 188//1027
f 153//1028 11//1028 188//1028
f 202//1029 195//1029 12//1029
f 203//1030 559//1030 202//1030
f 204//1031 560//1031 203//1031
f 205//1032 562//1032 204//1032
f 206//1033 565//1033 205//1033
f 207//1034 569//1034 206//1034
f 208//1035 574//1035 207//1035
f 202//1036 559//1036 195//1036
f 559//1037 196//1037 195//1037
f 203//1038 560//1038 559//1038
f 560//1039 561//1039 559//1039
f 559//1040 561//1040 196//1040
f 561//1041 197//1041 196//1041
f 204//1042 562//1042 560//1042
f 562//1043 563//1043 560//1043
f 560//1044 563//1044 561//1044
f 563//1045 564//1045 561//1045
f 561//1046 564//1046 197//1046
f 564//1047 198//1047 197//1047
f 205//1048 565//1048 562//1048
f 565//1049 566//1049 562//1049
f 562//1050 566//1050 563//1050
f 566//1051 567//1051 563//1051
f 563//1052 567//1052 564//1052
f 567//1053 568//1053 564//1053
f 564//1054 568//1054 198//1054
f 568//1055 199//1055 198//1055
f 206//1056 569//1056 565//1056
f 569//1057 570//1057 565//1057
f 565//1058 570//1058 566//1058
f 570//1059 571//1059 566//1059
f 566//1060 571//1060 567//1060
f 571//1061 572//1061 567//1061
f 567//1062 572//1062 568//1062
f 572//1063 573//1063 568//1063
f 568//1064 573//1064 199//1064
f 573//1065 200//1065 199//1065
f 207//1066 574//1066 569//1066
f 574//1067 575//1067 569//1067
f 569//1068 575//1068 570//1068
f 575//1069 576//1069 570//1069
f 570//1070 576//1070 571//1070
f 576//1071 577//1071 571//1071
f 571//1072 577//1072 572//1072
f 577//1073 578//1073 572//1073
f 572//1074 578//1074 573//1074
f 578//1075 579//1075 573//1075
f 573//1076 579//1076 200//1076
f 579//1077 201//1077 200//1077
f 208//1078 166//1078 574//1078
f 166//1079 165//1079 574//1079
f 574//1080 165//1080 575//1080
f 165//1081 164//1081 575//1081
f 575//1082 164//1082 576//1082
f 164//1083 163//1083 576//1083
f 576//1084 163//1084 577//1084
f 163//1085 162//1085 577//1085
f 577//1086 162//1086 578//1086
f 162//1087 161//1087 578//1087
f 578//1088 161//1088 579//1088
f 161//1089 160//1089 579//1089
f 579//1090 160//1090 201//1090
f 160//1091 7//1091 201//1091
f 209//1092 202//1092 12//1092
f 210//1093 580//1093 209//1093
f 211//1094 581//1094 210//1094
f 212//1095 583//1095 211//1095
f 213//1096 586//1096 212//1096
f 214//1097 590//1097 213//1097
f 215//1098 595//1098 214//1098
f 209//1099 580//1099 202//1099
f 580//1100 203//1100 202//1100
f 210//1101 581//1101 580//1101
f 581//1102 582//1102 580//1102
f 580//1103 582//1103 203//1103
f 582//1104 204//1104 203//1104
f 211//1105 583//1105 581//1105
f 583//1106 584//1106 581//1106
f 581//1107 584//1107 582//1107
f 584//1108 585//1108 582//1108
f 582//1109 585//1109 204//1109
f 585//1110 205//1110 204//1110
f 212//1111 586//1111 583//1111
f 586//1112 587//1112 583//1112
f 583//1113 587//1113 584//1113
f 587//1114 588//1114 584//1114
f 584//1115 588//1115 585//1115
f 588//1116 589//1116 585//1116
f 585//1117 589//1117 205//1117
f 589//1118 206//1118 205//1118
f 213//1119 590//1119 586//1119
f 590//1120 591//1120 586//1120
f 586//1121 591//1121 587//1121
f 591//1122 592//1122 587//1122
f 587//1123 592//1123 588//1123
f 592//1124 593//1124 588//1124
f 588//1125 593//1125 589//1125
f 593//1126 594//1126 589//1126
f 589//1127 594//1127 206//1127
f 594//1128 207//1128 206//1128
f 214//1129 595//1129 590//1129
f 595//1130 596//1130 590//1130
f 590//1131 596//1131 591//1131
f 596//1132 597//1132 591//1132
f 591//1133 597//1133 592//1133
f 597//1134 598//1134 592//1134
f 592//1135 598//1135 593//1135
f 598//1136 599//1136 593//1136
f 593//1137 599//1137 594//1137
f 599//1138 600//1138 594//1138
f 594//1139 600//1139 207//1139
f 600//1140 208//1140 207//1140
f 215//1141 173//1141 595//1141
f 173//1142 172//1142 595//1142
f 595//1143 172//1143 596//1143
f 172//1144 171//1144 596//1144
f 596//1145 171//1145 597//1145
f 171//1146 170//1146 597//1146
f 597//1147 170//1147 598//1147
f 170//1148 169//1148 598//1148
f 598//1149 169//1149 599//1149
f 169//1150 168//1150 599//1150
f 599//1151 168//1151 600//1151
f 168//1152 167//1152 600//1152
f 600//1153 167//1153 208//1153
f 167//1154 8//1154 208//1154
f 216//1155 209//1155 12//1155
f 217//1156 601//1156 216//1156
f 218//1157 602//1157 217//1157
f 219//1158 604//1158 218//1158
f 220//1159 607//1159 219//1159
f 221//1160 611//1160 220//1160
f 222//1161 616//1161 221//1161
f 216//1162 601//1162 209//1162
f 601//1163 210//1163 209//1163
f 217//1164 602//1164 601//1164
f 602//1165 603//1165 601//1165
f 601//1166 603//1166 210//1166
f 603//1167 211//1167 210//1167
f 218//1168 604//1168 602//1168
f 604//1169 605//1169 602//1169
f 602//1170 605//1170 603//1170
f 605//1171 606//1171 603//1171
f 603//1172 606//1172 211//1172
f 606//1173 212//1173 211//1173
f 219//1174 607//1174 604//1174
f 607//1175 608//1175 604//1175
f 604//1176 608//1176 605//1176
f 608//1177 609//1177 605//1177
f 605//1178 609//1178 606//1178
f 609//1179 610//1179 606//1179
f 606//1180 610//1180 212//1180
f 610//1181 213//1181 212//1181
f 220//1182 611//1182 607//1182
f 611//1183 612//1183 607//1183
f 607//1184 612//1184 608//1184
f 612//1185 613//1185 608//1185
f 608//1186 613//1186 609//1186
f 613//1187 614//1187 609//1187
f 609//1188 614//1188 610//1188
f 614//1189 615//1189 610//1189
f 610//1190 615//1190 213//1190
f 615//1191 214//1191 213//1191
f 221//1192 616//1192 611//1192
f 616//1193 617//1193 611//1193
f 611//1194 617//1194 612//1194
f 617//1195 618//1195 612//1195
f 612//1196 618//1196 613//1196
f 618//1197 619//1197 613//1197
f 613//1198 619//1198 614//1198
f 619//1199 620//1199 614//1199
f 614//1200 620//1200 615//1200
f 620//1201 621//1201 615//1201
f 615//1202 621//1202 214//1202
f 621//1203 215//1203 214//1203
f 222//1204 180//1204 616//1204
f 180//1205 179//1205 616//1205
f 616//1206 179//1206 617//1206
f 179//1207 178//1207 617//1207
f 617//1208 178//1208 618//1208
f 178//1209 177//1209 618//1209
f 618//1210 177//1210 619//1210
f 177//1211 176//1211 619//1211
f 619//1212 176//1212 620//1212
f 176//1213 175//1213 620//1213
f 620//1214 175//1214 621//1214
f 175//1215 174//1215 621//1215
f 621//1216 174//1216 215//1216
f 174//1217 9//1217 215//1217
f 194//1218 216//1218 12//1218
f 193//1219 622//1219 194//1219
f 192//1220 623//1220 193//1220
f 191//1221 625//1221 192//1221
f 190//1222 628//1222 191//1222
f 189//1223 632//1223 190//1223
f 188//1224 637//1224 189//1224
f 194//1225 622//1225 216//1225
f 622//1226 217//1226 216//1226
f 193//1227 623//1227 622//1227
f 623//1228 624//1228 622//1228
f 622//1229 624//1229 217//1229
f 624//1230 218//1230 217//1230
f 192//1231 625//1231 623//1231
f 625//1232 626//1232 623//1232
f 623//1233 626//1233 624//1233
f 626//1234 627//1234 624//1234
f 624//1235 627//1235 218//1235
f 627//1236 219//1236 218//1236
f 191//1237 628//1237 625//1237
f 628//1238 629//1238 625//1238
f 625//1239 629//1239 626//1239
f 629//1240 630//1240 626//1240
f 626//1241 630//1241 627//1241
f 630//1242 631//1242 627//1242
f 627//1243 631//1243 219//1243
f 631//1244 220//1244 219//1244
f 190//1245 632//1245 628//1245
f 632//1246 633//1246 628//1246
f 628//1247 633//1247 629//1247
f 633//1248 634//1248 629//1248
f 629//1249 634//1249 630//1249
f 634//1250 635//1250 630//1250
f 630//1251 635//1251 631//1251
f 635//1252 636//1252 631//1252
f 631//1253 636//1253 220//1253
f 636//1254 221//1254 220//1254
f 189//1255 637//1255 632//1255
f 637//1256 638//1256 632//1256
f 632//1257 638//1257 633//1257
f 638//1258 639//1258 633//1258
f 633//1259 639//1259 634//1259
f 639//1260 640//1260 634//1260
f 634//1261 640//1261 635//1261
f 640//1262 641//1262 635//1262
f 635//1263 641//1263 636//1263
f 641//1264 642//1264 636//1264
f 636//1265 642//1265 221//1265
f 642//1266 222//1266 221//1266
f 188//1267 187//1267 637//1267
f 187//1268 186//1268 637//1268
f 637//1269 186//1269 638//1269
f 186//1270 185//1270 638//1270
f 638//1271 185//1271 639//1271
f 185//1272 184//1272 639//1272
f 639//1273 184//1273 640//1273
f 184//1274 183//1274 640//1274
f 640//1275 183//1275 641//1275
f 183//1276 182//1276 641//1276
f 641//1277 182//1277 642//1277
f 182//1278 181//1278 642//1278
f 642//1279 181//1279 222//1279
f 181//1280 10//1280 222//1280
