# Blender MTL File: 'None'
# Material Count: 1
newmtl material4
Ns 125.490196
Ka 0.000000 0.000000 0.000000
Kd 0.708276 0.707136 0.706327
Ks 0.042896 0.052591 0.056378
Ni 1.000000
d 0.911000
illum 2
map_Kd rock1.jpg


