# Blender v2.63 (sub 0) OBJ File: ''
# www.blender.org
mtllib meteor2.mtl
o Mesh_Mesh_Icosphere.001
v 0.000009 1.235695 0.001507
v -0.057823 1.227480 -0.034558
v 0.022035 1.228303 -0.056812
v -0.430552 0.614105 -0.264477
v -0.402925 0.746797 -0.251125
v -0.449803 0.642219 -0.216730
v 0.071448 1.227697 0.001534
v 0.022116 1.355827 0.060188
v -0.057775 1.227293 0.037550
v -0.455507 0.467118 -0.242415
v 0.160511 0.616296 -0.433039
v 0.096060 0.656700 -0.444789
v 0.043968 0.493345 -0.486321
v 0.469817 0.529142 -0.001767
v 0.457743 0.566018 -0.057722
v 0.494469 0.425757 -0.036263
v 0.150636 0.551389 0.391942
v 0.208786 0.588108 0.365011
v 0.195538 0.444234 0.398969
v -0.418301 0.600930 0.432794
v -0.369322 0.640548 0.306521
v -0.397099 0.453227 0.460982
v -0.404261 0.459208 -0.288411
v 0.186126 0.460747 -0.408744
v 0.493400 0.424568 0.032916
v 0.118899 0.466880 0.538530
v -0.440896 0.449344 0.404018
v -0.138747 -0.480712 -0.364917
v -0.192884 -0.514609 -0.339502
v -0.129334 -0.597688 -0.340152
v 0.395061 -0.470066 -0.236448
v 0.335605 -0.532471 -0.272335
v 0.363988 -0.559535 -0.216658
v 0.360220 -0.480897 0.227296
v 0.385756 -0.514096 0.178794
v 0.336434 -0.598386 0.212254
v -0.140719 -0.490376 0.378643
v -0.080082 -0.524986 0.386239
v -0.131327 -0.607047 0.353370
v -0.522498 -0.475648 -0.011690
v -0.456700 -0.510953 0.052386
v -0.521360 -0.588960 -0.011459
v 0.150199 0.732519 -0.400853
v 0.136362 0.857846 -0.359754
v 0.077268 0.774748 -0.404817
v 0.117015 0.983585 -0.307757
v 0.055675 0.905813 -0.356625
v 0.094036 1.093711 -0.246819
v 0.031648 1.031380 -0.298146
v 0.068921 1.141047 -0.179022
v 0.000913 1.131726 -0.230952
v 0.043837 1.182381 -0.112594
v -0.018138 1.159481 -0.159553
v -0.039673 1.202349 -0.093714
v 0.020114 0.684490 -0.440343
v -0.004906 0.805347 -0.393743
v -0.062562 0.699750 -0.423964
v -0.034483 0.941232 -0.345496
v -0.091607 0.838931 -0.379660
v -0.149140 0.761028 -0.447032
v -0.104592 1.035645 -0.328162
v -0.123755 0.954089 -0.318585
v -0.182306 0.837744 -0.352749
v -0.235475 0.697799 -0.373071
v -0.085666 1.137926 -0.209502
v -0.153746 1.071191 -0.258628
v -0.212389 0.958838 -0.293782
v -0.266868 0.818345 -0.318991
v -0.311904 0.676743 -0.337388
v -0.106038 1.172581 -0.138949
v -0.173391 1.164369 -0.190621
v -0.239475 1.060910 -0.232145
v -0.294804 0.927269 -0.260297
v -0.388204 0.838559 -0.345469
v -0.376701 0.646625 -0.299264
v -0.121871 1.205425 -0.074421
v -0.189127 1.175040 -0.116649
v -0.274618 1.137255 -0.206653
v -0.311342 1.007820 -0.196794
v -0.359715 0.876104 -0.228304
v -0.429127 0.615203 0.209524
v -0.384183 0.723863 0.246669
v -0.436067 0.625246 0.144451
v -0.386947 0.738168 0.184669
v -0.448604 0.641753 0.071029
v -0.397889 0.669097 0.148326
v -0.456314 0.651705 -0.006722
v -0.463407 0.793917 0.000071
v -0.462246 0.659164 -0.081463
v -0.413420 0.786803 -0.046777
v -0.475197 0.625201 -0.115880
v -0.416110 0.784614 -0.122423
v -0.410072 0.768265 -0.192740
v -0.341068 0.851702 0.221922
v -0.342751 0.875529 0.153791
v -0.294874 0.984974 0.191604
v -0.351682 0.902229 0.076387
v -0.297670 1.015626 0.118312
v -0.244668 0.956449 0.156174
v -0.358819 0.916735 -0.005956
v -0.303312 1.038604 0.037905
v -0.250951 1.141175 0.080206
v -0.188765 1.190655 0.117750
v -0.367205 0.921799 -0.085323
v -0.311197 1.049005 -0.044188
v -0.254546 1.156921 -0.000708
v -0.190143 1.195855 0.032824
v -0.121697 1.205086 0.077202
v -0.363566 0.901165 -0.162136
v -0.310489 1.032740 -0.124863
v -0.256552 1.154527 -0.083134
v -0.193599 1.185644 -0.038899
v -0.123093 1.213680 0.001398
v 0.454407 0.700175 -0.001581
v 0.407413 0.835841 -0.001490
v 0.436184 0.746877 -0.063736
v 0.353536 0.972983 -0.001096
v 0.384658 0.890206 -0.066464
v 0.301173 1.109107 -0.000372
v 0.330092 1.034657 -0.067408
v 0.233169 1.317414 0.001294
v 0.267749 1.161178 -0.066744
v 0.150427 1.334253 0.001781
v 0.183791 1.190794 -0.063474
v 0.098643 1.207507 -0.057644
v 0.459290 0.647120 -0.124439
v 0.413595 0.791533 -0.131511
v 0.442368 0.690722 -0.187351
v 0.362248 0.942887 -0.135981
v 0.430740 0.892370 -0.190688
v 0.404327 0.713579 -0.249153
v 0.301329 1.084649 -0.137335
v 0.329372 0.979039 -0.205936
v 0.341821 0.846058 -0.262770
v 0.336879 0.702935 -0.300401
v 0.214187 1.152776 -0.126972
v 0.242856 1.062612 -0.196888
v 0.264237 0.942130 -0.261204
v 0.275903 0.810248 -0.314977
v 0.273655 0.681393 -0.351947
v 0.126147 1.162049 -0.119605
v 0.230216 1.134655 -0.213177
v 0.179576 1.031925 -0.257009
v 0.157926 0.962168 -0.343651
v 0.210616 0.772369 -0.361804
v 0.217737 0.652205 -0.400396
v 0.146808 0.724966 0.380988
v 0.132735 0.861961 0.344791
v 0.210089 0.771899 0.347873
v 0.116411 1.128035 0.305092
v 0.197850 0.916224 0.308049
v 0.097318 1.444144 0.257685
v 0.181891 1.186414 0.265520
v 0.072231 1.324699 0.190851
v 0.157499 1.288138 0.200517
v 0.046562 1.334595 0.124490
v 0.129051 1.456285 0.131282
v 0.099604 1.343304 0.063881
v 0.271152 0.621954 0.330871
v 0.277837 0.814024 0.309106
v 0.352196 0.705926 0.313640
v 0.267168 0.964546 0.268959
v 0.346044 0.849187 0.267595
v 0.411171 0.717174 0.257764
v 0.245445 1.087736 0.206081
v 0.327447 0.976420 0.205953
v 0.380546 0.823660 0.200010
v 0.426916 0.673512 0.189868
v 0.216711 1.304325 0.135582
v 0.297116 1.079403 0.137137
v 0.352307 0.932651 0.134612
v 0.456524 0.801589 0.150667
v 0.455024 0.642633 0.121645
v 0.184010 1.317171 0.066526
v 0.267384 1.290581 0.067172
v 0.327388 1.031613 0.066278
v 0.381657 0.887306 0.063837
v 0.434581 0.745245 0.060689
v 0.476859 0.608231 0.056890
v -0.333817 0.778719 0.288505
v -0.287219 0.918680 0.262673
v -0.233551 1.052105 0.229867
v -0.172293 1.157717 0.189991
v -0.104229 1.190069 0.146298
v -0.037985 1.343296 0.102234
v -0.312163 0.679864 0.348832
v -0.267414 0.821448 0.329687
v -0.242911 0.710594 0.387926
v -0.214285 0.962868 0.301976
v -0.188956 0.849187 0.366052
v -0.158047 0.716946 0.415782
v -0.151901 1.084307 0.264382
v -0.126106 0.979041 0.333402
v -0.100252 0.839294 0.381315
v -0.074789 0.690941 0.414267
v -0.082784 1.298146 0.218979
v -0.058059 1.212135 0.290924
v -0.034694 0.956310 0.343978
v -0.012351 0.808545 0.383027
v 0.010196 0.664835 0.417948
v -0.015108 1.319838 0.171482
v 0.009677 1.495687 0.241723
v 0.033512 1.180935 0.304039
v 0.052873 0.913720 0.345453
v 0.071968 0.770344 0.384503
v 0.088811 0.631916 0.416418
v -0.543599 -0.377796 -0.044082
v -0.474123 -0.379811 0.032199
v -0.564862 -0.270045 -0.080367
v -0.499209 -0.272752 -0.000556
v -0.500993 -0.135819 -0.105807
v -0.511333 -0.137930 -0.036487
v -0.503963 0.002948 -0.142190
v -0.513135 0.007167 -0.074033
v -0.487795 0.144384 -0.175533
v -0.509525 0.148932 -0.110564
v -0.458666 0.280243 -0.203651
v -0.569368 0.321898 -0.116207
v -0.472820 0.480843 -0.184470
v -0.493705 -0.269738 0.067360
v -0.511033 -0.137727 0.035439
v -0.499987 -0.135129 0.104873
v -0.518104 0.008346 -0.000338
v -0.511025 0.007007 0.073018
v -0.498258 0.004498 0.141424
v -0.558305 0.198185 -0.041265
v -0.516588 0.146410 0.036793
v -0.504164 0.143678 0.108976
v -0.484113 0.140367 0.341298
v -0.521859 0.345022 -0.081329
v -0.519845 0.338285 -0.002959
v -0.510409 0.331270 0.075453
v -0.500710 0.332106 0.149240
v -0.482264 0.334490 0.361507
v -0.480910 0.483420 -0.117045
v -0.481688 0.480678 -0.043133
v -0.473159 0.469569 0.032950
v -0.461994 0.459542 0.108647
v -0.453826 0.457503 0.344862
v -0.109231 -0.380570 -0.391111
v -0.180478 -0.380455 -0.371057
v -0.074294 -0.261766 -0.414023
v -0.150853 -0.264278 -0.396942
v -0.036077 -0.130068 -0.434131
v -0.115271 -0.130474 -0.419245
v 0.002455 0.005716 -0.452482
v -0.075797 0.013041 -0.437397
v 0.042930 0.145563 -0.454681
v -0.107920 0.143409 -0.469808
v 0.088516 0.339763 -0.472009
v 0.009291 0.356225 -0.474453
v 0.053063 0.495828 -0.454457
v -0.224394 -0.261646 -0.371975
v -0.194755 -0.130365 -0.396933
v -0.268418 -0.128649 -0.367654
v -0.180900 -0.087072 -0.214055
v -0.234352 0.004631 -0.382978
v -0.309757 -0.003346 -0.362195
v -0.115796 0.147674 -0.432776
v -0.198924 0.146621 -0.408159
v -0.275262 0.142738 -0.374650
v -0.340353 0.136915 -0.336191
v -0.073863 0.359733 -0.457898
v -0.193818 0.381166 -0.434365
v -0.250118 0.357807 -0.406099
v -0.326298 0.346069 -0.367329
v -0.362210 0.272389 -0.303222
v -0.024326 0.508388 -0.441568
v -0.111176 0.518115 -0.425747
v -0.198399 0.517570 -0.400649
v -0.278682 0.505357 -0.366491
v -0.347782 0.484550 -0.327606
v 0.514250 -0.393643 -0.178785
v 0.368830 -0.398689 -0.265996
v 0.450687 -0.279423 -0.194395
v 0.397118 -0.284898 -0.239754
v 0.481485 -0.143983 -0.167981
v 0.427574 -0.150661 -0.212908
v 0.506931 0.000462 -0.140665
v 0.453698 -0.002590 -0.182716
v 0.550552 0.191830 -0.113423
v 0.478328 0.150047 -0.156878
v 0.521802 0.312718 -0.074125
v 0.515544 0.345690 -0.140464
v 0.482141 0.457302 -0.097994
v 0.342247 -0.282750 -0.287694
v 0.372218 -0.152773 -0.264472
v 0.312924 -0.150343 -0.312351
v 0.421829 0.039752 -0.268993
v 0.341472 -0.006317 -0.289869
v 0.290392 -0.037168 -0.313111
v 0.422694 0.150739 -0.204699
v 0.366368 0.149972 -0.261178
v 0.305122 0.145774 -0.312683
v 0.242693 0.138566 -0.354671
v 0.475004 0.363079 -0.189944
v 0.414343 0.366139 -0.246244
v 0.428595 0.227698 -0.273808
v 0.284564 0.348723 -0.355146
v 0.221739 0.331085 -0.397137
v 0.464959 0.493348 -0.160270
v 0.431431 0.522471 -0.213605
v 0.370711 0.520721 -0.270552
v 0.306182 0.508294 -0.323603
v 0.242728 0.486902 -0.369408
v 0.354518 -0.380936 0.263547
v 0.397737 -0.380319 0.210939
v 0.343465 -0.263231 0.300529
v 0.391560 -0.264179 0.246902
v 0.329405 -0.133355 0.337293
v 0.379194 -0.131116 0.283366
v 0.314334 -0.000000 0.372208
v 0.367626 0.007010 0.321452
v 0.272540 0.135632 0.376957
v 0.364434 0.201522 0.374457
v 0.243130 0.318645 0.401946
v 0.312250 0.341740 0.370546
v 0.259712 0.474186 0.369399
v 0.433026 -0.260801 0.188910
v 0.426355 -0.129622 0.224093
v 0.464256 -0.126551 0.161970
v 0.412441 0.015321 0.259401
v 0.456118 0.016149 0.195634
v 0.584272 0.072443 0.190249
v 0.401019 0.156955 0.297474
v 0.452774 0.156955 0.236191
v 0.489863 0.151738 0.170260
v 0.507722 0.138505 0.104877
v 0.384474 0.370129 0.339645
v 0.415323 0.313910 0.259600
v 0.487188 0.363993 0.209381
v 0.532010 0.318902 0.224184
v 0.517692 0.308258 0.071515
v 0.327178 0.502466 0.333177
v 0.394444 0.529903 0.295653
v 0.443210 0.524898 0.231213
v 0.456609 0.482049 0.162101
v 0.478534 0.453379 0.094811
v -0.182242 -0.389800 0.384405
v -0.111455 -0.390575 0.405249
v -0.225903 -0.270387 0.384555
v -0.152874 -0.273963 0.410720
v -0.269262 -0.135429 0.377613
v -0.196453 -0.139042 0.409373
v -0.309535 0.007309 0.530923
v -0.239389 0.008052 0.399611
v -0.345380 0.145562 0.513462
v -0.281150 0.152866 0.386299
v -0.385699 0.331163 0.418154
v -0.344524 0.379330 0.468157
v -0.349087 0.489197 0.505477
v -0.077102 -0.272458 0.428973
v -0.117732 -0.140287 0.433072
v -0.042930 -0.145563 0.454681
v -0.160847 0.006713 0.429647
v -0.081559 -0.000000 0.454694
v -0.001163 -0.002929 0.455770
v -0.204931 0.156955 0.420040
v -0.121190 0.156955 0.443448
v -0.039810 0.142951 0.442182
v 0.037517 0.128352 0.434355
v -0.257282 0.370129 0.419870
v -0.170855 0.374605 0.450651
v -0.174829 0.378357 0.586259
v 0.001791 0.359279 0.569403
v 0.081405 0.339832 0.563505
v -0.285865 0.517717 0.380301
v -0.205569 0.529906 0.414433
v -0.121928 0.516808 0.424143
v -0.036346 0.496199 0.427082
v 0.045695 0.494921 0.544976
v -0.240015 -0.407214 -0.342306
v -0.288309 -0.280430 -0.340102
v -0.335334 -0.142038 -0.335488
v -0.376639 0.000000 -0.326613
v -0.402884 0.149082 -0.296289
v -0.418463 0.284567 -0.261560
v -0.321618 -0.545058 -0.318628
v -0.373166 -0.430789 -0.317774
v -0.382273 -0.573012 -0.284466
v -0.354613 -0.300556 -0.304982
v -0.366305 -0.454844 -0.271195
v -0.434584 -0.582036 -0.240137
v -0.401020 -0.156955 -0.297474
v -0.486034 -0.313910 -0.271526
v -0.488034 -0.456803 -0.227732
v -0.499937 -0.569404 -0.181659
v -0.432644 0.000003 -0.270424
v -0.452774 -0.156952 -0.236191
v -0.526534 -0.306529 -0.207631
v -0.508889 -0.428497 -0.164003
v -0.523799 -0.539911 -0.121374
v -0.452041 0.149082 -0.238081
v -0.477451 0.000003 -0.207239
v -0.484291 -0.148331 -0.170416
v -0.548551 -0.288386 -0.142513
v -0.529708 -0.403801 -0.101614
v -0.548356 -0.509777 -0.063767
v 0.317765 -0.424654 -0.305374
v 0.286221 -0.299067 -0.330321
v 0.251760 -0.156452 -0.355766
v 0.213925 -0.005660 -0.376909
v 0.178440 0.141958 -0.394993
v 0.157460 0.337176 -0.439801
v 0.280384 -0.561226 -0.309711
v 0.257443 -0.445007 -0.346359
v 0.215465 -0.581614 -0.345042
v 0.226397 -0.308028 -0.378513
v 0.188773 -0.457620 -0.384075
v 0.140576 -0.589161 -0.372206
v 0.186884 -0.201129 -0.449731
v 0.156669 -0.313065 -0.418049
v 0.109785 -0.457730 -0.407940
v 0.065603 -0.572367 -0.376437
v 0.152100 -0.002918 -0.423537
v 0.121190 -0.156955 -0.443448
v 0.077948 -0.300449 -0.425219
v -0.043208 -0.452062 -0.441273
v -0.008005 -0.545162 -0.374618
v 0.122398 0.148625 -0.442167
v 0.081559 0.000000 -0.454694
v 0.041126 -0.142259 -0.440618
v -0.000752 -0.280876 -0.420882
v -0.041319 -0.407288 -0.397858
v -0.077513 -0.514572 -0.371664
v 0.425170 -0.406214 0.156840
v 0.461197 -0.278167 0.129535
v 0.491608 -0.135995 0.098554
v 0.524377 0.000422 0.072669
v 0.551422 0.183607 0.037719
v 0.522698 0.310409 -0.001407
v 0.409080 -0.543551 0.121932
v 0.448714 -0.428088 0.094168
v 0.428292 -0.566157 0.058698
v 0.484097 -0.292771 0.062565
v 0.541558 -0.439782 0.046683
v 0.468829 -0.560099 -0.000136
v 0.520023 -0.151362 0.033951
v 0.509075 -0.310780 -0.002164
v 0.499983 -0.429536 -0.037024
v 0.463495 -0.553190 -0.070386
v 0.533338 -0.001066 -0.000085
v 0.527673 -0.156955 -0.037875
v 0.506548 -0.309741 -0.074743
v 0.487946 -0.418181 -0.108058
v 0.448551 -0.533837 -0.135966
v 0.556428 0.188807 -0.039388
v 0.527857 -0.000003 -0.073776
v 0.513925 -0.152866 -0.110663
v 0.330799 -0.268647 -0.142901
v 0.463835 -0.396684 -0.169522
v 0.424228 -0.504379 -0.191394
v -0.044412 -0.418376 0.413230
v -0.116943 -0.277654 0.479646
v 0.036169 -0.153532 0.453559
v 0.078664 -0.008349 0.443884
v 0.117631 0.130324 0.421391
v 0.163847 0.320054 0.427270
v -0.020902 -0.551785 0.441243
v 0.027176 -0.447241 0.421200
v 0.061266 -0.582253 0.389550
v 0.073906 -0.309741 0.437557
v 0.109423 -0.458599 0.409096
v 0.140576 -0.589161 0.372206
v 0.120775 -0.157861 0.441909
v 0.158640 -0.313910 0.420040
v 0.190981 -0.458599 0.386297
v 0.216589 -0.582253 0.346132
v 0.162242 -0.008701 0.426323
v 0.204606 -0.157663 0.418837
v 0.239160 -0.309741 0.391362
v 0.256590 -0.440071 0.349221
v 0.268374 -0.550574 0.304705
v 0.197558 0.131695 0.400649
v 0.243304 -0.003512 0.404042
v 0.281149 -0.152866 0.386299
v 0.341853 -0.316411 0.372400
v 0.306898 -0.409619 0.304705
v 0.317189 -0.516135 0.264667
v -0.463766 -0.412136 0.089430
v -0.476618 -0.287549 0.129640
v -0.479589 -0.145108 0.169939
v -0.476524 -0.000775 0.374316
v -0.447525 0.144608 0.403977
v -0.440866 0.333269 0.444821
v -0.422589 -0.542397 0.109975
v -0.442708 -0.437708 0.151914
v -0.407236 -0.579195 0.170199
v -0.450944 -0.303180 0.195296
v -0.416314 -0.457142 0.215787
v -0.364475 -0.583744 0.223658
v -0.452774 -0.156955 0.236189
v -0.411672 -0.308343 0.253042
v -0.362131 -0.449614 0.265048
v -0.309393 -0.572624 0.272830
v -0.432645 -0.000000 0.437751
v -0.396973 -0.150790 0.290210
v -0.367185 -0.268768 0.336377
v -0.302659 -0.436431 0.314280
v -0.297049 -0.630805 0.375003
v -0.394424 0.209219 0.437996
v -0.376640 -0.000000 0.493939
v -0.333992 -0.143465 0.338331
v -0.288981 -0.287213 0.350090
v -0.241464 -0.415805 0.354645
v -0.194449 -0.523473 0.352207
v -0.017919 -1.101891 -0.051839
v -0.056075 -1.078059 -0.000616
v 0.001898 -1.109588 0.000260
v -0.039816 -1.074531 -0.109568
v -0.080697 -1.061095 -0.056015
v -0.063537 -1.116341 -0.175619
v -0.218946 -1.069122 0.055558
v -0.086877 -0.953274 -0.230035
v -0.248051 -1.016065 -0.006867
v -0.106585 -0.850462 -0.282468
v -0.162528 -0.893557 -0.237389
v -0.117251 -0.720461 -0.308584
v -0.175844 -0.768868 -0.276106
v -0.185794 -0.639036 -0.310093
v -0.123273 -1.039611 -0.000607
v -0.262500 -1.048868 0.113206
v -0.299763 -1.010923 0.171814
v -0.290973 -0.998317 0.051138
v -0.331044 -0.967387 0.112471
v -0.331342 -0.880275 0.044726
v -0.213699 -0.903773 -0.183204
v -0.213828 -0.873477 -0.121838
v -0.265901 -0.839986 -0.059280
v -0.309039 -0.799093 0.000282
v -0.238403 -0.809197 -0.240133
v -0.253592 -0.804927 -0.182989
v -0.309726 -0.784013 -0.119733
v -0.356593 -0.753016 -0.056973
v -0.374599 -0.703972 0.000809
v -0.316968 -0.675092 -0.285888
v -0.375766 -0.699039 -0.248531
v -0.431089 -0.690639 -0.190134
v -0.474473 -0.665364 -0.127308
v -0.498814 -0.627130 -0.066831
v 0.050969 -1.101683 -0.031792
v 0.097792 -1.049870 -0.060380
v 0.034380 -1.089382 -0.089607
v 0.154487 -0.986997 -0.095324
v 0.080999 -1.018360 -0.121347
v 0.212478 -0.905519 -0.131371
v 0.140243 -1.034189 -0.165184
v 0.110903 -0.776840 -0.165034
v 0.044209 -0.822511 -0.196760
v 0.158220 -0.669359 -0.194287
v 0.097904 -0.712681 -0.228223
v 0.141049 -0.595029 -0.251742
v 0.013241 -1.141726 -0.156961
v 0.063459 -1.059683 -0.192554
v -0.008609 -1.079529 -0.221259
v 0.123614 -0.971671 -0.231905
v 0.044130 -0.985009 -0.258731
v -0.031150 -0.985054 -0.280947
v 0.181744 -0.774023 -0.260937
v 0.103364 -0.793575 -0.290196
v 0.028231 -0.810905 -0.316618
v -0.047014 -0.768510 -0.311516
v 0.233797 -0.657007 -0.288194
v 0.161611 -0.684439 -0.321056
v 0.086882 -0.705939 -0.349409
v 0.011185 -0.674891 -0.345449
v -0.062990 -0.639073 -0.344414
v 0.051630 -1.104601 0.032520
v 0.107002 -1.078810 0.068203
v 0.107895 -1.089799 0.000352
v 0.166863 -1.025899 0.105677
v 0.170517 -1.049424 0.036359
v 0.226142 -0.948493 0.142386
v 0.233961 -0.981938 0.074150
v 0.280982 -0.852135 0.175627
v 0.293342 -0.888723 0.110970
v 0.306758 -0.722238 0.193226
v 0.329866 -0.768839 0.135426
v 0.360359 -0.638760 0.158511
v 0.160887 -1.019186 -0.027887
v 0.229156 -0.970108 0.006619
v 0.221891 -0.944020 -0.063767
v 0.300802 -0.911189 0.038265
v 0.290462 -0.878717 -0.029205
v 0.124945 -0.819168 -0.100337
v 0.357098 -0.805119 0.075035
v 0.204280 -0.780282 0.001613
v 0.448805 -0.762554 -0.052458
v 0.176628 -0.709718 -0.134330
v 0.381888 -0.672558 0.096500
v 0.257410 -0.676500 0.036733
v 0.426277 -0.674514 -0.036856
v 0.409130 -0.635329 -0.102270
v 0.389341 -0.599450 -0.164469
v -0.014171 -1.086803 0.051654
v -0.035729 -1.058374 0.109210
v 0.034292 -1.094107 0.089989
v -0.060533 -1.016303 0.169660
v 0.013588 -1.056992 0.152389
v -0.086877 -0.953274 0.230035
v -0.008609 -0.989360 0.215944
v -0.107324 -0.852135 0.284173
v -0.031150 -0.894885 0.275632
v -0.119111 -0.728620 0.319988
v -0.052363 -0.780592 0.327014
v -0.065682 -0.649033 0.358193
v 0.092602 -1.054911 0.130225
v 0.073905 -1.002329 0.195679
v 0.154103 -0.987756 0.170401
v 0.051755 -0.918824 0.259596
v 0.135494 -0.918824 0.236188
v 0.213521 -1.036348 0.250746
v 0.028231 -0.810905 0.316617
v 0.112350 -0.821825 0.297472
v 0.193484 -0.810905 0.270422
v 0.262686 -0.778102 0.236265
v 0.005192 -0.688456 0.362990
v 0.086882 -0.705939 0.349408
v 0.168439 -0.705936 0.326609
v 0.240886 -0.686113 0.294580
v 0.288443 -0.641738 0.250508
v -0.079945 -1.057989 0.054852
v -0.152775 -1.010495 0.057529
v -0.332342 -0.968483 0.231494
v -0.375576 -0.875770 0.213908
v -0.348990 -0.737150 0.058266
v -0.407071 -0.628517 0.056064
v -0.107027 -1.021423 0.115580
v -0.292121 -0.996062 0.292069
v -0.244781 -1.005151 0.349871
v -0.367765 -0.912988 0.293724
v -0.323323 -0.934137 0.354635
v -0.270425 -0.923335 0.410232
v -0.307589 -0.771218 0.120784
v -0.399065 -0.840571 0.354819
v -0.347725 -0.846119 0.412610
v -0.285308 -0.809248 0.454029
v -0.380844 -0.668456 0.116828
v -0.359416 -0.705936 0.179058
v -0.304921 -0.699704 0.231404
v -0.246030 -0.679057 0.279968
v -0.187115 -0.646909 0.321356
vn -0.145695 0.862545 -0.484512
vn 0.081332 0.925810 -0.369091
vn -0.144963 0.970794 -0.190985
vn -0.753380 0.112583 -0.647816
vn -0.924924 0.208380 -0.317911
vn -0.945769 0.189947 -0.263405
vn -0.199500 0.772301 -0.603046
vn -0.123478 0.893887 -0.430921
vn -0.438917 0.814020 -0.380383
vn -0.849513 -0.009125 -0.527451
vn 0.404614 0.101779 -0.908780
vn -0.683584 0.008271 -0.729789
vn 0.144658 0.225990 -0.963317
vn 0.974151 0.161901 -0.157384
vn 0.969848 0.242531 -0.023835
vn 0.988983 0.147191 0.015290
vn 0.595630 0.280770 0.752556
vn 0.595050 0.161199 0.787317
vn 0.383038 0.134739 0.913846
vn -0.178228 0.565874 0.804987
vn -0.612781 0.039338 0.789239
vn -0.003754 0.628101 0.778100
vn -0.613971 -0.025636 -0.788873
vn 0.527879 0.026521 -0.848872
vn 0.977569 0.201819 0.059847
vn 0.600330 0.245460 0.761101
vn -0.901822 0.176183 0.394513
vn -0.263985 -0.197302 -0.944121
vn -0.261269 -0.240699 -0.934751
vn -0.231880 -0.189001 -0.954192
vn 0.605548 -0.256752 -0.753197
vn 0.494522 -0.574694 -0.652028
vn 0.568133 -0.513810 -0.642781
vn 0.764672 -0.209296 0.609455
vn 0.764061 -0.251167 0.594226
vn 0.823511 -0.227546 0.519608
vn -0.281320 -0.199316 0.938658
vn -0.282937 -0.251350 0.925596
vn -0.452406 -0.164373 0.876522
vn -0.797021 0.001221 0.603900
vn -0.822413 -0.386731 0.417127
vn -0.804651 -0.162328 0.571062
vn 0.311411 0.316141 -0.896115
vn 0.142338 0.279611 -0.949492
vn 0.124668 0.347301 -0.929411
vn 0.020386 0.546861 -0.836940
vn 0.105838 0.386578 -0.916135
vn 0.118564 0.634510 -0.763756
vn 0.158940 0.491989 -0.855922
vn 0.089419 0.883175 -0.460372
vn 0.085482 0.810389 -0.579608
vn 0.123814 0.832698 -0.539659
vn 0.046876 0.889950 -0.453566
vn -0.026704 0.866726 -0.498032
vn -0.069002 0.207343 -0.975799
vn -0.023103 0.332011 -0.942961
vn 0.058473 0.154637 -0.986236
vn -0.025941 0.332011 -0.942900
vn -0.070406 0.443709 -0.893368
vn -0.194311 0.324259 -0.925779
vn -0.316813 0.387341 -0.865749
vn -0.320444 0.273812 -0.906796
vn -0.393506 0.421674 -0.816889
vn -0.555101 0.153722 -0.817438
vn -0.019929 0.822596 -0.568255
vn -0.319865 0.544847 -0.775109
vn -0.352184 0.372295 -0.858669
vn -0.159154 0.308298 -0.937864
vn -0.390637 0.022004 -0.920255
vn 0.008057 0.908505 -0.417737
vn -0.066439 0.844935 -0.530686
vn -0.368450 0.340556 -0.864986
vn -0.493484 0.484298 -0.722404
vn -0.583758 0.385052 -0.714774
vn -0.604663 0.018281 -0.796258
vn -0.196204 0.936247 -0.291330
vn -0.233863 0.953703 -0.188940
vn -0.571673 0.596576 -0.563250
vn -0.828486 0.359508 -0.429334
vn -0.859676 0.476180 -0.184851
vn -0.945769 0.300912 0.122105
vn -0.864009 0.383892 0.325694
vn -0.930784 0.344523 0.121921
vn -0.944945 0.324717 -0.039766
vn -0.954924 0.153294 0.254128
vn -0.851070 0.502274 -0.152898
vn -0.992920 0.111148 0.041688
vn -0.936064 0.324992 -0.134526
vn -0.963195 0.257118 0.078310
vn -0.890713 0.335765 -0.306345
vn -0.987213 0.156102 0.031312
vn -0.934294 0.348277 -0.076022
vn -0.918149 0.343791 -0.196905
vn -0.880581 0.357402 0.311075
vn -0.934935 0.315256 0.162664
vn -0.674032 0.727775 0.126347
vn -0.880734 0.399884 0.253670
vn -0.674947 0.520524 0.522904
vn -0.324900 0.934049 0.148137
vn -0.889615 0.448073 0.088290
vn -0.909421 0.387677 0.150334
vn -0.758568 0.522599 0.389141
vn -0.501999 0.797357 0.334880
vn -0.925230 0.378887 -0.017945
vn -0.909268 0.415174 0.028809
vn -0.723777 0.687551 0.057955
vn -0.403790 0.914457 0.025636
vn -0.426771 0.901761 0.068331
vn -0.910520 0.378643 -0.166051
vn -0.920042 0.384259 -0.076205
vn -0.670553 0.740745 -0.039979
vn -0.373669 0.921445 -0.105991
vn -0.259865 0.965514 -0.013977
vn 0.973479 0.220313 -0.061525
vn 0.938017 0.345714 0.024110
vn 0.959166 0.273568 -0.071627
vn 0.933866 0.356487 0.027863
vn 0.938139 0.343669 -0.041932
vn 0.938505 0.326487 -0.112064
vn 0.920591 0.387707 -0.046632
vn 0.482925 0.763237 -0.429212
vn 0.697073 0.575945 -0.427015
vn -0.109287 0.850429 -0.514573
vn 0.118229 0.668416 -0.734306
vn 0.008332 0.781182 -0.624195
vn 0.987701 0.154057 -0.025758
vn 0.959868 0.240425 0.144353
vn 0.950438 0.118564 -0.287332
vn 0.879543 0.473251 0.048738
vn 0.897336 0.418317 -0.140599
vn 0.718955 0.069338 -0.691549
vn 0.725455 0.562456 -0.396619
vn 0.630268 0.522355 -0.574358
vn 0.506333 0.285653 -0.813623
vn 0.596332 0.100101 -0.796442
vn 0.348094 0.854518 -0.385449
vn 0.635212 0.399182 -0.661122
vn 0.505844 0.430067 -0.747734
vn 0.516800 0.256600 -0.816706
vn 0.591601 0.122196 -0.796899
vn 0.086001 0.895993 -0.435652
vn 0.628224 0.602069 -0.492752
vn 0.369579 0.470412 -0.801294
vn 0.039338 0.476455 -0.878292
vn 0.415723 0.262734 -0.870693
vn 0.520005 0.129337 -0.844264
vn 0.310068 0.179144 0.933653
vn 0.242225 0.242256 0.939482
vn 0.372021 0.182562 0.910062
vn 0.246651 0.161809 0.955473
vn 0.354076 0.215613 0.910001
vn 0.604694 0.758110 0.244057
vn 0.702902 0.290567 0.649190
vn -0.001617 0.959899 -0.280251
vn 0.793023 0.444838 0.416150
vn -0.319102 0.930235 0.181097
vn 0.042482 0.998077 0.044618
vn -0.156835 0.748802 -0.643941
vn 0.297861 0.114994 0.947630
vn 0.354991 0.232795 0.905393
vn 0.420515 0.151524 0.894528
vn 0.522599 0.317118 0.791375
vn 0.677114 0.335398 0.654958
vn 0.871609 0.233009 0.431196
vn 0.792444 0.377728 0.478866
vn 0.813593 0.409650 0.412580
vn 0.802118 0.376812 0.463210
vn 0.949034 0.101932 0.298135
vn 0.748955 0.523759 0.405835
vn 0.869747 0.338359 0.359172
vn 0.898465 0.409955 0.156926
vn 0.914792 0.306650 0.262764
vn 0.966369 0.106937 0.233833
vn 0.438215 0.889065 -0.132115
vn 0.799890 0.589557 0.112033
vn 0.941954 0.319285 0.103610
vn 0.905332 0.424635 -0.003174
vn 0.962493 0.257485 -0.085360
vn 0.989227 0.142033 0.034822
vn -0.725822 0.323862 0.606830
vn -0.714896 0.384686 0.583850
vn -0.785211 0.564653 0.254097
vn -0.768090 0.545274 0.335643
vn -0.621876 0.782586 -0.027985
vn -0.569079 0.821284 -0.039674
vn -0.561754 0.310862 0.766656
vn -0.570910 0.327677 0.752739
vn -0.438917 0.189795 0.878231
vn -0.495071 0.410565 0.765679
vn -0.322001 0.329325 0.887600
vn -0.129704 0.173101 0.976318
vn -0.575488 0.417310 0.703299
vn -0.243965 0.334574 0.910215
vn -0.019318 0.281381 0.959380
vn 0.032075 0.145024 0.988891
vn -0.864315 0.502884 -0.007660
vn -0.399518 0.279611 0.873012
vn 0.018677 0.231422 0.972655
vn 0.082461 0.254189 0.963622
vn -0.007599 0.279977 0.959960
vn -0.492325 0.799982 -0.342875
vn -0.193396 0.980316 0.039644
vn 0.006165 0.173956 0.984710
vn 0.112339 0.213141 0.970519
vn 0.151952 0.259987 0.953551
vn 0.385479 0.360668 0.849269
vn -0.947203 -0.030580 0.319071
vn -0.915708 -0.077395 0.394238
vn -0.986236 0.112003 0.121372
vn -0.921049 -0.037355 0.387585
vn -0.966796 0.145695 -0.209876
vn -0.998138 0.059114 0.013123
vn -0.965484 -0.024598 -0.259224
vn -0.987518 -0.080294 -0.135319
vn -0.888699 -0.024232 -0.457808
vn -0.927427 -0.119968 -0.354198
vn -0.757225 0.005585 -0.653096
vn -0.997162 0.035615 0.066225
vn -0.947386 0.122898 -0.295450
vn -0.977966 -0.143437 0.151555
vn -0.994232 -0.067232 0.083285
vn -0.972442 -0.072604 0.221503
vn -0.996002 -0.075442 0.047212
vn -0.989471 -0.018220 0.143498
vn -0.988708 -0.042482 0.143559
vn -0.998810 0.021760 -0.043092
vn -0.958708 -0.017945 0.283761
vn -0.991180 -0.004761 0.132420
vn -0.959777 -0.002594 0.280740
vn -0.904538 0.235603 0.355296
vn -0.968780 0.209418 0.132572
vn -0.979034 0.151555 0.136021
vn -0.984344 0.149480 0.093295
vn -0.959258 0.089755 0.267830
vn -0.971435 0.236396 -0.020203
vn -0.977538 0.199530 0.067690
vn -0.966613 0.207465 0.150182
vn -0.969146 0.220099 0.110752
vn -0.944243 0.281503 0.170629
vn -0.211951 -0.156468 -0.964660
vn -0.320994 -0.157628 -0.933836
vn -0.168126 -0.119510 -0.978484
vn -0.268502 -0.116001 -0.956236
vn -0.144749 -0.096133 -0.984771
vn -0.429640 0.160222 -0.888638
vn -0.076968 -0.090335 -0.992920
vn -0.573534 -0.160588 -0.803247
vn 0.108005 -0.050203 -0.992859
vn -0.640156 -0.091800 -0.762719
vn 0.216224 -0.018830 -0.976135
vn -0.057619 0.068575 -0.995972
vn -0.773858 0.109897 -0.623737
vn -0.370434 -0.118809 -0.921201
vn -0.075167 0.352550 -0.932737
vn -0.382641 -0.077059 -0.920652
vn 0.079134 0.304331 -0.949248
vn 0.354839 -0.082308 -0.931272
vn -0.385693 -0.023774 -0.922300
vn -0.741630 -0.218238 -0.634266
vn -0.238929 -0.270363 -0.932615
vn -0.436659 -0.050905 -0.898160
vn -0.540117 0.035279 -0.840815
vn -0.210761 0.087222 -0.973601
vn -0.338969 0.073519 -0.937895
vn -0.447890 0.029908 -0.893582
vn -0.670705 0.016694 -0.741508
vn -0.718833 0.022401 -0.694784
vn -0.160924 0.109653 -0.980834
vn -0.184729 0.068484 -0.980377
vn -0.376873 0.080599 -0.922727
vn -0.456771 0.105380 -0.883297
vn -0.569994 0.052767 -0.819941
vn 0.978301 -0.053346 0.200110
vn 0.586138 -0.047884 -0.808771
vn 0.985595 0.140996 0.093356
vn 0.627674 0.042665 -0.777276
vn 0.783013 -0.258889 -0.565539
vn 0.686575 -0.040559 -0.725883
vn 0.808496 -0.030427 -0.587695
vn 0.785424 0.020661 -0.618580
vn 0.883969 0.028230 -0.466628
vn 0.598926 -0.024689 -0.800378
vn 0.968780 0.247841 -0.000214
vn 0.924131 0.148747 -0.351909
vn 0.969054 0.238624 -0.062868
vn 0.630573 -0.006867 -0.776055
vn 0.632984 -0.054506 -0.772240
vn 0.587909 0.026185 -0.808496
vn 0.664113 0.095309 -0.741508
vn 0.389386 -0.005463 -0.921049
vn 0.523820 0.035676 -0.851039
vn 0.719443 0.039430 -0.693381
vn 0.688864 -0.117679 -0.715262
vn 0.550249 -0.113834 -0.827174
vn 0.556627 -0.062563 -0.828364
vn 0.744407 0.031831 -0.666921
vn 0.814783 0.063723 -0.576189
vn 0.957396 -0.288644 -0.007385
vn 0.536912 0.007416 -0.843562
vn 0.553758 -0.033753 -0.831965
vn 0.927824 0.143193 -0.344401
vn 0.779107 0.047914 -0.625019
vn 0.658498 0.042085 -0.751366
vn 0.599628 0.043519 -0.799066
vn 0.578600 0.016022 -0.815424
vn 0.731834 -0.166936 0.660695
vn 0.805841 -0.169927 0.567186
vn 0.909543 -0.087466 0.406262
vn 0.774865 -0.125156 0.619556
vn 0.750877 -0.040193 0.659169
vn 0.760308 -0.102084 0.641438
vn 0.538499 -0.053255 0.840907
vn 0.763268 -0.119755 0.634846
vn 0.206580 0.008393 0.978362
vn 0.535630 -0.014740 0.844295
vn 0.353801 0.028871 0.934843
vn 0.338267 0.114292 0.934049
vn 0.374340 0.179174 0.909787
vn 0.848750 -0.125767 0.513596
vn 0.818232 -0.085452 0.568468
vn 0.818140 -0.218696 0.531754
vn 0.809717 -0.094333 0.579119
vn 0.563616 -0.104984 0.819330
vn 0.856563 0.187750 0.480667
vn 0.836055 -0.048524 0.546464
vn 0.803735 -0.058809 0.592029
vn 0.824549 0.055910 0.563005
vn 0.970489 0.150731 0.188116
vn 0.701193 0.109470 0.704489
vn 0.785150 0.020020 0.618946
vn 0.349925 0.175939 0.920072
vn 0.591540 0.023804 0.805902
vn 0.985443 0.163579 0.045625
vn 0.387494 0.159917 0.907865
vn 0.674123 0.059755 0.736167
vn 0.917295 0.097842 0.385968
vn 0.956023 0.237739 0.171697
vn 0.967498 0.206763 0.145482
vn -0.336039 -0.157994 0.928465
vn -0.229499 -0.157109 0.960509
vn -0.398114 -0.113559 0.910276
vn -0.285592 -0.113987 0.951537
vn -0.296396 -0.318552 0.900357
vn -0.346416 -0.071474 0.935331
vn 0.293985 -0.225745 0.928739
vn 0.258217 -0.024842 0.965758
vn 0.034791 0.237892 0.970641
vn 0.347179 0.067019 0.935392
vn -0.217750 -0.035981 0.975311
vn 0.021760 -0.094699 0.995239
vn 0.070681 0.212653 0.974548
vn -0.915220 -0.022462 0.402295
vn -0.282449 -0.083987 0.955565
vn -0.159825 0.033113 0.986572
vn -0.321635 -0.039766 0.946013
vn -0.154546 0.002350 0.987976
vn 0.069918 0.056581 0.995941
vn -0.337199 -0.061495 0.939390
vn -0.247566 -0.203497 0.947233
vn 0.016846 -0.227424 0.973632
vn 0.110416 -0.194342 0.974670
vn 0.034272 0.044618 0.998413
vn -0.789666 0.064272 0.610126
vn -0.608478 0.147008 0.779809
vn -0.053194 -0.010498 0.998505
vn 0.400403 -0.230506 0.886837
vn 0.259468 0.184729 0.947905
vn -0.265419 0.105441 0.958342
vn -0.107059 0.306589 0.945799
vn -0.310617 0.439192 0.842952
vn -0.233711 0.438887 0.867580
vn -0.268410 -0.114750 -0.956420
vn -0.399274 -0.077670 -0.913511
vn -0.449690 -0.100436 -0.887509
vn -0.582629 -0.003998 -0.812708
vn -0.649220 0.082034 -0.756127
vn -0.716849 0.007965 -0.697165
vn -0.252510 -0.181463 -0.950407
vn -0.822993 0.037080 -0.566790
vn -0.578112 -0.111576 -0.808283
vn -0.423902 -0.024415 -0.905362
vn -0.853298 -0.013764 -0.521195
vn -0.623554 -0.181951 -0.760277
vn -0.590808 -0.002319 -0.806787
vn -0.610004 -0.016968 -0.792199
vn -0.725547 -0.160619 -0.669149
vn -0.850154 -0.252419 -0.462020
vn -0.764733 -0.001068 -0.644337
vn -0.821467 0.140599 -0.552599
vn -0.907346 0.044313 -0.418012
vn -0.954619 -0.117252 -0.273721
vn -0.941496 -0.188482 -0.279275
vn -0.819239 0.062838 -0.569964
vn -0.878719 -0.009369 -0.477187
vn -0.919309 0.142979 -0.366588
vn -0.953337 0.056063 -0.296548
vn -0.963530 -0.093844 -0.250496
vn -0.994598 -0.103427 0.005554
vn 0.605914 -0.074526 -0.792016
vn 0.610523 -0.010895 -0.791894
vn 0.695822 0.046663 -0.716666
vn 0.635304 0.072329 -0.768822
vn 0.584796 -0.043550 -0.809992
vn 0.501846 -0.010987 -0.864864
vn 0.683767 -0.607349 -0.404401
vn 0.544084 -0.105441 -0.832362
vn 0.455214 -0.307260 -0.835658
vn 0.604450 -0.102817 -0.789972
vn 0.398480 -0.153111 -0.904263
vn 0.218024 -0.272103 -0.937223
vn 0.370312 -0.082522 -0.925199
vn 0.255623 -0.182348 -0.949400
vn 0.207526 -0.186285 -0.960295
vn -0.031129 -0.290323 -0.956389
vn 0.494217 0.070467 -0.866451
vn -0.016663 -0.035249 -0.999237
vn 0.036195 -0.067690 -0.997040
vn -0.683859 -0.219611 -0.695730
vn -0.241493 -0.381268 -0.892331
vn 0.417035 -0.047395 -0.907620
vn 0.167882 -0.024506 -0.985473
vn -0.073244 -0.101779 -0.992096
vn -0.130772 -0.047334 -0.990265
vn -0.673971 -0.044435 -0.737388
vn -0.176244 -0.208045 -0.962096
vn 0.869350 -0.184210 0.458510
vn 0.905087 -0.137150 0.402478
vn 0.906735 -0.223426 0.357555
vn 0.992889 -0.108036 -0.049715
vn 0.956053 0.054353 0.288034
vn 0.969115 0.243690 0.037538
vn 0.877316 -0.239387 0.415937
vn 0.745170 -0.165807 0.645894
vn 0.760460 -0.568896 0.313028
vn 0.904141 -0.041841 0.425153
vn 0.937895 -0.160619 0.307413
vn 0.840205 -0.511032 0.181188
vn 0.956969 -0.108371 0.269082
vn 0.996643 0.013703 0.080508
vn 0.946013 -0.156041 -0.284036
vn 0.920408 -0.319193 -0.225654
vn 0.995849 -0.084597 0.033113
vn 0.996399 -0.073916 -0.041322
vn 0.848048 -0.063723 -0.526017
vn 0.922849 0.004547 -0.385052
vn 0.842006 -0.338145 -0.420270
vn 0.997772 0.065889 -0.008789
vn 0.979492 -0.087466 -0.181402
vn 0.862117 -0.220252 -0.456313
vn 0.996673 -0.079562 -0.017151
vn 0.721427 0.215552 0.658071
vn 0.729514 -0.375683 -0.571490
vn -0.319407 -0.240486 0.916562
vn -0.864834 -0.007019 0.501968
vn 0.113132 0.003082 0.993561
vn 0.172765 0.069704 0.982482
vn 0.283151 -0.106021 0.953185
vn 0.622578 -0.089297 0.777398
vn -0.138981 -0.185278 0.972777
vn 0.107578 -0.112186 0.987823
vn 0.269356 -0.264229 0.926054
vn 0.183294 -0.116764 0.976074
vn 0.192328 -0.182287 0.964232
vn 0.261177 -0.250801 0.932127
vn 0.201086 -0.022584 0.979308
vn 0.267617 -0.116642 0.956420
vn 0.386364 -0.183050 0.903958
vn 0.511307 -0.231086 0.827693
vn 0.237403 0.069765 0.968871
vn 0.325388 -0.033113 0.944975
vn 0.289132 -0.134709 0.947752
vn 0.590411 -0.262795 0.763085
vn 0.703085 -0.208533 0.679830
vn 0.275796 0.017029 0.961058
vn 0.336375 0.056551 0.940001
vn 0.509293 0.009339 0.860530
vn 0.781182 -0.206885 0.588977
vn 0.770226 -0.308451 0.558153
vn 0.718772 -0.213630 0.661580
vn -0.964629 -0.179937 0.192450
vn -0.950713 -0.140019 0.276589
vn -0.952971 -0.137394 0.270028
vn -0.894101 -0.214911 0.392865
vn -0.755882 0.023865 0.654225
vn -0.412641 -0.017151 0.910703
vn -0.934263 -0.284860 0.214393
vn -0.941740 -0.202734 0.268288
vn -0.902097 -0.282479 0.326182
vn -0.892087 -0.141118 0.429182
vn -0.809503 -0.192907 0.554460
vn -0.687277 -0.253609 0.680654
vn -0.821467 -0.305673 0.481338
vn -0.808344 -0.149205 0.569475
vn -0.634266 -0.225379 0.739494
vn -0.834895 -0.241005 0.494797
vn -0.715934 -0.280313 0.639393
vn -0.624378 -0.370128 0.687826
vn -0.569445 -0.083651 0.817743
vn -0.615192 -0.100742 0.781884
vn -0.516800 -0.471755 0.714347
vn -0.578600 0.034700 0.814844
vn -0.549974 -0.361858 0.752678
vn -0.451216 -0.394482 0.800470
vn -0.356853 -0.121250 0.926237
vn -0.410657 -0.073122 0.908841
vn -0.081210 -0.138737 0.986969
vn -0.262825 -0.948759 -0.175359
vn -0.184118 -0.978759 0.090091
vn -0.481643 -0.872951 0.076937
vn -0.108188 -0.950468 0.291330
vn -0.021455 -0.955504 0.294168
vn -0.440046 -0.833186 -0.334788
vn -0.100436 -0.967132 0.233497
vn -0.622303 -0.475692 -0.621601
vn -0.705954 -0.582385 -0.402997
vn -0.355327 -0.280404 -0.891659
vn -0.440657 -0.525895 -0.727470
vn -0.258278 -0.248787 -0.933470
vn -0.284433 -0.297922 -0.911191
vn -0.203955 -0.253243 -0.945647
vn 0.052065 -0.883053 0.466323
vn -0.137822 -0.919248 0.368664
vn -0.300302 -0.826777 0.475631
vn -0.817438 -0.452376 -0.356517
vn -0.978973 -0.029328 0.201788
vn -0.884274 -0.208625 -0.417737
vn -0.761010 -0.507004 -0.404645
vn -0.955901 -0.217994 -0.196661
vn -0.784387 -0.507126 -0.357097
vn -0.896573 -0.385174 -0.218543
vn -0.553911 -0.536363 -0.636738
vn -0.730918 -0.654408 -0.193487
vn -0.614978 -0.768639 -0.175878
vn -0.690603 -0.716849 0.095431
vn -0.750450 -0.605884 0.263985
vn -0.277413 -0.327891 -0.903043
vn -0.542436 -0.532579 -0.649678
vn -0.679586 -0.623402 -0.386608
vn -0.783593 -0.612690 -0.102664
vn -0.811457 -0.580950 0.063082
vn 0.288339 -0.925871 -0.244087
vn 0.553545 -0.685171 -0.473373
vn 0.420881 -0.904538 -0.067873
vn 0.657308 -0.739097 -0.147069
vn 0.551408 -0.833766 0.027345
vn 0.904843 0.164678 -0.392560
vn 0.670003 -0.730674 -0.130955
vn 0.721335 -0.255104 -0.643849
vn 0.998779 -0.037873 -0.031190
vn 0.496231 -0.549669 -0.671987
vn 0.902554 -0.328562 0.278237
vn 0.751732 -0.643971 0.142003
vn 0.234291 -0.972137 -0.003143
vn 0.587085 -0.698080 -0.409864
vn -0.010102 -0.572283 -0.819971
vn 0.872402 -0.159856 -0.461837
vn 0.328166 -0.407788 -0.852046
vn -0.266976 -0.442183 -0.856258
vn 0.924253 -0.361583 0.122288
vn 0.393628 -0.355815 -0.847591
vn 0.093356 -0.266884 -0.959166
vn -0.188849 -0.210822 -0.959075
vn 0.902341 -0.394086 0.174413
vn 0.444319 -0.407636 -0.797723
vn 0.162938 -0.336711 -0.927396
vn -0.140599 -0.233711 -0.962066
vn -0.176153 -0.248451 -0.952452
vn 0.116703 -0.983856 0.135502
vn 0.398267 -0.872616 0.282601
vn 0.474532 -0.856319 -0.203711
vn 0.540544 -0.737907 0.404035
vn 0.643330 -0.764306 -0.043886
vn 0.742241 -0.661428 0.107303
vn 0.714164 -0.683432 0.151250
vn 0.871059 -0.309397 0.381420
vn 0.780755 -0.509140 0.362133
vn 0.797815 -0.247536 0.549699
vn 0.818262 -0.275002 0.504746
vn 0.822748 -0.268777 0.500778
vn 0.619922 -0.672079 -0.404889
vn 0.698782 -0.659230 -0.277627
vn 0.757653 -0.414441 -0.504166
vn 0.892819 -0.405927 -0.195105
vn 0.910245 -0.245705 -0.333201
vn 0.850581 0.130985 -0.509232
vn 0.939268 -0.221900 -0.261757
vn 0.991272 -0.039583 0.125584
vn 0.869778 -0.491775 0.040162
vn 0.440931 -0.538102 -0.718314
vn 0.912412 -0.354686 -0.204016
vn 0.828944 -0.540605 -0.143315
vn 0.835994 -0.213752 0.505356
vn 0.658101 -0.440992 -0.610218
vn 0.528428 -0.604297 -0.596271
vn -0.338298 -0.907468 0.249031
vn -0.370098 -0.854122 0.365307
vn -0.029481 -0.938444 0.344096
vn -0.118656 -0.857204 0.501083
vn -0.083590 -0.807062 0.584460
vn 0.292581 -0.500381 0.814844
vn -0.060823 -0.642781 0.763604
vn 0.278664 -0.344005 0.896634
vn -0.069674 -0.483902 0.872311
vn 0.085452 -0.127506 0.988128
vn -0.168279 -0.336131 0.926633
vn -0.319346 -0.326304 0.889645
vn 0.320872 -0.783990 0.531388
vn 0.213843 -0.648427 0.730583
vn 0.185400 -0.896237 0.402936
vn 0.127201 -0.513718 0.848445
vn -0.059053 -0.455031 0.888485
vn 0.184179 -0.880367 0.437025
vn 0.062410 -0.400586 0.914090
vn 0.245888 -0.414350 0.876247
vn 0.366131 -0.271187 0.890133
vn 0.719108 -0.221503 0.658620
vn -0.027741 -0.353862 0.934874
vn 0.172582 -0.322092 0.930815
vn 0.352947 -0.325694 0.877102
vn 0.618061 -0.270211 0.738182
vn 0.750969 -0.229926 0.618976
vn -0.454909 -0.864101 0.215278
vn -0.017426 -0.933836 0.357189
vn -0.711997 -0.700888 -0.041932
vn -0.977508 0.183416 0.104007
vn -0.918638 -0.389996 0.063082
vn -0.800501 -0.450240 0.395550
vn -0.285073 -0.942289 0.175359
vn -0.481826 -0.868770 0.114261
vn 0.052278 -0.814295 0.578051
vn -0.909238 -0.413190 0.049959
vn -0.633137 -0.617542 0.466628
vn 0.071413 -0.492477 0.867367
vn -0.948729 0.156957 0.274331
vn -0.940703 0.094363 0.325785
vn -0.683889 0.036287 0.728660
vn -0.099765 0.242988 0.964873
vn -0.897671 -0.429884 0.096652
vn -0.954802 -0.237892 0.178045
vn -0.668996 0.288278 0.685049
vn -0.775780 0.054506 0.628590
vn -0.061830 -0.103977 0.992645
usemtl mat2
s 1
f 1//1 3//2 2//3
f 4//4 6//5 5//6
f 1//1 7//7 3//2
f 1//1 8//8 7//7
f 1//1 9//9 8//8
f 4//4 10//10 6//5
f 11//11 13//12 12//13
f 14//14 16//15 15//16
f 17//17 19//18 18//19
f 20//20 22//21 21//22
f 4//4 23//23 10//10
f 11//11 24//24 13//12
f 14//14 25//25 16//15
f 17//17 26//26 19//18
f 20//20 27//27 22//21
f 28//28 30//29 29//30
f 31//31 33//32 32//33
f 34//34 36//35 35//36
f 37//37 39//38 38//39
f 40//40 42//41 41//42
f 43//43 11//11 12//13
f 44//44 43//43 45//45
f 46//46 44//44 47//47
f 48//48 46//46 49//49
f 50//50 48//48 51//51
f 52//52 50//50 53//53
f 3//2 52//52 54//54
f 43//43 12//13 45//45
f 45//45 12//13 55//55
f 44//44 45//45 47//47
f 47//47 45//45 56//56
f 45//45 55//55 56//56
f 56//56 55//55 57//57
f 46//46 47//47 49//49
f 49//49 47//47 58//58
f 47//47 56//56 58//58
f 58//58 56//56 59//59
f 56//56 57//57 59//59
f 59//59 57//57 60//60
f 48//48 49//49 51//51
f 51//51 49//49 61//61
f 49//49 58//58 61//61
f 61//61 58//58 62//62
f 58//58 59//59 62//62
f 62//62 59//59 63//63
f 59//59 60//60 63//63
f 63//63 60//60 64//64
f 50//50 51//51 53//53
f 53//53 51//51 65//65
f 51//51 61//61 65//65
f 65//65 61//61 66//66
f 61//61 62//62 66//66
f 66//66 62//62 67//67
f 62//62 63//63 67//67
f 67//67 63//63 68//68
f 63//63 64//64 68//68
f 68//68 64//64 69//69
f 52//52 53//53 54//54
f 54//54 53//53 70//70
f 53//53 65//65 70//70
f 70//70 65//65 71//71
f 65//65 66//66 71//71
f 71//71 66//66 72//72
f 66//66 67//67 72//72
f 72//72 67//67 73//73
f 67//67 68//68 73//73
f 73//73 68//68 74//74
f 68//68 69//69 74//74
f 74//74 69//69 75//75
f 3//2 54//54 2//3
f 2//3 54//54 76//76
f 54//54 70//70 76//76
f 76//76 70//70 77//77
f 70//70 71//71 77//77
f 77//77 71//71 78//78
f 71//71 72//72 78//78
f 78//78 72//72 79//79
f 72//72 73//73 79//79
f 79//79 73//73 80//80
f 73//73 74//74 80//80
f 80//80 74//74 5//6
f 74//74 75//75 5//6
f 5//6 75//75 4//4
f 81//81 20//20 82//82
f 83//83 81//81 84//84
f 85//85 83//83 86//86
f 87//87 85//85 88//88
f 89//89 87//87 90//90
f 91//91 89//89 92//92
f 6//5 91//91 93//93
f 81//81 82//82 84//84
f 84//84 82//82 94//94
f 83//83 84//84 86//86
f 86//86 84//84 95//95
f 84//84 94//94 95//95
f 95//95 94//94 96//96
f 85//85 86//86 88//88
f 88//88 86//86 97//97
f 86//86 95//95 97//97
f 97//97 95//95 98//98
f 95//95 96//96 98//98
f 98//98 96//96 99//99
f 87//87 88//88 90//90
f 90//90 88//88 100//100
f 88//88 97//97 100//100
f 100//100 97//97 101//101
f 97//97 98//98 101//101
f 101//101 98//98 102//102
f 98//98 99//99 102//102
f 102//102 99//99 103//103
f 89//89 90//90 92//92
f 92//92 90//90 104//104
f 90//90 100//100 104//104
f 104//104 100//100 105//105
f 100//100 101//101 105//105
f 105//105 101//101 106//106
f 101//101 102//102 106//106
f 106//106 102//102 107//107
f 102//102 103//103 107//107
f 107//107 103//103 108//108
f 91//91 92//92 93//93
f 93//93 92//92 109//109
f 92//92 104//104 109//109
f 109//109 104//104 110//110
f 104//104 105//105 110//110
f 110//110 105//105 111//111
f 105//105 106//106 111//111
f 111//111 106//106 112//112
f 106//106 107//107 112//112
f 112//112 107//107 113//113
f 107//107 108//108 113//113
f 113//113 108//108 9//9
f 6//5 93//93 5//6
f 5//6 93//93 80//80
f 93//93 109//109 80//80
f 80//80 109//109 79//79
f 109//109 110//110 79//79
f 79//79 110//110 78//78
f 110//110 111//111 78//78
f 78//78 111//111 77//77
f 111//111 112//112 77//77
f 77//77 112//112 76//76
f 112//112 113//113 76//76
f 76//76 113//113 2//3
f 113//113 9//9 2//3
f 9//9 1//1 2//3
f 114//114 14//14 15//16
f 115//115 114//114 116//116
f 117//117 115//115 118//118
f 119//119 117//117 120//120
f 121//121 119//119 122//122
f 123//123 121//121 124//124
f 7//7 123//123 125//125
f 114//114 15//16 116//116
f 116//116 15//16 126//126
f 115//115 116//116 118//118
f 118//118 116//116 127//127
f 116//116 126//126 127//127
f 127//127 126//126 128//128
f 117//117 118//118 120//120
f 120//120 118//118 129//129
f 118//118 127//127 129//129
f 129//129 127//127 130//130
f 127//127 128//128 130//130
f 130//130 128//128 131//131
f 119//119 120//120 122//122
f 122//122 120//120 132//132
f 120//120 129//129 132//132
f 132//132 129//129 133//133
f 129//129 130//130 133//133
f 133//133 130//130 134//134
f 130//130 131//131 134//134
f 134//134 131//131 135//135
f 121//121 122//122 124//124
f 124//124 122//122 136//136
f 122//122 132//132 136//136
f 136//136 132//132 137//137
f 132//132 133//133 137//137
f 137//137 133//133 138//138
f 133//133 134//134 138//138
f 138//138 134//134 139//139
f 134//134 135//135 139//139
f 139//139 135//135 140//140
f 123//123 124//124 125//125
f 125//125 124//124 141//141
f 124//124 136//136 141//141
f 141//141 136//136 142//142
f 136//136 137//137 142//142
f 142//142 137//137 143//143
f 137//137 138//138 143//143
f 143//143 138//138 144//144
f 138//138 139//139 144//144
f 144//144 139//139 145//145
f 139//139 140//140 145//145
f 145//145 140//140 146//146
f 7//7 125//125 3//2
f 3//2 125//125 52//52
f 125//125 141//141 52//52
f 52//52 141//141 50//50
f 141//141 142//142 50//50
f 50//50 142//142 48//48
f 142//142 143//143 48//48
f 48//48 143//143 46//46
f 143//143 144//144 46//46
f 46//46 144//144 44//44
f 144//144 145//145 44//44
f 44//44 145//145 43//43
f 145//145 146//146 43//43
f 43//43 146//146 11//11
f 147//147 17//17 18//19
f 148//148 147//147 149//149
f 150//150 148//148 151//151
f 152//152 150//150 153//153
f 154//154 152//152 155//155
f 156//156 154//154 157//157
f 8//8 156//156 158//158
f 147//147 18//19 149//149
f 149//149 18//19 159//159
f 148//148 149//149 151//151
f 151//151 149//149 160//160
f 149//149 159//159 160//160
f 160//160 159//159 161//161
f 150//150 151//151 153//153
f 153//153 151//151 162//162
f 151//151 160//160 162//162
f 162//162 160//160 163//163
f 160//160 161//161 163//163
f 163//163 161//161 164//164
f 152//152 153//153 155//155
f 155//155 153//153 165//165
f 153//153 162//162 165//165
f 165//165 162//162 166//166
f 162//162 163//163 166//166
f 166//166 163//163 167//167
f 163//163 164//164 167//167
f 167//167 164//164 168//168
f 154//154 155//155 157//157
f 157//157 155//155 169//169
f 155//155 165//165 169//169
f 169//169 165//165 170//170
f 165//165 166//166 170//170
f 170//170 166//166 171//171
f 166//166 167//167 171//171
f 171//171 167//167 172//172
f 167//167 168//168 172//172
f 172//172 168//168 173//173
f 156//156 157//157 158//158
f 158//158 157//157 174//174
f 157//157 169//169 174//174
f 174//174 169//169 175//175
f 169//169 170//170 175//175
f 175//175 170//170 176//176
f 170//170 171//171 176//176
f 176//176 171//171 177//177
f 171//171 172//172 177//177
f 177//177 172//172 178//178
f 172//172 173//173 178//178
f 178//178 173//173 179//179
f 8//8 158//158 7//7
f 7//7 158//158 123//123
f 158//158 174//174 123//123
f 123//123 174//174 121//121
f 174//174 175//175 121//121
f 121//121 175//175 119//119
f 175//175 176//176 119//119
f 119//119 176//176 117//117
f 176//176 177//177 117//117
f 117//117 177//177 115//115
f 177//177 178//178 115//115
f 115//115 178//178 114//114
f 178//178 179//179 114//114
f 114//114 179//179 14//14
f 82//82 20//20 21//22
f 94//94 82//82 180//180
f 96//96 94//94 181//181
f 99//99 96//96 182//182
f 103//103 99//99 183//183
f 108//108 103//103 184//184
f 9//9 108//108 185//185
f 82//82 21//22 180//180
f 180//180 21//22 186//186
f 94//94 180//180 181//181
f 181//181 180//180 187//187
f 180//180 186//186 187//187
f 187//187 186//186 188//188
f 96//96 181//181 182//182
f 182//182 181//181 189//189
f 181//181 187//187 189//189
f 189//189 187//187 190//190
f 187//187 188//188 190//190
f 190//190 188//188 191//191
f 99//99 182//182 183//183
f 183//183 182//182 192//192
f 182//182 189//189 192//192
f 192//192 189//189 193//193
f 189//189 190//190 193//193
f 193//193 190//190 194//194
f 190//190 191//191 194//194
f 194//194 191//191 195//195
f 103//103 183//183 184//184
f 184//184 183//183 196//196
f 183//183 192//192 196//196
f 196//196 192//192 197//197
f 192//192 193//193 197//197
f 197//197 193//193 198//198
f 193//193 194//194 198//198
f 198//198 194//194 199//199
f 194//194 195//195 199//199
f 199//199 195//195 200//200
f 108//108 184//184 185//185
f 185//185 184//184 201//201
f 184//184 196//196 201//201
f 201//201 196//196 202//202
f 196//196 197//197 202//202
f 202//202 197//197 203//203
f 197//197 198//198 203//203
f 203//203 198//198 204//204
f 198//198 199//199 204//204
f 204//204 199//199 205//205
f 199//199 200//200 205//205
f 205//205 200//200 206//206
f 9//9 185//185 8//8
f 8//8 185//185 156//156
f 185//185 201//201 156//156
f 156//156 201//201 154//154
f 201//201 202//202 154//154
f 154//154 202//202 152//152
f 202//202 203//203 152//152
f 152//152 203//203 150//150
f 203//203 204//204 150//150
f 150//150 204//204 148//148
f 204//204 205//205 148//148
f 148//148 205//205 147//147
f 205//205 206//206 147//147
f 147//147 206//206 17//17
f 207//207 40//40 208//208
f 209//209 207//207 210//210
f 211//211 209//209 212//212
f 213//213 211//211 214//214
f 215//215 213//213 216//216
f 217//217 215//215 218//218
f 10//10 217//217 219//219
f 207//207 208//208 210//210
f 210//210 208//208 220//220
f 209//209 210//210 212//212
f 212//212 210//210 221//221
f 210//210 220//220 221//221
f 221//221 220//220 222//222
f 211//211 212//212 214//214
f 214//214 212//212 223//223
f 212//212 221//221 223//223
f 223//223 221//221 224//224
f 221//221 222//222 224//224
f 224//224 222//222 225//225
f 213//213 214//214 216//216
f 216//216 214//214 226//226
f 214//214 223//223 226//226
f 226//226 223//223 227//227
f 223//223 224//224 227//227
f 227//227 224//224 228//228
f 224//224 225//225 228//228
f 228//228 225//225 229//229
f 215//215 216//216 218//218
f 218//218 216//216 230//230
f 216//216 226//226 230//230
f 230//230 226//226 231//231
f 226//226 227//227 231//231
f 231//231 227//227 232//232
f 227//227 228//228 232//232
f 232//232 228//228 233//233
f 228//228 229//229 233//233
f 233//233 229//229 234//234
f 217//217 218//218 219//219
f 219//219 218//218 235//235
f 218//218 230//230 235//235
f 235//235 230//230 236//236
f 230//230 231//231 236//236
f 236//236 231//231 237//237
f 231//231 232//232 237//237
f 237//237 232//232 238//238
f 232//232 233//233 238//238
f 238//238 233//233 239//239
f 233//233 234//234 239//239
f 239//239 234//234 27//27
f 10//10 219//219 6//5
f 6//5 219//219 91//91
f 219//219 235//235 91//91
f 91//91 235//235 89//89
f 235//235 236//236 89//89
f 89//89 236//236 87//87
f 236//236 237//237 87//87
f 87//87 237//237 85//85
f 237//237 238//238 85//85
f 85//85 238//238 83//83
f 238//238 239//239 83//83
f 83//83 239//239 81//81
f 239//239 27//27 81//81
f 81//81 27//27 20//20
f 240//240 28//28 241//241
f 242//242 240//240 243//243
f 244//244 242//242 245//245
f 246//246 244//244 247//247
f 248//248 246//246 249//249
f 250//250 248//248 251//251
f 13//12 250//250 252//252
f 240//240 241//241 243//243
f 243//243 241//241 253//253
f 242//242 243//243 245//245
f 245//245 243//243 254//254
f 243//243 253//253 254//254
f 254//254 253//253 255//255
f 244//244 245//245 247//247
f 247//247 245//245 256//256
f 245//245 254//254 256//256
f 256//256 254//254 257//257
f 254//254 255//255 257//257
f 257//257 255//255 258//258
f 246//246 247//247 249//249
f 249//249 247//247 259//259
f 247//247 256//256 259//259
f 259//259 256//256 260//260
f 256//256 257//257 260//260
f 260//260 257//257 261//261
f 257//257 258//258 261//261
f 261//261 258//258 262//262
f 248//248 249//249 251//251
f 251//251 249//249 263//263
f 249//249 259//259 263//263
f 263//263 259//259 264//264
f 259//259 260//260 264//264
f 264//264 260//260 265//265
f 260//260 261//261 265//265
f 265//265 261//261 266//266
f 261//261 262//262 266//266
f 266//266 262//262 267//267
f 250//250 251//251 252//252
f 252//252 251//251 268//268
f 251//251 263//263 268//268
f 268//268 263//263 269//269
f 263//263 264//264 269//269
f 269//269 264//264 270//270
f 264//264 265//265 270//270
f 270//270 265//265 271//271
f 265//265 266//266 271//271
f 271//271 266//266 272//272
f 266//266 267//267 272//272
f 272//272 267//267 23//23
f 13//12 252//252 12//13
f 12//13 252//252 55//55
f 252//252 268//268 55//55
f 55//55 268//268 57//57
f 268//268 269//269 57//57
f 57//57 269//269 60//60
f 269//269 270//270 60//60
f 60//60 270//270 64//64
f 270//270 271//271 64//64
f 64//64 271//271 69//69
f 271//271 272//272 69//69
f 69//69 272//272 75//75
f 272//272 23//23 75//75
f 75//75 23//23 4//4
f 273//273 31//31 274//274
f 275//275 273//273 276//276
f 277//277 275//275 278//278
f 279//279 277//277 280//280
f 281//281 279//279 282//282
f 283//283 281//281 284//284
f 16//15 283//283 285//285
f 273//273 274//274 276//276
f 276//276 274//274 286//286
f 275//275 276//276 278//278
f 278//278 276//276 287//287
f 276//276 286//286 287//287
f 287//287 286//286 288//288
f 277//277 278//278 280//280
f 280//280 278//278 289//289
f 278//278 287//287 289//289
f 289//289 287//287 290//290
f 287//287 288//288 290//290
f 290//290 288//288 291//291
f 279//279 280//280 282//282
f 282//282 280//280 292//292
f 280//280 289//289 292//292
f 292//292 289//289 293//293
f 289//289 290//290 293//293
f 293//293 290//290 294//294
f 290//290 291//291 294//294
f 294//294 291//291 295//295
f 281//281 282//282 284//284
f 284//284 282//282 296//296
f 282//282 292//292 296//296
f 296//296 292//292 297//297
f 292//292 293//293 297//297
f 297//297 293//293 298//298
f 293//293 294//294 298//298
f 298//298 294//294 299//299
f 294//294 295//295 299//299
f 299//299 295//295 300//300
f 283//283 284//284 285//285
f 285//285 284//284 301//301
f 284//284 296//296 301//301
f 301//301 296//296 302//302
f 296//296 297//297 302//302
f 302//302 297//297 303//303
f 297//297 298//298 303//303
f 303//303 298//298 304//304
f 298//298 299//299 304//304
f 304//304 299//299 305//305
f 299//299 300//300 305//305
f 305//305 300//300 24//24
f 16//15 285//285 15//16
f 15//16 285//285 126//126
f 285//285 301//301 126//126
f 126//126 301//301 128//128
f 301//301 302//302 128//128
f 128//128 302//302 131//131
f 302//302 303//303 131//131
f 131//131 303//303 135//135
f 303//303 304//304 135//135
f 135//135 304//304 140//140
f 304//304 305//305 140//140
f 140//140 305//305 146//146
f 305//305 24//24 146//146
f 146//146 24//24 11//11
f 306//306 34//34 307//307
f 308//308 306//306 309//309
f 310//310 308//308 311//311
f 312//312 310//310 313//313
f 314//314 312//312 315//315
f 316//316 314//314 317//317
f 19//18 316//316 318//318
f 306//306 307//307 309//309
f 309//309 307//307 319//319
f 308//308 309//309 311//311
f 311//311 309//309 320//320
f 309//309 319//319 320//320
f 320//320 319//319 321//321
f 310//310 311//311 313//313
f 313//313 311//311 322//322
f 311//311 320//320 322//322
f 322//322 320//320 323//323
f 320//320 321//321 323//323
f 323//323 321//321 324//324
f 312//312 313//313 315//315
f 315//315 313//313 325//325
f 313//313 322//322 325//325
f 325//325 322//322 326//326
f 322//322 323//323 326//326
f 326//326 323//323 327//327
f 323//323 324//324 327//327
f 327//327 324//324 328//328
f 314//314 315//315 317//317
f 317//317 315//315 329//329
f 315//315 325//325 329//329
f 329//329 325//325 330//330
f 325//325 326//326 330//330
f 330//330 326//326 331//331
f 326//326 327//327 331//331
f 331//331 327//327 332//332
f 327//327 328//328 332//332
f 332//332 328//328 333//333
f 316//316 317//317 318//318
f 318//318 317//317 334//334
f 317//317 329//329 334//334
f 334//334 329//329 335//335
f 329//329 330//330 335//335
f 335//335 330//330 336//336
f 330//330 331//331 336//336
f 336//336 331//331 337//337
f 331//331 332//332 337//337
f 337//337 332//332 338//338
f 332//332 333//333 338//338
f 338//338 333//333 25//25
f 19//18 318//318 18//19
f 18//19 318//318 159//159
f 318//318 334//334 159//159
f 159//159 334//334 161//161
f 334//334 335//335 161//161
f 161//161 335//335 164//164
f 335//335 336//336 164//164
f 164//164 336//336 168//168
f 336//336 337//337 168//168
f 168//168 337//337 173//173
f 337//337 338//338 173//173
f 173//173 338//338 179//179
f 338//338 25//25 179//179
f 179//179 25//25 14//14
f 339//339 37//37 340//340
f 341//341 339//339 342//342
f 343//343 341//341 344//344
f 345//345 343//343 346//346
f 347//347 345//345 348//348
f 349//349 347//347 350//350
f 22//21 349//349 351//351
f 339//339 340//340 342//342
f 342//342 340//340 352//352
f 341//341 342//342 344//344
f 344//344 342//342 353//353
f 342//342 352//352 353//353
f 353//353 352//352 354//354
f 343//343 344//344 346//346
f 346//346 344//344 355//355
f 344//344 353//353 355//355
f 355//355 353//353 356//356
f 353//353 354//354 356//356
f 356//356 354//354 357//357
f 345//345 346//346 348//348
f 348//348 346//346 358//358
f 346//346 355//355 358//358
f 358//358 355//355 359//359
f 355//355 356//356 359//359
f 359//359 356//356 360//360
f 356//356 357//357 360//360
f 360//360 357//357 361//361
f 347//347 348//348 350//350
f 350//350 348//348 362//362
f 348//348 358//358 362//362
f 362//362 358//358 363//363
f 358//358 359//359 363//363
f 363//363 359//359 364//364
f 359//359 360//360 364//364
f 364//364 360//360 365//365
f 360//360 361//361 365//365
f 365//365 361//361 366//366
f 349//349 350//350 351//351
f 351//351 350//350 367//367
f 350//350 362//362 367//367
f 367//367 362//362 368//368
f 362//362 363//363 368//368
f 368//368 363//363 369//369
f 363//363 364//364 369//369
f 369//369 364//364 370//370
f 364//364 365//365 370//370
f 370//370 365//365 371//371
f 365//365 366//366 371//371
f 371//371 366//366 26//26
f 22//21 351//351 21//22
f 21//22 351//351 186//186
f 351//351 367//367 186//186
f 186//186 367//367 188//188
f 367//367 368//368 188//188
f 188//188 368//368 191//191
f 368//368 369//369 191//191
f 191//191 369//369 195//195
f 369//369 370//370 195//195
f 195//195 370//370 200//200
f 370//370 371//371 200//200
f 200//200 371//371 206//206
f 371//371 26//26 206//206
f 206//206 26//26 17//17
f 241//241 28//28 29//30
f 253//253 241//241 372//372
f 255//255 253//253 373//373
f 258//258 255//255 374//374
f 262//262 258//258 375//375
f 267//267 262//262 376//376
f 23//23 267//267 377//377
f 241//241 29//30 372//372
f 372//372 29//30 378//378
f 253//253 372//372 373//373
f 373//373 372//372 379//379
f 372//372 378//378 379//379
f 379//379 378//378 380//380
f 255//255 373//373 374//374
f 374//374 373//373 381//381
f 373//373 379//379 381//381
f 381//381 379//379 382//382
f 379//379 380//380 382//382
f 382//382 380//380 383//383
f 258//258 374//374 375//375
f 375//375 374//374 384//384
f 374//374 381//381 384//384
f 384//384 381//381 385//385
f 381//381 382//382 385//385
f 385//385 382//382 386//386
f 382//382 383//383 386//386
f 386//386 383//383 387//387
f 262//262 375//375 376//376
f 376//376 375//375 388//388
f 375//375 384//384 388//388
f 388//388 384//384 389//389
f 384//384 385//385 389//389
f 389//389 385//385 390//390
f 385//385 386//386 390//390
f 390//390 386//386 391//391
f 386//386 387//387 391//391
f 391//391 387//387 392//392
f 267//267 376//376 377//377
f 377//377 376//376 393//393
f 376//376 388//388 393//393
f 393//393 388//388 394//394
f 388//388 389//389 394//394
f 394//394 389//389 395//395
f 389//389 390//390 395//395
f 395//395 390//390 396//396
f 390//390 391//391 396//396
f 396//396 391//391 397//397
f 391//391 392//392 397//397
f 397//397 392//392 398//398
f 23//23 377//377 10//10
f 10//10 377//377 217//217
f 377//377 393//393 217//217
f 217//217 393//393 215//215
f 393//393 394//394 215//215
f 215//215 394//394 213//213
f 394//394 395//395 213//213
f 213//213 395//395 211//211
f 395//395 396//396 211//211
f 211//211 396//396 209//209
f 396//396 397//397 209//209
f 209//209 397//397 207//207
f 397//397 398//398 207//207
f 207//207 398//398 40//40
f 274//274 31//31 32//33
f 286//286 274//274 399//399
f 288//288 286//286 400//400
f 291//291 288//288 401//401
f 295//295 291//291 402//402
f 300//300 295//295 403//403
f 24//24 300//300 404//404
f 274//274 32//33 399//399
f 399//399 32//33 405//405
f 286//286 399//399 400//400
f 400//400 399//399 406//406
f 399//399 405//405 406//406
f 406//406 405//405 407//407
f 288//288 400//400 401//401
f 401//401 400//400 408//408
f 400//400 406//406 408//408
f 408//408 406//406 409//409
f 406//406 407//407 409//409
f 409//409 407//407 410//410
f 291//291 401//401 402//402
f 402//402 401//401 411//411
f 401//401 408//408 411//411
f 411//411 408//408 412//412
f 408//408 409//409 412//412
f 412//412 409//409 413//413
f 409//409 410//410 413//413
f 413//413 410//410 414//414
f 295//295 402//402 403//403
f 403//403 402//402 415//415
f 402//402 411//411 415//415
f 415//415 411//411 416//416
f 411//411 412//412 416//416
f 416//416 412//412 417//417
f 412//412 413//413 417//417
f 417//417 413//413 418//418
f 413//413 414//414 418//418
f 418//418 414//414 419//419
f 300//300 403//403 404//404
f 404//404 403//403 420//420
f 403//403 415//415 420//420
f 420//420 415//415 421//421
f 415//415 416//416 421//421
f 421//421 416//416 422//422
f 416//416 417//417 422//422
f 422//422 417//417 423//423
f 417//417 418//418 423//423
f 423//423 418//418 424//424
f 418//418 419//419 424//424
f 424//424 419//419 425//425
f 24//24 404//404 13//12
f 13//12 404//404 250//250
f 404//404 420//420 250//250
f 250//250 420//420 248//248
f 420//420 421//421 248//248
f 248//248 421//421 246//246
f 421//421 422//422 246//246
f 246//246 422//422 244//244
f 422//422 423//423 244//244
f 244//244 423//423 242//242
f 423//423 424//424 242//242
f 242//242 424//424 240//240
f 424//424 425//425 240//240
f 240//240 425//425 28//28
f 307//307 34//34 35//36
f 319//319 307//307 426//426
f 321//321 319//319 427//427
f 324//324 321//321 428//428
f 328//328 324//324 429//429
f 333//333 328//328 430//430
f 25//25 333//333 431//431
f 307//307 35//36 426//426
f 426//426 35//36 432//432
f 319//319 426//426 427//427
f 427//427 426//426 433//433
f 426//426 432//432 433//433
f 433//433 432//432 434//434
f 321//321 427//427 428//428
f 428//428 427//427 435//435
f 427//427 433//433 435//435
f 435//435 433//433 436//436
f 433//433 434//434 436//436
f 436//436 434//434 437//437
f 324//324 428//428 429//429
f 429//429 428//428 438//438
f 428//428 435//435 438//438
f 438//438 435//435 439//439
f 435//435 436//436 439//439
f 439//439 436//436 440//440
f 436//436 437//437 440//440
f 440//440 437//437 441//441
f 328//328 429//429 430//430
f 430//430 429//429 442//442
f 429//429 438//438 442//442
f 442//442 438//438 443//443
f 438//438 439//439 443//443
f 443//443 439//439 444//444
f 439//439 440//440 444//444
f 444//444 440//440 445//445
f 440//440 441//441 445//445
f 445//445 441//441 446//446
f 333//333 430//430 431//431
f 431//431 430//430 447//447
f 430//430 442//442 447//447
f 447//447 442//442 448//448
f 442//442 443//443 448//448
f 448//448 443//443 449//449
f 443//443 444//444 449//449
f 449//449 444//444 450//450
f 444//444 445//445 450//450
f 450//450 445//445 451//451
f 445//445 446//446 451//451
f 451//451 446//446 452//452
f 25//25 431//431 16//15
f 16//15 431//431 283//283
f 431//431 447//447 283//283
f 283//283 447//447 281//281
f 447//447 448//448 281//281
f 281//281 448//448 279//279
f 448//448 449//449 279//279
f 279//279 449//449 277//277
f 449//449 450//450 277//277
f 277//277 450//450 275//275
f 450//450 451//451 275//275
f 275//275 451//451 273//273
f 451//451 452//452 273//273
f 273//273 452//452 31//31
f 340//340 37//37 38//39
f 352//352 340//340 453//453
f 354//354 352//352 454//454
f 357//357 354//354 455//455
f 361//361 357//357 456//456
f 366//366 361//361 457//457
f 26//26 366//366 458//458
f 340//340 38//39 453//453
f 453//453 38//39 459//459
f 352//352 453//453 454//454
f 454//454 453//453 460//460
f 453//453 459//459 460//460
f 460//460 459//459 461//461
f 354//354 454//454 455//455
f 455//455 454//454 462//462
f 454//454 460//460 462//462
f 462//462 460//460 463//463
f 460//460 461//461 463//463
f 463//463 461//461 464//464
f 357//357 455//455 456//456
f 456//456 455//455 465//465
f 455//455 462//462 465//465
f 465//465 462//462 466//466
f 462//462 463//463 466//466
f 466//466 463//463 467//467
f 463//463 464//464 467//467
f 467//467 464//464 468//468
f 361//361 456//456 457//457
f 457//457 456//456 469//469
f 456//456 465//465 469//469
f 469//469 465//465 470//470
f 465//465 466//466 470//470
f 470//470 466//466 471//471
f 466//466 467//467 471//471
f 471//471 467//467 472//472
f 467//467 468//468 472//472
f 472//472 468//468 473//473
f 366//366 457//457 458//458
f 458//458 457//457 474//474
f 457//457 469//469 474//474
f 474//474 469//469 475//475
f 469//469 470//470 475//475
f 475//475 470//470 476//476
f 470//470 471//471 476//476
f 476//476 471//471 477//477
f 471//471 472//472 477//477
f 477//477 472//472 478//478
f 472//472 473//473 478//478
f 478//478 473//473 479//479
f 26//26 458//458 19//18
f 19//18 458//458 316//316
f 458//458 474//474 316//316
f 316//316 474//474 314//314
f 474//474 475//475 314//314
f 314//314 475//475 312//312
f 475//475 476//476 312//312
f 312//312 476//476 310//310
f 476//476 477//477 310//310
f 310//310 477//477 308//308
f 477//477 478//478 308//308
f 308//308 478//478 306//306
f 478//478 479//479 306//306
f 306//306 479//479 34//34
f 208//208 40//40 41//42
f 220//220 208//208 480//480
f 222//222 220//220 481//481
f 225//225 222//222 482//482
f 229//229 225//225 483//483
f 234//234 229//229 484//484
f 27//27 234//234 485//485
f 208//208 41//42 480//480
f 480//480 41//42 486//486
f 220//220 480//480 481//481
f 481//481 480//480 487//487
f 480//480 486//486 487//487
f 487//487 486//486 488//488
f 222//222 481//481 482//482
f 482//482 481//481 489//489
f 481//481 487//487 489//489
f 489//489 487//487 490//490
f 487//487 488//488 490//490
f 490//490 488//488 491//491
f 225//225 482//482 483//483
f 483//483 482//482 492//492
f 482//482 489//489 492//492
f 492//492 489//489 493//493
f 489//489 490//490 493//493
f 493//493 490//490 494//494
f 490//490 491//491 494//494
f 494//494 491//491 495//495
f 229//229 483//483 484//484
f 484//484 483//483 496//496
f 483//483 492//492 496//496
f 496//496 492//492 497//497
f 492//492 493//493 497//497
f 497//497 493//493 498//498
f 493//493 494//494 498//498
f 498//498 494//494 499//499
f 494//494 495//495 499//499
f 499//499 495//495 500//500
f 234//234 484//484 485//485
f 485//485 484//484 501//501
f 484//484 496//496 501//501
f 501//501 496//496 502//502
f 496//496 497//497 502//502
f 502//502 497//497 503//503
f 497//497 498//498 503//503
f 503//503 498//498 504//504
f 498//498 499//499 504//504
f 504//504 499//499 505//505
f 499//499 500//500 505//505
f 505//505 500//500 506//506
f 27//27 485//485 22//21
f 22//21 485//485 349//349
f 485//485 501//501 349//349
f 349//349 501//501 347//347
f 501//501 502//502 347//347
f 347//347 502//502 345//345
f 502//502 503//503 345//345
f 345//345 503//503 343//343
f 503//503 504//504 343//343
f 343//343 504//504 341//341
f 504//504 505//505 341//341
f 341//341 505//505 339//339
f 505//505 506//506 339//339
f 339//339 506//506 37//37
f 507//507 509//508 508//509
f 510//510 507//507 511//511
f 512//512 510//510 513//513
f 514//514 512//512 515//515
f 516//516 514//514 517//517
f 518//518 516//516 519//519
f 30//29 518//518 520//520
f 507//507 508//509 511//511
f 511//511 508//509 521//521
f 510//510 511//511 513//513
f 513//513 511//511 522//522
f 511//511 521//521 522//522
f 522//522 521//521 523//523
f 512//512 513//513 515//515
f 515//515 513//513 524//524
f 513//513 522//522 524//524
f 524//524 522//522 525//525
f 522//522 523//523 525//525
f 525//525 523//523 526//526
f 514//514 515//515 517//517
f 517//517 515//515 527//527
f 515//515 524//524 527//527
f 527//527 524//524 528//528
f 524//524 525//525 528//528
f 528//528 525//525 529//529
f 525//525 526//526 529//529
f 529//529 526//526 530//530
f 516//516 517//517 519//519
f 519//519 517//517 531//531
f 517//517 527//527 531//531
f 531//531 527//527 532//532
f 527//527 528//528 532//532
f 532//532 528//528 533//533
f 528//528 529//529 533//533
f 533//533 529//529 534//534
f 529//529 530//530 534//534
f 534//534 530//530 535//535
f 518//518 519//519 520//520
f 520//520 519//519 536//536
f 519//519 531//531 536//536
f 536//536 531//531 537//537
f 531//531 532//532 537//537
f 537//537 532//532 538//538
f 532//532 533//533 538//538
f 538//538 533//533 539//539
f 533//533 534//534 539//539
f 539//539 534//534 540//540
f 534//534 535//535 540//540
f 540//540 535//535 42//41
f 30//29 520//520 29//30
f 29//30 520//520 378//378
f 520//520 536//536 378//378
f 378//378 536//536 380//380
f 536//536 537//537 380//380
f 380//380 537//537 383//383
f 537//537 538//538 383//383
f 383//383 538//538 387//387
f 538//538 539//539 387//387
f 387//387 539//539 392//392
f 539//539 540//540 392//392
f 392//392 540//540 398//398
f 540//540 42//41 398//398
f 398//398 42//41 40//40
f 541//541 509//508 507//507
f 542//542 541//541 543//543
f 544//544 542//542 545//545
f 546//546 544//544 547//547
f 548//548 546//546 549//549
f 550//550 548//548 551//551
f 33//32 550//550 552//552
f 541//541 507//507 543//543
f 543//543 507//507 510//510
f 542//542 543//543 545//545
f 545//545 543//543 553//553
f 543//543 510//510 553//553
f 553//553 510//510 512//512
f 544//544 545//545 547//547
f 547//547 545//545 554//554
f 545//545 553//553 554//554
f 554//554 553//553 555//555
f 553//553 512//512 555//555
f 555//555 512//512 514//514
f 546//546 547//547 549//549
f 549//549 547//547 556//556
f 547//547 554//554 556//556
f 556//556 554//554 557//557
f 554//554 555//555 557//557
f 557//557 555//555 558//558
f 555//555 514//514 558//558
f 558//558 514//514 516//516
f 548//548 549//549 551//551
f 551//551 549//549 559//559
f 549//549 556//556 559//559
f 559//559 556//556 560//560
f 556//556 557//557 560//560
f 560//560 557//557 561//561
f 557//557 558//558 561//561
f 561//561 558//558 562//562
f 558//558 516//516 562//562
f 562//562 516//516 518//518
f 550//550 551//551 552//552
f 552//552 551//551 563//563
f 551//551 559//559 563//563
f 563//563 559//559 564//564
f 559//559 560//560 564//564
f 564//564 560//560 565//565
f 560//560 561//561 565//565
f 565//565 561//561 566//566
f 561//561 562//562 566//566
f 566//566 562//562 567//567
f 562//562 518//518 567//567
f 567//567 518//518 30//29
f 33//32 552//552 32//33
f 32//33 552//552 405//405
f 552//552 563//563 405//405
f 405//405 563//563 407//407
f 563//563 564//564 407//407
f 407//407 564//564 410//410
f 564//564 565//565 410//410
f 410//410 565//565 414//414
f 565//565 566//566 414//414
f 414//414 566//566 419//419
f 566//566 567//567 419//419
f 419//419 567//567 425//425
f 567//567 30//29 425//425
f 425//425 30//29 28//28
f 568//568 509//508 541//541
f 569//569 568//568 570//570
f 571//571 569//569 572//572
f 573//573 571//571 574//574
f 575//575 573//573 576//576
f 577//577 575//575 578//578
f 36//35 577//577 579//579
f 568//568 541//541 570//570
f 570//570 541//541 542//542
f 569//569 570//570 572//572
f 572//572 570//570 580//580
f 570//570 542//542 580//580
f 580//580 542//542 544//544
f 571//571 572//572 574//574
f 574//574 572//572 581//581
f 572//572 580//580 581//581
f 581//581 580//580 582//582
f 580//580 544//544 582//582
f 582//582 544//544 546//546
f 573//573 574//574 576//576
f 576//576 574//574 583//583
f 574//574 581//581 583//583
f 583//583 581//581 584//584
f 581//581 582//582 584//584
f 584//584 582//582 585//585
f 582//582 546//546 585//585
f 585//585 546//546 548//548
f 575//575 576//576 578//578
f 578//578 576//576 586//586
f 576//576 583//583 586//586
f 586//586 583//583 587//587
f 583//583 584//584 587//587
f 587//587 584//584 588//588
f 584//584 585//585 588//588
f 588//588 585//585 589//589
f 585//585 548//548 589//589
f 589//589 548//548 550//550
f 577//577 578//578 579//579
f 579//579 578//578 590//590
f 578//578 586//586 590//590
f 590//590 586//586 591//591
f 586//586 587//587 591//591
f 591//591 587//587 592//592
f 587//587 588//588 592//592
f 592//592 588//588 593//593
f 588//588 589//589 593//593
f 593//593 589//589 594//594
f 589//589 550//550 594//594
f 594//594 550//550 33//32
f 36//35 579//579 35//36
f 35//36 579//579 432//432
f 579//579 590//590 432//432
f 432//432 590//590 434//434
f 590//590 591//591 434//434
f 434//434 591//591 437//437
f 591//591 592//592 437//437
f 437//437 592//592 441//441
f 592//592 593//593 441//441
f 441//441 593//593 446//446
f 593//593 594//594 446//446
f 446//446 594//594 452//452
f 594//594 33//32 452//452
f 452//452 33//32 31//31
f 595//595 509//508 568//568
f 596//596 595//595 597//597
f 598//598 596//596 599//599
f 600//600 598//598 601//601
f 602//602 600//600 603//603
f 604//604 602//602 605//605
f 39//38 604//604 606//606
f 595//595 568//568 597//597
f 597//597 568//568 569//569
f 596//596 597//597 599//599
f 599//599 597//597 607//607
f 597//597 569//569 607//607
f 607//607 569//569 571//571
f 598//598 599//599 601//601
f 601//601 599//599 608//608
f 599//599 607//607 608//608
f 608//608 607//607 609//609
f 607//607 571//571 609//609
f 609//609 571//571 573//573
f 600//600 601//601 603//603
f 603//603 601//601 610//610
f 601//601 608//608 610//610
f 610//610 608//608 611//611
f 608//608 609//609 611//611
f 611//611 609//609 612//612
f 609//609 573//573 612//612
f 612//612 573//573 575//575
f 602//602 603//603 605//605
f 605//605 603//603 613//613
f 603//603 610//610 613//613
f 613//613 610//610 614//614
f 610//610 611//611 614//614
f 614//614 611//611 615//615
f 611//611 612//612 615//615
f 615//615 612//612 616//616
f 612//612 575//575 616//616
f 616//616 575//575 577//577
f 604//604 605//605 606//606
f 606//606 605//605 617//617
f 605//605 613//613 617//617
f 617//617 613//613 618//618
f 613//613 614//614 618//618
f 618//618 614//614 619//619
f 614//614 615//615 619//619
f 619//619 615//615 620//620
f 615//615 616//616 620//620
f 620//620 616//616 621//621
f 616//616 577//577 621//621
f 621//621 577//577 36//35
f 39//38 606//606 38//39
f 38//39 606//606 459//459
f 606//606 617//617 459//459
f 459//459 617//617 461//461
f 617//617 618//618 461//461
f 461//461 618//618 464//464
f 618//618 619//619 464//464
f 464//464 619//619 468//468
f 619//619 620//620 468//468
f 468//468 620//620 473//473
f 620//620 621//621 473//473
f 473//473 621//621 479//479
f 621//621 36//35 479//479
f 479//479 36//35 34//34
f 508//509 509//508 595//595
f 521//521 508//509 622//622
f 523//523 521//521 623//623
f 526//526 523//523 624//624
f 530//530 526//526 625//625
f 535//535 530//530 626//626
f 42//41 535//535 627//627
f 508//509 595//595 622//622
f 622//622 595//595 596//596
f 521//521 622//622 623//623
f 623//623 622//622 628//628
f 622//622 596//596 628//628
f 628//628 596//596 598//598
f 523//523 623//623 624//624
f 624//624 623//623 629//629
f 623//623 628//628 629//629
f 629//629 628//628 630//630
f 628//628 598//598 630//630
f 630//630 598//598 600//600
f 526//526 624//624 625//625
f 625//625 624//624 631//631
f 624//624 629//629 631//631
f 631//631 629//629 632//632
f 629//629 630//630 632//632
f 632//632 630//630 633//633
f 630//630 600//600 633//633
f 633//633 600//600 602//602
f 530//530 625//625 626//626
f 626//626 625//625 634//634
f 625//625 631//631 634//634
f 634//634 631//631 635//635
f 631//631 632//632 635//635
f 635//635 632//632 636//636
f 632//632 633//633 636//636
f 636//636 633//633 637//637
f 633//633 602//602 637//637
f 637//637 602//602 604//604
f 535//535 626//626 627//627
f 627//627 626//626 638//638
f 626//626 634//634 638//638
f 638//638 634//634 639//639
f 634//634 635//635 639//639
f 639//639 635//635 640//640
f 635//635 636//636 640//640
f 640//640 636//636 641//641
f 636//636 637//637 641//641
f 641//641 637//637 642//642
f 637//637 604//604 642//642
f 642//642 604//604 39//38
f 42//41 627//627 41//42
f 41//42 627//627 486//486
f 627//627 638//638 486//486
f 486//486 638//638 488//488
f 638//638 639//639 488//488
f 488//488 639//639 491//491
f 639//639 640//640 491//491
f 491//491 640//640 495//495
f 640//640 641//641 495//495
f 495//495 641//641 500//500
f 641//641 642//642 500//500
f 500//500 642//642 506//506
f 642//642 39//38 506//506
f 506//506 39//38 37//37
