# Blender MTL File: 'None'
# Material Count: 1
newmtl mat5
Ns 121.568627
Ka 0.000000 0.000000 0.000000
Kd 1.198621 1.173709 1.205062
Ks 0.042896 0.052591 0.056378
Ni 1.000000
d 0.911000
illum 2
#map_Kd rock1.jpg


