# Blender MTL File: 'meteor NM 7366.blend'
# Material Count: 1
newmtl meteor
Ns 125.490196
Ka 0.000000 0.000000 0.000000
Kd 0.498276 0.467136 0.506327
Ks 0.042896 0.052591 0.056378
Ni 1.000000
d 0.911000
illum 2
#map_Kd rock1.jpg


